waveforms/top_unit_pipelined.vcd
$date
	Sat Jul 18 19:02:55 2026
$end
$version
	Icarus Verilog
$end
$timescale
	1s
$end
$scope module top_unit_pipelined_test $end
$var wire 1 ! tx $end
$var wire 8 " received_byte [7:0] $end
$var wire 1 # byte_valid $end
$var reg 1 $ clk $end
$var reg 1 % reset $end
$scope module uut1 $end
$var wire 1 $ clk $end
$var wire 1 % reset $end
$var wire 1 & rx $end
$var wire 1 ' zero $end
$var wire 1 ! tx $end
$var wire 1 ( stallF $end
$var wire 1 ) stallD $end
$var wire 32 * slt [31:0] $end
$var wire 1 + overflow $end
$var wire 1 , negative $end
$var wire 1 - mul_busy $end
$var wire 1 . mulE $end
$var wire 1 / flushE $end
$var wire 1 0 flushD $end
$var wire 1 1 done $end
$var wire 1 2 carry $end
$var wire 32 3 WriteDataM [31:0] $end
$var wire 32 4 SrcBE [31:0] $end
$var wire 32 5 SrcAE [31:0] $end
$var wire 5 6 Rs2E [4:0] $end
$var wire 5 7 Rs2D [4:0] $end
$var wire 5 8 Rs1E [4:0] $end
$var wire 5 9 Rs1D [4:0] $end
$var wire 64 : Result_M [63:0] $end
$var wire 32 ; ResultW [31:0] $end
$var wire 1 < RegWriteW $end
$var wire 1 = RegWriteM $end
$var wire 1 > RegWriteE $end
$var wire 32 ? ReadDataW [31:0] $end
$var wire 5 @ RdW [4:0] $end
$var wire 5 A RdM [4:0] $end
$var wire 5 B RdE [4:0] $end
$var wire 32 C RD2E [31:0] $end
$var wire 32 D RD1E [31:0] $end
$var wire 32 E PCplus4W [31:0] $end
$var wire 32 F PCplus4M [31:0] $end
$var wire 32 G PCplus4E [31:0] $end
$var wire 32 H PCplus4D [31:0] $end
$var wire 32 I PCTargetE [31:0] $end
$var wire 1 J PCSrcE $end
$var wire 32 K PCE [31:0] $end
$var wire 32 L PCD [31:0] $end
$var wire 1 M MemWriteM $end
$var wire 1 N MemWriteE $end
$var wire 1 O MemToRegW $end
$var wire 1 P MemToRegM $end
$var wire 1 Q MemToRegE $end
$var wire 1 R MemReadM $end
$var wire 1 S MemReadE $end
$var wire 1 T JumpE $end
$var wire 32 U InstrD [31:0] $end
$var wire 32 V Imm_outE [31:0] $end
$var wire 2 W ForwardBE [1:0] $end
$var wire 2 X ForwardAE [1:0] $end
$var wire 1 Y BranchE $end
$var wire 32 Z ALuResultW [31:0] $end
$var wire 32 [ ALuResultM [31:0] $end
$var wire 3 \ ALUcontrolE [2:0] $end
$var wire 1 ] ALUSrcE $end
$var wire 2 ^ ALUOpE [1:0] $end
$scope module decode $end
$var wire 1 $ clk $end
$var wire 1 % reset $end
$var wire 7 _ op [6:0] $end
$var wire 1 - mul_busy $end
$var wire 1 ` mulD $end
$var wire 1 a func7_5 $end
$var wire 1 / flushE $end
$var wire 5 b Rs2D [4:0] $end
$var wire 5 c Rs1D [4:0] $end
$var wire 32 d ResultW [31:0] $end
$var wire 1 < RegWriteW $end
$var wire 1 e RegWriteD $end
$var wire 5 f RdW [4:0] $end
$var wire 5 g RdD [4:0] $end
$var wire 32 h RD2D [31:0] $end
$var wire 32 i RD1D [31:0] $end
$var wire 32 j PCplus4D [31:0] $end
$var wire 32 k PCD [31:0] $end
$var wire 1 l MemWriteD $end
$var wire 1 m MemToRegD $end
$var wire 1 n MemReadD $end
$var wire 1 o JumpD $end
$var wire 32 p InstrD [31:0] $end
$var wire 32 q Imm_outD [31:0] $end
$var wire 1 r BranchD $end
$var wire 3 s ALUcontrolD [2:0] $end
$var wire 1 t ALUSrcD $end
$var wire 2 u ALUOpD [1:0] $end
$var reg 2 v ALUOpE [1:0] $end
$var reg 1 ] ALUSrcE $end
$var reg 3 w ALUcontrolE [2:0] $end
$var reg 1 Y BranchE $end
$var reg 32 x Imm_outE [31:0] $end
$var reg 1 T JumpE $end
$var reg 1 S MemReadE $end
$var reg 1 Q MemToRegE $end
$var reg 1 N MemWriteE $end
$var reg 32 y PCE [31:0] $end
$var reg 32 z PCplus4E [31:0] $end
$var reg 32 { RD1E [31:0] $end
$var reg 32 | RD2E [31:0] $end
$var reg 5 } RdE [4:0] $end
$var reg 1 > RegWriteE $end
$var reg 5 ~ Rs1E [4:0] $end
$var reg 5 !" Rs2E [4:0] $end
$var reg 1 . mulE $end
$scope module alu_control $end
$var wire 32 "" instruction [31:0] $end
$var wire 1 #" func7_5 $end
$var wire 7 $" func7 [6:0] $end
$var wire 3 %" func3 [2:0] $end
$var wire 2 &" ALUOp [1:0] $end
$var reg 3 '" ALUcontrol [2:0] $end
$var reg 1 ` mulD $end
$upscope $end
$scope module control_unit $end
$var wire 32 (" instruction [31:0] $end
$var reg 2 )" ALUOp [1:0] $end
$var reg 1 t ALUSrc $end
$var reg 1 r Branch $end
$var reg 1 o Jump $end
$var reg 1 n MemRead $end
$var reg 1 m MemToReg $end
$var reg 1 l MemWrite $end
$var reg 1 e RegWrite $end
$upscope $end
$scope module imm_gen $end
$var wire 32 *" instruction [31:0] $end
$var reg 32 +" imm_out [31:0] $end
$upscope $end
$scope module register_file $end
$var wire 1 $ clk $end
$var wire 5 ," rs1_addr [4:0] $end
$var wire 5 -" rs2_addr [4:0] $end
$var wire 1 < we $end
$var wire 32 ." rs2_data [31:0] $end
$var wire 32 /" rs1_data [31:0] $end
$var wire 32 0" rd_data [31:0] $end
$var wire 5 1" rd_addr [4:0] $end
$var integer 32 2" i [31:0] $end
$upscope $end
$upscope $end
$scope module execute $end
$var wire 1 ] ALUSrcE $end
$var wire 3 3" ALUcontrolE [2:0] $end
$var wire 1 Y BranchE $end
$var wire 32 4" Imm_outE [31:0] $end
$var wire 1 T JumpE $end
$var wire 1 S MemReadE $end
$var wire 1 Q MemToRegE $end
$var wire 1 N MemWriteE $end
$var wire 32 5" PCE [31:0] $end
$var wire 1 J PCSrcE $end
$var wire 32 6" PCplus4E [31:0] $end
$var wire 5 7" RdE [4:0] $end
$var wire 1 > RegWriteE $end
$var wire 32 8" WriteDataE [31:0] $end
$var wire 1 $ clk $end
$var wire 1 . mulE $end
$var wire 1 - mul_busy $end
$var wire 1 % reset $end
$var wire 1 ' zero $end
$var wire 32 9" slt [31:0] $end
$var wire 1 + overflow $end
$var wire 1 , negative $end
$var wire 1 1 done $end
$var wire 1 2 carry $end
$var wire 32 :" SrcBE [31:0] $end
$var wire 32 ;" SrcAE [31:0] $end
$var wire 32 <" Src2E [31:0] $end
$var wire 64 =" Result_M [63:0] $end
$var wire 32 >" RD2E [31:0] $end
$var wire 32 ?" RD1E [31:0] $end
$var wire 32 @" PCTargetE [31:0] $end
$var wire 32 A" ALuResultE_A [31:0] $end
$var wire 32 B" ALuResultE [31:0] $end
$var reg 32 C" ALuResultM [31:0] $end
$var reg 1 R MemReadM $end
$var reg 1 P MemToRegM $end
$var reg 1 M MemWriteM $end
$var reg 32 D" PCplus4M [31:0] $end
$var reg 5 E" RdM [4:0] $end
$var reg 1 = RegWriteM $end
$var reg 32 F" WriteDataM [31:0] $end
$scope module alu $end
$var wire 3 G" ALUcontrol [2:0] $end
$var wire 32 H" a_and_b [31:0] $end
$var wire 32 I" a_or_b [31:0] $end
$var wire 32 J" b [31:0] $end
$var wire 1 2 carry $end
$var wire 32 K" not_b [31:0] $end
$var wire 1 + overflow $end
$var wire 1 L" xnor_gate $end
$var wire 1 M" xor_gate $end
$var wire 1 ' zero $end
$var wire 32 N" wire_b [31:0] $end
$var wire 32 O" sum [31:0] $end
$var wire 32 P" slt [31:0] $end
$var wire 32 Q" result [31:0] $end
$var wire 1 , negative $end
$var wire 1 R" cout $end
$var wire 32 S" a [31:0] $end
$upscope $end
$scope module mul_2 $end
$var wire 32 T" b [31:0] $end
$var wire 1 $ clk $end
$var wire 1 % reset $end
$var wire 1 . start $end
$var wire 1 1 done $end
$var wire 32 U" a [31:0] $end
$var wire 64 V" Result [63:0] $end
$var parameter 2 W" done_p $end
$var parameter 2 X" idle $end
$var parameter 2 Y" start_p $end
$var reg 64 Z" Result_in [63:0] $end
$var reg 64 [" a_in [63:0] $end
$var reg 64 \" b_in [63:0] $end
$var reg 6 ]" count [5:0] $end
$var reg 1 1 done_in $end
$var reg 1 ^" start_prev $end
$var reg 2 _" state [1:0] $end
$upscope $end
$upscope $end
$scope module fetch $end
$var wire 1 J PCSrcE $end
$var wire 32 `" PCTargetE [31:0] $end
$var wire 1 $ clk $end
$var wire 1 % reset $end
$var wire 1 ( stallF $end
$var wire 32 a" instruction [31:0] $end
$var wire 1 0 flushD $end
$var wire 32 b" PCPlus4F [31:0] $end
$var wire 32 c" PCF_next [31:0] $end
$var reg 32 d" InstrD [31:0] $end
$var reg 32 e" PCD [31:0] $end
$var reg 32 f" PCF [31:0] $end
$var reg 32 g" PCplus4D [31:0] $end
$scope module instr_mem $end
$var wire 32 h" addr [31:0] $end
$var wire 32 i" instruction [31:0] $end
$upscope $end
$upscope $end
$scope module hazard_control_unit $end
$var wire 1 S MemReadE $end
$var wire 1 J PCSrcE $end
$var wire 5 j" RdE [4:0] $end
$var wire 5 k" Rs1D [4:0] $end
$var wire 5 l" Rs2D [4:0] $end
$var wire 1 0 flushD $end
$var wire 1 / flushE $end
$var wire 1 - mul_busy $end
$var wire 1 ) stallD $end
$var wire 1 ( stallF $end
$var reg 1 m" LoadUseHazard $end
$upscope $end
$scope module hazard_unit $end
$var wire 32 n" ALuResultM [31:0] $end
$var wire 32 o" RD1E [31:0] $end
$var wire 32 p" RD2E [31:0] $end
$var wire 5 q" RdM [4:0] $end
$var wire 1 = RegWriteM $end
$var wire 5 r" Rs1E [4:0] $end
$var wire 5 s" Rs2E [4:0] $end
$var wire 32 t" SrcBE [31:0] $end
$var wire 32 u" SrcAE [31:0] $end
$var wire 32 v" ResultW [31:0] $end
$var wire 1 < RegWriteW $end
$var wire 5 w" RdW [4:0] $end
$var wire 2 x" ForwardBE [1:0] $end
$var wire 2 y" ForwardAE [1:0] $end
$upscope $end
$scope module memory_access $end
$var wire 32 z" ALuResultM [31:0] $end
$var wire 1 R MemReadM $end
$var wire 1 P MemToRegM $end
$var wire 1 M MemWriteM $end
$var wire 32 {" PCplus4M [31:0] $end
$var wire 5 |" RdM [4:0] $end
$var wire 1 = RegWriteM $end
$var wire 32 }" WriteDataM [31:0] $end
$var wire 1 $ clk $end
$var wire 1 % reset $end
$var wire 1 & rx $end
$var wire 1 ! tx $end
$var wire 1 ~" rx_full $end
$var wire 1 !# rx_data_read $end
$var wire 8 "# received_byte [7:0] $end
$var wire 32 ## data_data_memory [31:0] $end
$var wire 32 $# data_UART [31:0] $end
$var wire 1 %# byte_valid $end
$var wire 32 &# address_data_memory [31:0] $end
$var wire 32 '# address_UART [31:0] $end
$var wire 32 (# UART_rx_byte [31:0] $end
$var wire 1 )# UART_busy $end
$var wire 32 *# ReadDataMem_in [31:0] $end
$var wire 32 +# ReadDataM_out [31:0] $end
$var wire 1 ,# MemWriteM_data_memory $end
$var wire 1 -# MemWriteM_UART $end
$var reg 32 .# ALuResultW [31:0] $end
$var reg 1 O MemToRegW $end
$var reg 32 /# PCplus4W [31:0] $end
$var reg 5 0# RdW [4:0] $end
$var reg 32 1# ReadDataW [31:0] $end
$var reg 1 < RegWriteW $end
$var reg 1 2# rx_sync1 $end
$var reg 1 3# rx_sync2 $end
$scope module UART_rx $end
$var wire 1 $ clk $end
$var wire 1 % reset $end
$var wire 1 3# tx $end
$var parameter 32 4# CLKS_PER_BIT $end
$var parameter 2 5# idle $end
$var parameter 2 6# rx_data_read $end
$var parameter 2 7# start $end
$var parameter 2 8# stop $end
$var reg 3 9# bit_counter [2:0] $end
$var reg 1 %# byte_valid $end
$var reg 8 :# cycle_counter [7:0] $end
$var reg 8 ;# received_byte [7:0] $end
$var reg 2 <# state [1:0] $end
$upscope $end
$scope module UART_rx_mmio $end
$var wire 32 =# UART_rx_byte [31:0] $end
$var wire 1 %# byte_valid $end
$var wire 1 $ clk $end
$var wire 8 ># received_byte [7:0] $end
$var wire 1 % reset $end
$var wire 1 !# rx_data_read $end
$var parameter 1 ?# Empty $end
$var parameter 1 @# Full $end
$var reg 32 A# rx_data_latched [31:0] $end
$var reg 1 ~" rx_full $end
$var reg 1 B# state $end
$upscope $end
$scope module UART_tx $end
$var wire 1 $ clk $end
$var wire 8 C# data_in [7:0] $end
$var wire 1 % reset $end
$var wire 1 -# MemWriteM_UART $end
$var parameter 32 D# CLKS_PER_BIT $end
$var parameter 2 E# data $end
$var parameter 2 F# idle $end
$var parameter 2 G# start $end
$var parameter 2 H# stop $end
$var reg 3 I# bit_counter [2:0] $end
$var reg 1 )# busy $end
$var reg 8 J# cycle_counter [7:0] $end
$var reg 8 K# shift_reg [7:0] $end
$var reg 2 L# state [1:0] $end
$var reg 1 ! tx $end
$upscope $end
$scope module bus_interconnect $end
$var wire 1 R MemReadM $end
$var wire 1 M MemWriteM $end
$var wire 1 )# UART_busy $end
$var wire 32 M# UART_rx_byte [31:0] $end
$var wire 32 N# address [31:0] $end
$var wire 32 O# data_in [31:0] $end
$var wire 1 ~" rx_full $end
$var wire 32 P# data_out [31:0] $end
$var reg 1 -# MemWriteM_UART $end
$var reg 1 ,# MemWriteM_data_memory $end
$var reg 32 Q# ReadDataMem [31:0] $end
$var reg 32 R# address_UART [31:0] $end
$var reg 32 S# address_data_memory [31:0] $end
$var reg 32 T# data_UART [31:0] $end
$var reg 32 U# data_data_memory [31:0] $end
$var reg 1 !# rx_data_read $end
$upscope $end
$scope module data_memory $end
$var wire 32 V# address [31:0] $end
$var wire 1 $ clk $end
$var wire 32 W# data_in [31:0] $end
$var wire 32 X# data_out [31:0] $end
$var wire 1 ,# we $end
$var integer 32 Y# i [31:0] $end
$upscope $end
$upscope $end
$scope module write_back $end
$var wire 32 Z# ALuResultW [31:0] $end
$var wire 1 O MemToRegW $end
$var wire 32 [# ReadDataW [31:0] $end
$var wire 1 \# clk $end
$var wire 1 ]# reset $end
$var wire 32 ^# ResultW [31:0] $end
$upscope $end
$upscope $end
$scope module uut2 $end
$var wire 1 $ clk $end
$var wire 1 % reset $end
$var wire 1 ! tx $end
$var parameter 32 _# CLKS_PER_BIT $end
$var parameter 2 `# idle $end
$var parameter 2 a# rx_data_read $end
$var parameter 2 b# start $end
$var parameter 2 c# stop $end
$var reg 3 d# bit_counter [2:0] $end
$var reg 1 # byte_valid $end
$var reg 8 e# cycle_counter [7:0] $end
$var reg 8 f# received_byte [7:0] $end
$var reg 2 g# state [1:0] $end
$upscope $end
$upscope $end
$enddefinitions $end
$comment Show the parameter values. $end
$dumpall
b11 c#
b1 b#
b10 a#
b0 `#
b10100010110001 _#
b11 H#
b1 G#
b0 F#
b10 E#
b10100010110001 D#
1@#
0?#
b11 8#
b1 7#
b10 6#
b0 5#
b10100010110001 4#
b1 Y"
b0 X"
b10 W"
$end
#0
$dumpvars
bx g#
bx f#
bx e#
bx d#
bx ^#
z]#
z\#
bx [#
bx Z#
b10000000000 Y#
b0 X#
b0 W#
b0 V#
b0 U#
bx T#
b0 S#
bx R#
b0 Q#
b0 P#
bx O#
bx N#
bx M#
b0 L#
bx K#
bx J#
bx I#
bx C#
xB#
bx A#
bx >#
bx =#
bx <#
bx ;#
bx :#
bx 9#
x3#
z2#
bx 1#
bx 0#
bx /#
bx .#
x-#
0,#
b0 +#
b0 *#
0)#
bx (#
bx '#
b0 &#
0%#
bx $#
b0 ##
bx "#
0!#
x~"
bx }"
bx |"
bx {"
bx z"
bx y"
bx x"
bx w"
bx v"
bx u"
bx t"
bx s"
bx r"
bx q"
bx p"
bx o"
bx n"
xm"
bx l"
bx k"
bx j"
bx i"
bx h"
bx g"
bx f"
bx e"
bx d"
bx c"
bx b"
bx a"
bx `"
b0 _"
x^"
b100000 ]"
b0xxxxxxxxxxxxxxxxxxxxxxxxxxxxxxxx \"
b0xxxxxxxxxxxxxxxxxxxxxxxxxxxxxxxx ["
b0 Z"
b0 V"
bx U"
bx T"
bx S"
xR"
bx Q"
b0x P"
bx O"
bx N"
xM"
xL"
bx K"
bx J"
bx I"
bx H"
bx G"
bx F"
bx E"
bx D"
bx C"
bx B"
bx A"
bx @"
bx ?"
bx >"
b0 ="
bx <"
bx ;"
bx :"
b0x 9"
bx 8"
bx 7"
bx 6"
bx 5"
bx 4"
bx 3"
b100000 2"
bx 1"
bx 0"
bx /"
bx ."
bx -"
bx ,"
bx +"
bx *"
bx )"
bx ("
bx '"
bx &"
bx %"
bx $"
x#"
bx ""
bx !"
bx ~
bx }
bx |
bx {
bx z
bx y
bx x
bx w
bx v
bx u
xt
bx s
xr
bx q
bx p
xo
xn
xm
xl
bx k
bx j
bx i
bx h
bx g
bx f
xe
bx d
bx c
bx b
xa
x`
bx _
bx ^
x]
bx \
bx [
bx Z
xY
bx X
bx W
bx V
bx U
xT
xS
xR
xQ
xP
xO
xN
xM
bx L
bx K
xJ
bx I
bx H
bx G
bx F
bx E
bx D
bx C
bx B
bx A
bx @
bx ?
x>
x=
x<
bx ;
b0 :
bx 9
bx 8
bx 7
bx 6
bx 5
bx 4
bx 3
x2
01
x0
x/
x.
x-
x,
x+
b0x *
x)
x(
x'
z&
1%
1$
0#
bx "
1!
$end
#5
0$
#10
0+
b0 *
b0 9"
b0 P"
0,
1'
b0 B"
0M"
b0 A"
b0 Q"
02
b0 O"
0R"
1L"
b11111111111111111111111111111111 K"
b0 N"
b0 I"
b0 H"
b0 <"
b0 J"
b0 T"
b0 X
b0 y"
b0 W
b0 x"
b0 5
b0 ;"
b0 ?"
b0 S"
b0 U"
b0 u"
b0 8"
b0 4
b0 :"
b0 >"
b0 t"
0/
b0 h
b0 ."
b0 i
b0 /"
b0 C#
00
0J
0(
0)
0`
b0 s
b0 '"
b10100000000000010010011 a"
b10100000000000010010011 i"
b0 ;
b0 d
b0 0"
b0 v"
b0 ^#
0-#
b0 $#
b0 T#
b0 '#
b0 R#
0-
0m"
b0 %"
0#"
b0 $"
0a
b0 _
b0 g
b0 7
b0 b
b0 -"
b0 l"
b0 9
b0 c
b0 ,"
b0 k"
b0 u
b0 &"
b0 )"
0o
0r
0m
0n
0l
0t
0e
b0 q
b0 +"
b100 c"
b0 d#
b0 e#
b0 g#
b0 "
b0 f#
0O
0<
b0 Z
b0 .#
b0 Z#
b0 E
b0 /#
b0 @
b0 f
b0 1"
b0 w"
b0 0#
b0 ?
b0 1#
b0 [#
z3#
0B#
b0 (#
b0 =#
b0 M#
b0 A#
0~"
b0 9#
b0 :#
b0 <#
b0 "#
b0 ;#
b0 >#
b0 I#
b0 K#
b0 J#
0R
0P
0M
0=
b0 F
b0 D"
b0 {"
b0 A
b0 E"
b0 q"
b0 |"
b0 3
b0 F"
b0 }"
b0 O#
b0 [
b0 C"
b0 n"
b0 z"
b0 N#
0^"
b0 \"
b0 ["
0.
b0 6
b0 !"
b0 s"
b0 8
b0 ~
b0 r"
b0 C
b0 |
b0 p"
b0 D
b0 {
b0 o"
b0 G
b0 z
b0 6"
b0 I
b0 @"
b0 `"
b0 K
b0 y
b0 5"
b0 V
b0 x
b0 4"
b0 B
b0 }
b0 7"
b0 j"
0Q
0]
b0 ^
b0 v
b0 \
b0 w
b0 3"
b0 G"
0Y
0T
0S
0N
0>
b0 H
b0 j
b0 g"
b0 L
b0 k
b0 e"
b0 U
b0 p
b0 ""
b0 ("
b0 *"
b0 d"
b100 b"
b0 f"
b0 h"
1$
#15
0$
#20
1$
#25
0$
#30
1$
#35
0$
#40
0%
1$
#45
0$
#50
b101000000000000100010011 a"
b101000000000000100010011 i"
b10011 _
b1 g
b101 7
b101 b
b101 -"
b101 l"
b101 q
b101 +"
1t
1e
b1000 c"
b100 H
b100 j
b100 g"
b10100000000000010010011 U
b10100000000000010010011 p
b10100000000000010010011 ""
b10100000000000010010011 ("
b10100000000000010010011 *"
b10100000000000010010011 d"
b1000 b"
b100 f"
b100 h"
1$
#55
0$
#60
0'
b101 B"
b101 A"
b101 Q"
b101 O"
b10001000001000000110110011 a"
b10001000001000000110110011 i"
b101 I"
b11111111111111111111111111111010 K"
b101 N"
b10 g
b1010 7
b1010 b
b1010 -"
b1010 l"
1t
1e
b1010 q
b1010 +"
b1100 c"
b101 <"
b101 J"
b101 T"
b1000 H
b1000 j
b1000 g"
b100 L
b100 k
b100 e"
b101000000000000100010011 U
b101000000000000100010011 p
b101000000000000100010011 ""
b101000000000000100010011 ("
b101000000000000100010011 *"
b101000000000000100010011 d"
b1100 b"
b1000 f"
b1000 h"
b101 6
b101 !"
b101 s"
b100 G
b100 z
b100 6"
b101 I
b101 @"
b101 `"
b101 V
b101 x
b101 4"
b1 B
b1 }
b1 7"
b1 j"
1]
1>
1$
#65
0$
#70
b1010 B"
b1010 A"
b1010 Q"
b1010 O"
b1010 I"
b11111111111111111111111111110101 K"
b1010 N"
1`
b10000011010000000100011 a"
b10000011010000000100011 i"
b101 &#
b101 S#
b101 V#
b1010 <"
b1010 J"
b1010 T"
b1 $"
b110011 _
b11 g
b10 7
b10 b
b10 -"
b10 l"
b1 9
b1 c
b1 ,"
b1 k"
b0 q
b0 +"
b10 u
b10 &"
b10 )"
0t
1e
b10000 c"
1=
b100 F
b100 D"
b100 {"
b1 A
b1 E"
b1 q"
b1 |"
b101 [
b101 C"
b101 n"
b101 z"
b101 N#
b101 \"
b1010 6
b1010 !"
b1010 s"
b1000 G
b1000 z
b1000 6"
b100 K
b100 y
b100 5"
b1110 I
b1110 @"
b1110 `"
b1010 V
b1010 x
b1010 4"
b10 B
b10 }
b10 7"
b10 j"
b1100 H
b1100 j
b1100 g"
b1000 L
b1000 k
b1000 e"
b10001000001000000110110011 U
b10001000001000000110110011 p
b10001000001000000110110011 ""
b10001000001000000110110011 ("
b10001000001000000110110011 *"
b10001000001000000110110011 d"
b10000 b"
b1100 f"
b1100 h"
1$
#75
0$
#80
0'
b1111 B"
b101 5
b101 ;"
b101 ?"
b101 S"
b101 U"
b101 u"
b1010 8"
b1010 4
b1010 :"
b1010 >"
b1010 t"
b1111 A"
b1111 Q"
b1 X
b1 y"
b1111 O"
0`
b100010001010000011 a"
b100010001010000011 i"
1)
1(
b10 W
b10 x"
b1111 I"
b11111111111111111111111111110101 K"
b1010 N"
b0 i
b0 /"
b10 %"
b0 $"
b100011 _
b0 g
b100 7
b100 b
b100 -"
b100 l"
b11 9
b11 c
b11 ,"
b11 k"
1t
1l
b0 u
b0 &"
b0 )"
0e
b10100 c"
1-
b1010 <"
b1010 J"
b1010 T"
b1010 &#
b1010 S#
b1010 V#
b101 ;
b101 d
b101 0"
b101 v"
b101 ^#
b10000 H
b10000 j
b10000 g"
b1100 L
b1100 k
b1100 e"
b10000011010000000100011 U
b10000011010000000100011 p
b10000011010000000100011 ""
b10000011010000000100011 ("
b10000011010000000100011 *"
b10000011010000000100011 d"
b10100 b"
b10000 f"
b10000 h"
1.
b10 6
b10 !"
b10 s"
b1 8
b1 ~
b1 r"
b1100 G
b1100 z
b1100 6"
b1000 K
b1000 y
b1000 5"
b1000 I
b1000 @"
b1000 `"
b0 V
b0 x
b0 4"
b11 B
b11 }
b11 7"
b11 j"
0]
b10 ^
b10 v
b1010 \"
b1000 F
b1000 D"
b1000 {"
b10 A
b10 E"
b10 q"
b10 |"
b1010 [
b1010 C"
b1010 n"
b1010 z"
b1010 N#
1<
b101 Z
b101 .#
b101 Z#
b100 E
b100 /#
b1 @
b1 f
b1 1"
b1 w"
b1 0#
1$
#85
0$
#90
b1010 B"
b1010 A"
b1010 Q"
b1010 O"
b1010 I"
b0 5
b0 ;"
b0 ?"
b0 S"
b0 U"
b0 u"
b0 X
b0 y"
b1010 ;
b1010 d
b1010 0"
b1010 v"
b1010 ^#
b1010 Z
b1010 .#
b1010 Z#
b1000 E
b1000 /#
b10 @
b10 f
b10 1"
b10 w"
b10 0#
b1 _"
b101 ["
1^"
1$
#95
0$
#100
b11111 ]"
b1010 ["
b101 \"
1$
#105
0$
#110
b11110 ]"
b10100 ["
b10 \"
b1010 :
b1010 ="
b1010 V"
b1010 Z"
1$
#115
0$
#120
b11101 ]"
b101000 ["
b1 \"
1$
#125
0$
#130
b11100 ]"
b1010000 ["
b0 \"
b110010 :
b110010 ="
b110010 V"
b110010 Z"
1$
#135
0$
#140
b11011 ]"
b10100000 ["
1$
#145
0$
#150
b11010 ]"
b101000000 ["
1$
#155
0$
#160
b11001 ]"
b1010000000 ["
1$
#165
0$
#170
b11000 ]"
b10100000000 ["
1$
#175
0$
#180
b10111 ]"
b101000000000 ["
1$
#185
0$
#190
b10110 ]"
b1010000000000 ["
1$
#195
0$
#200
b10101 ]"
b10100000000000 ["
1$
#205
0$
#210
b10100 ]"
b101000000000000 ["
1$
#215
0$
#220
b10011 ]"
b1010000000000000 ["
1$
#225
0$
#230
b10010 ]"
b10100000000000000 ["
1$
#235
0$
#240
b10001 ]"
b101000000000000000 ["
1$
#245
0$
#250
b10000 ]"
b1010000000000000000 ["
1$
#255
0$
#260
b1111 ]"
b10100000000000000000 ["
1$
#265
0$
#270
b1110 ]"
b101000000000000000000 ["
1$
#275
0$
#280
b1101 ]"
b1010000000000000000000 ["
1$
#285
0$
#290
b1100 ]"
b10100000000000000000000 ["
1$
#295
0$
#300
b1011 ]"
b101000000000000000000000 ["
1$
#305
0$
#310
b1010 ]"
b1010000000000000000000000 ["
1$
#315
0$
#320
b1001 ]"
b10100000000000000000000000 ["
1$
#325
0$
#330
b1000 ]"
b101000000000000000000000000 ["
1$
#335
0$
#340
b111 ]"
b1010000000000000000000000000 ["
1$
#345
0$
#350
b110 ]"
b10100000000000000000000000000 ["
1$
#355
0$
#360
b101 ]"
b101000000000000000000000000000 ["
1$
#365
0$
#370
b100 ]"
b1010000000000000000000000000000 ["
1$
#375
0$
#380
b11 ]"
b10100000000000000000000000000000 ["
1$
#385
0$
#390
b10 ]"
b101000000000000000000000000000000 ["
1$
#395
0$
#400
b1 ]"
b1010000000000000000000000000000000 ["
1$
#405
0$
#410
b0 ]"
b10100000000000000000000000000000000 ["
1$
#415
0$
#420
b10 _"
1$
#425
0$
#430
b110010 B"
0)
0(
0-
b0 _"
11
1$
#435
0$
#440
0'
b110010 5
b110010 ;"
b110010 ?"
b110010 S"
b110010 U"
b110010 u"
b110010 A"
b110010 Q"
b110010 O"
b0 8"
b0 4
b0 :"
b0 >"
b0 t"
b11111110110111111111000001101111 a"
b11111110110111111111000001101111 i"
b10 X
b10 y"
b110010 I"
b11111111111111111111111111111111 K"
b0 N"
b110010 B"
b0 W
b0 x"
b11 _
b101 g
b0 7
b0 b
b0 -"
b0 l"
b100 9
b100 c
b100 ,"
b100 k"
1e
1n
1m
0l
1t
b11000 c"
b0 <"
b0 J"
b0 T"
b1010 ##
b1010 U#
b1010 W#
b110010 &#
b110010 S#
b110010 V#
b10100 H
b10100 j
b10100 g"
b10000 L
b10000 k
b10000 e"
b100010001010000011 U
b100010001010000011 p
b100010001010000011 ""
b100010001010000011 ("
b100010001010000011 *"
b100010001010000011 d"
b11000 b"
b10100 f"
b10100 h"
0.
b100 6
b100 !"
b100 s"
b11 8
b11 ~
b11 r"
b10000 G
b10000 z
b10000 6"
b1100 I
b1100 @"
b1100 `"
b1100 K
b1100 y
b1100 5"
b0 B
b0 }
b0 7"
b0 j"
1]
b0 ^
b0 v
1N
0>
01
b100000 ]"
b0 :
b0 ="
b0 V"
b0 Z"
b1010 \"
b0 ["
b1100 F
b1100 D"
b1100 {"
b11 A
b11 E"
b11 q"
b11 |"
b1010 3
b1010 F"
b1010 }"
b1010 O#
b110010 [
b110010 C"
b110010 n"
b110010 z"
b110010 N#
1$
#445
0$
#450
1'
b0 B"
b0 A"
b0 Q"
b0 O"
b0 I"
b0 5
b0 ;"
b0 ?"
b0 S"
b0 U"
b0 u"
b0 W
b0 x"
b0 X
b0 y"
1`
bx a"
bx i"
b110010 ;
b110010 d
b110010 0"
b110010 v"
b110010 ^#
1,#
b0 ##
b0 U#
b0 W#
b110010 &#
b110010 S#
b110010 V#
b111 %"
1#"
b1111111 $"
1a
b1101111 _
b0 g
b1101 7
b1101 b
b1101 -"
b1101 l"
b11111 9
b11111 c
b11111 ,"
b11111 k"
1o
0m
0n
0t
1e
b11111111111111111111111111101100 q
b11111111111111111111111111101100 +"
b11100 c"
b110010 Z
b110010 .#
b110010 Z#
b1100 E
b1100 /#
b11 @
b11 f
b11 1"
b11 w"
b11 0#
1M
0=
b10000 F
b10000 D"
b10000 {"
b0 A
b0 E"
b0 q"
b0 |"
b0 3
b0 F"
b0 }"
b0 O#
b0 \"
b110010 ["
0^"
b0 6
b0 !"
b0 s"
b100 8
b100 ~
b100 r"
b10100 G
b10100 z
b10100 6"
b10000 I
b10000 @"
b10000 `"
b10000 K
b10000 y
b10000 5"
b101 B
b101 }
b101 7"
b101 j"
1Q
1S
0N
1>
b11000 H
b11000 j
b11000 g"
b10100 L
b10100 k
b10100 e"
b11111110110111111111000001101111 U
b11111110110111111111000001101111 p
b11111110110111111111000001101111 ""
b11111110110111111111000001101111 ("
b11111110110111111111000001101111 *"
b11111110110111111111000001101111 d"
b11100 b"
b11000 f"
b11000 h"
1$
#455
0$
