top_unit_pipelined.vcd
$date
	Thu Jul 16 21:03:11 2026
$end
$version
	Icarus Verilog
$end
$timescale
	1s
$end
$scope module top_unit_pipelined_test $end
$var wire 1 ! tx $end
$var wire 8 " received_byte [7:0] $end
$var wire 1 # byte_valid $end
$var reg 1 $ clk $end
$var reg 1 % reset $end
$scope module uut1 $end
$var wire 1 $ clk $end
$var wire 1 % reset $end
$var wire 1 & zero $end
$var wire 1 ! tx $end
$var wire 1 ' stallF $end
$var wire 1 ( stallD $end
$var wire 32 ) slt [31:0] $end
$var wire 1 * overflow $end
$var wire 1 + negative $end
$var wire 1 , mul_busy $end
$var wire 1 - mulE $end
$var wire 1 . flushE $end
$var wire 1 / flushD $end
$var wire 1 0 done $end
$var wire 1 1 carry $end
$var wire 32 2 WriteDataM [31:0] $end
$var wire 32 3 SrcBE [31:0] $end
$var wire 32 4 SrcAE [31:0] $end
$var wire 5 5 Rs2E [4:0] $end
$var wire 5 6 Rs2D [4:0] $end
$var wire 5 7 Rs1E [4:0] $end
$var wire 5 8 Rs1D [4:0] $end
$var wire 64 9 Result_M [63:0] $end
$var wire 32 : ResultW [31:0] $end
$var wire 1 ; RegWriteW $end
$var wire 1 < RegWriteM $end
$var wire 1 = RegWriteE $end
$var wire 32 > ReadDataW [31:0] $end
$var wire 5 ? RdW [4:0] $end
$var wire 5 @ RdM [4:0] $end
$var wire 5 A RdE [4:0] $end
$var wire 32 B RD2E [31:0] $end
$var wire 32 C RD1E [31:0] $end
$var wire 32 D PCplus4W [31:0] $end
$var wire 32 E PCplus4M [31:0] $end
$var wire 32 F PCplus4E [31:0] $end
$var wire 32 G PCplus4D [31:0] $end
$var wire 32 H PCTargetE [31:0] $end
$var wire 1 I PCSrcE $end
$var wire 32 J PCE [31:0] $end
$var wire 32 K PCD [31:0] $end
$var wire 1 L MemWriteM $end
$var wire 1 M MemWriteE $end
$var wire 1 N MemToRegW $end
$var wire 1 O MemToRegM $end
$var wire 1 P MemToRegE $end
$var wire 1 Q MemReadE $end
$var wire 1 R JumpE $end
$var wire 32 S InstrD [31:0] $end
$var wire 32 T Imm_outE [31:0] $end
$var wire 2 U ForwardBE [1:0] $end
$var wire 2 V ForwardAE [1:0] $end
$var wire 1 W BranchE $end
$var wire 32 X ALuResultW [31:0] $end
$var wire 32 Y ALuResultM [31:0] $end
$var wire 3 Z ALUcontrolE [2:0] $end
$var wire 1 [ ALUSrcE $end
$var wire 2 \ ALUOpE [1:0] $end
$scope module decode $end
$var wire 1 $ clk $end
$var wire 1 % reset $end
$var wire 7 ] op [6:0] $end
$var wire 1 , mul_busy $end
$var wire 1 ^ mulD $end
$var wire 1 _ func7_5 $end
$var wire 1 . flushE $end
$var wire 5 ` Rs2D [4:0] $end
$var wire 5 a Rs1D [4:0] $end
$var wire 32 b ResultW [31:0] $end
$var wire 1 ; RegWriteW $end
$var wire 1 c RegWriteD $end
$var wire 5 d RdW [4:0] $end
$var wire 5 e RdD [4:0] $end
$var wire 32 f RD2D [31:0] $end
$var wire 32 g RD1D [31:0] $end
$var wire 32 h PCplus4D [31:0] $end
$var wire 32 i PCD [31:0] $end
$var wire 1 j MemWriteD $end
$var wire 1 k MemToRegD $end
$var wire 1 l MemReadD $end
$var wire 1 m JumpD $end
$var wire 32 n InstrD [31:0] $end
$var wire 32 o Imm_outD [31:0] $end
$var wire 1 p BranchD $end
$var wire 3 q ALUcontrolD [2:0] $end
$var wire 1 r ALUSrcD $end
$var wire 2 s ALUOpD [1:0] $end
$var reg 2 t ALUOpE [1:0] $end
$var reg 1 [ ALUSrcE $end
$var reg 3 u ALUcontrolE [2:0] $end
$var reg 1 W BranchE $end
$var reg 32 v Imm_outE [31:0] $end
$var reg 1 R JumpE $end
$var reg 1 Q MemReadE $end
$var reg 1 P MemToRegE $end
$var reg 1 M MemWriteE $end
$var reg 32 w PCE [31:0] $end
$var reg 32 x PCplus4E [31:0] $end
$var reg 32 y RD1E [31:0] $end
$var reg 32 z RD2E [31:0] $end
$var reg 5 { RdE [4:0] $end
$var reg 1 = RegWriteE $end
$var reg 5 | Rs1E [4:0] $end
$var reg 5 } Rs2E [4:0] $end
$var reg 1 - mulE $end
$scope module alu_control $end
$var wire 32 ~ instruction [31:0] $end
$var wire 1 !" func7_5 $end
$var wire 7 "" func7 [6:0] $end
$var wire 3 #" func3 [2:0] $end
$var wire 2 $" ALUOp [1:0] $end
$var reg 3 %" ALUcontrol [2:0] $end
$var reg 1 ^ mulD $end
$upscope $end
$scope module control_unit $end
$var wire 32 &" instruction [31:0] $end
$var reg 2 '" ALUOp [1:0] $end
$var reg 1 r ALUSrc $end
$var reg 1 p Branch $end
$var reg 1 m Jump $end
$var reg 1 l MemRead $end
$var reg 1 k MemToReg $end
$var reg 1 j MemWrite $end
$var reg 1 c RegWrite $end
$upscope $end
$scope module imm_gen $end
$var wire 32 (" instruction [31:0] $end
$var reg 32 )" imm_out [31:0] $end
$upscope $end
$scope module register_file $end
$var wire 1 $ clk $end
$var wire 5 *" rs1_addr [4:0] $end
$var wire 5 +" rs2_addr [4:0] $end
$var wire 1 ; we $end
$var wire 32 ," rs2_data [31:0] $end
$var wire 32 -" rs1_data [31:0] $end
$var wire 32 ." rd_data [31:0] $end
$var wire 5 /" rd_addr [4:0] $end
$var integer 32 0" i [31:0] $end
$upscope $end
$upscope $end
$scope module execute $end
$var wire 1 [ ALUSrcE $end
$var wire 3 1" ALUcontrolE [2:0] $end
$var wire 1 W BranchE $end
$var wire 32 2" Imm_outE [31:0] $end
$var wire 1 R JumpE $end
$var wire 1 Q MemReadE $end
$var wire 1 P MemToRegE $end
$var wire 1 M MemWriteE $end
$var wire 32 3" PCE [31:0] $end
$var wire 1 I PCSrcE $end
$var wire 32 4" PCplus4E [31:0] $end
$var wire 5 5" RdE [4:0] $end
$var wire 1 = RegWriteE $end
$var wire 32 6" WriteDataE [31:0] $end
$var wire 1 $ clk $end
$var wire 1 - mulE $end
$var wire 1 , mul_busy $end
$var wire 1 % reset $end
$var wire 1 & zero $end
$var wire 32 7" slt [31:0] $end
$var wire 1 * overflow $end
$var wire 1 + negative $end
$var wire 1 0 done $end
$var wire 1 1 carry $end
$var wire 32 8" SrcBE [31:0] $end
$var wire 32 9" SrcAE [31:0] $end
$var wire 32 :" Src2E [31:0] $end
$var wire 64 ;" Result_M [63:0] $end
$var wire 32 <" RD2E [31:0] $end
$var wire 32 =" RD1E [31:0] $end
$var wire 32 >" PCTargetE [31:0] $end
$var wire 32 ?" ALuResultE_A [31:0] $end
$var wire 32 @" ALuResultE [31:0] $end
$var reg 32 A" ALuResultM [31:0] $end
$var reg 1 O MemToRegM $end
$var reg 1 L MemWriteM $end
$var reg 32 B" PCplus4M [31:0] $end
$var reg 5 C" RdM [4:0] $end
$var reg 1 < RegWriteM $end
$var reg 32 D" WriteDataM [31:0] $end
$scope module alu $end
$var wire 3 E" ALUcontrol [2:0] $end
$var wire 32 F" a_and_b [31:0] $end
$var wire 32 G" a_or_b [31:0] $end
$var wire 32 H" b [31:0] $end
$var wire 1 1 carry $end
$var wire 32 I" not_b [31:0] $end
$var wire 1 * overflow $end
$var wire 1 J" xnor_gate $end
$var wire 1 K" xor_gate $end
$var wire 1 & zero $end
$var wire 32 L" wire_b [31:0] $end
$var wire 32 M" sum [31:0] $end
$var wire 32 N" slt [31:0] $end
$var wire 32 O" result [31:0] $end
$var wire 1 + negative $end
$var wire 1 P" cout $end
$var wire 32 Q" a [31:0] $end
$upscope $end
$scope module mul_2 $end
$var wire 32 R" b [31:0] $end
$var wire 1 $ clk $end
$var wire 1 % reset $end
$var wire 1 - start $end
$var wire 1 0 done $end
$var wire 32 S" a [31:0] $end
$var wire 64 T" Result [63:0] $end
$var parameter 2 U" done_p $end
$var parameter 2 V" idle $end
$var parameter 2 W" start_p $end
$var reg 64 X" Result_in [63:0] $end
$var reg 64 Y" a_in [63:0] $end
$var reg 64 Z" b_in [63:0] $end
$var reg 6 [" count [5:0] $end
$var reg 1 0 done_in $end
$var reg 1 \" start_prev $end
$var reg 2 ]" state [1:0] $end
$upscope $end
$upscope $end
$scope module fetch $end
$var wire 1 I PCSrcE $end
$var wire 32 ^" PCTargetE [31:0] $end
$var wire 1 $ clk $end
$var wire 1 % reset $end
$var wire 1 ' stallF $end
$var wire 32 _" instruction [31:0] $end
$var wire 1 / flushD $end
$var wire 32 `" PCPlus4F [31:0] $end
$var wire 32 a" PCF_next [31:0] $end
$var reg 32 b" InstrD [31:0] $end
$var reg 32 c" PCD [31:0] $end
$var reg 32 d" PCF [31:0] $end
$var reg 32 e" PCplus4D [31:0] $end
$scope module instr_mem $end
$var wire 32 f" addr [31:0] $end
$var wire 32 g" instruction [31:0] $end
$upscope $end
$upscope $end
$scope module hazard_control_unit $end
$var wire 1 Q MemReadE $end
$var wire 1 I PCSrcE $end
$var wire 5 h" RdE [4:0] $end
$var wire 5 i" Rs1D [4:0] $end
$var wire 5 j" Rs2D [4:0] $end
$var wire 1 / flushD $end
$var wire 1 . flushE $end
$var wire 1 , mul_busy $end
$var wire 1 ( stallD $end
$var wire 1 ' stallF $end
$var reg 1 k" LoadUseHazard $end
$upscope $end
$scope module hazard_unit $end
$var wire 32 l" ALuResultM [31:0] $end
$var wire 32 m" RD1E [31:0] $end
$var wire 32 n" RD2E [31:0] $end
$var wire 5 o" RdM [4:0] $end
$var wire 1 < RegWriteM $end
$var wire 5 p" Rs1E [4:0] $end
$var wire 5 q" Rs2E [4:0] $end
$var wire 32 r" SrcBE [31:0] $end
$var wire 32 s" SrcAE [31:0] $end
$var wire 32 t" ResultW [31:0] $end
$var wire 1 ; RegWriteW $end
$var wire 5 u" RdW [4:0] $end
$var wire 2 v" ForwardBE [1:0] $end
$var wire 2 w" ForwardAE [1:0] $end
$upscope $end
$scope module memory_access $end
$var wire 32 x" ALuResultM [31:0] $end
$var wire 1 O MemToRegM $end
$var wire 1 L MemWriteM $end
$var wire 32 y" PCplus4M [31:0] $end
$var wire 5 z" RdM [4:0] $end
$var wire 1 < RegWriteM $end
$var wire 32 {" WriteDataM [31:0] $end
$var wire 1 $ clk $end
$var wire 1 % reset $end
$var wire 1 ! tx $end
$var wire 32 |" data_data_memory [31:0] $end
$var wire 32 }" data_UART [31:0] $end
$var wire 32 ~" address_data_memory [31:0] $end
$var wire 32 !# address_UART [31:0] $end
$var wire 1 "# UART_busy $end
$var wire 32 ## ReadDataM_out [31:0] $end
$var wire 32 $# ReadDataM_in [31:0] $end
$var wire 1 %# MemWriteM_data_memory $end
$var wire 1 &# MemWriteM_UART $end
$var reg 32 '# ALuResultW [31:0] $end
$var reg 1 N MemToRegW $end
$var reg 32 (# PCplus4W [31:0] $end
$var reg 5 )# RdW [4:0] $end
$var reg 32 *# ReadDataW [31:0] $end
$var reg 1 ; RegWriteW $end
$scope module UART_tx $end
$var wire 1 $ clk $end
$var wire 8 +# data_in [7:0] $end
$var wire 1 % reset $end
$var wire 1 &# MemWriteM_UART $end
$var parameter 32 ,# CLKS_PER_BIT $end
$var parameter 2 -# data $end
$var parameter 2 .# idle $end
$var parameter 2 /# start $end
$var parameter 2 0# stop $end
$var reg 3 1# bit_counter [2:0] $end
$var reg 1 "# busy $end
$var reg 8 2# cycle_counter [7:0] $end
$var reg 8 3# shift_reg [7:0] $end
$var reg 2 4# state [1:0] $end
$var reg 1 ! tx $end
$upscope $end
$scope module bus_interconnect $end
$var wire 1 L MemWriteM $end
$var wire 1 "# UART_busy $end
$var wire 32 5# address [31:0] $end
$var wire 32 6# data_in [31:0] $end
$var wire 32 7# data_out [31:0] $end
$var reg 1 &# MemWriteM_UART $end
$var reg 1 %# MemWriteM_data_memory $end
$var reg 32 8# ReadDataM [31:0] $end
$var reg 32 9# address_UART [31:0] $end
$var reg 32 :# address_data_memory [31:0] $end
$var reg 32 ;# data_UART [31:0] $end
$var reg 32 <# data_data_memory [31:0] $end
$upscope $end
$scope module data_memory $end
$var wire 32 =# address [31:0] $end
$var wire 1 $ clk $end
$var wire 32 ># data_in [31:0] $end
$var wire 32 ?# data_out [31:0] $end
$var wire 1 %# we $end
$var integer 32 @# i [31:0] $end
$upscope $end
$upscope $end
$scope module write_back $end
$var wire 32 A# ALuResultW [31:0] $end
$var wire 1 N MemToRegW $end
$var wire 32 B# ReadDataW [31:0] $end
$var wire 1 C# clk $end
$var wire 1 D# reset $end
$var wire 32 E# ResultW [31:0] $end
$upscope $end
$upscope $end
$scope module uut2 $end
$var wire 1 $ clk $end
$var wire 1 % reset $end
$var wire 1 ! tx $end
$var parameter 32 F# CLKS_PER_BIT $end
$var parameter 2 G# data_out $end
$var parameter 2 H# idle $end
$var parameter 2 I# start $end
$var parameter 2 J# stop $end
$var reg 3 K# bit_counter [2:0] $end
$var reg 1 # byte_valid $end
$var reg 8 L# cycle_counter [7:0] $end
$var reg 8 M# received_byte [7:0] $end
$var reg 2 N# state [1:0] $end
$upscope $end
$upscope $end
$enddefinitions $end
$comment Show the parameter values. $end
$dumpall
b11 J#
b1 I#
b0 H#
b10 G#
b100 F#
b11 0#
b1 /#
b0 .#
b10 -#
b100 ,#
b1 W"
b0 V"
b10 U"
$end
#0
$dumpvars
bx N#
bx M#
bx L#
bx K#
bx E#
zD#
zC#
bx B#
bx A#
b10000000000 @#
b0 ?#
b0 >#
b0 =#
b0 <#
bx ;#
b0 :#
bx 9#
b0 8#
b0 7#
bx 6#
bx 5#
b0 4#
bx 3#
bx 2#
bx 1#
bx +#
bx *#
bx )#
bx (#
bx '#
x&#
0%#
b0 $#
b0 ##
0"#
bx !#
b0 ~"
bx }"
b0 |"
bx {"
bx z"
bx y"
bx x"
bx w"
bx v"
bx u"
bx t"
bx s"
bx r"
bx q"
bx p"
bx o"
bx n"
bx m"
bx l"
xk"
bx j"
bx i"
bx h"
bx g"
bx f"
bx e"
bx d"
bx c"
bx b"
bx a"
bx `"
bx _"
bx ^"
b0 ]"
x\"
b100000 ["
b0xxxxxxxxxxxxxxxxxxxxxxxxxxxxxxxx Z"
b0xxxxxxxxxxxxxxxxxxxxxxxxxxxxxxxx Y"
b0 X"
b0 T"
bx S"
bx R"
bx Q"
xP"
bx O"
b0x N"
bx M"
bx L"
xK"
xJ"
bx I"
bx H"
bx G"
bx F"
bx E"
bx D"
bx C"
bx B"
bx A"
bx @"
bx ?"
bx >"
bx ="
bx <"
b0 ;"
bx :"
bx 9"
bx 8"
b0x 7"
bx 6"
bx 5"
bx 4"
bx 3"
bx 2"
bx 1"
b100000 0"
bx /"
bx ."
bx -"
bx ,"
bx +"
bx *"
bx )"
bx ("
bx '"
bx &"
bx %"
bx $"
bx #"
bx ""
x!"
bx ~
bx }
bx |
bx {
bx z
bx y
bx x
bx w
bx v
bx u
bx t
bx s
xr
bx q
xp
bx o
bx n
xm
xl
xk
xj
bx i
bx h
bx g
bx f
bx e
bx d
xc
bx b
bx a
bx `
x_
x^
bx ]
bx \
x[
bx Z
bx Y
bx X
xW
bx V
bx U
bx T
bx S
xR
xQ
xP
xO
xN
xM
xL
bx K
bx J
xI
bx H
bx G
bx F
bx E
bx D
bx C
bx B
bx A
bx @
bx ?
bx >
x=
x<
x;
bx :
b0 9
bx 8
bx 7
bx 6
bx 5
bx 4
bx 3
bx 2
x1
00
x/
x.
x-
x,
x+
x*
b0x )
x(
x'
x&
1%
1$
0#
bx "
1!
$end
#5
0$
#10
0*
b0 )
b0 7"
b0 N"
0+
1&
b0 @"
0K"
b0 ?"
b0 O"
01
b0 M"
0P"
1J"
b11111111111111111111111111111111 I"
b0 L"
b0 G"
b0 F"
b0 :"
b0 H"
b0 R"
b0 V
b0 w"
b0 U
b0 v"
b0 4
b0 9"
b0 ="
b0 Q"
b0 S"
b0 s"
b0 6"
b0 3
b0 8"
b0 <"
b0 r"
0.
b0 f
b0 ,"
b0 g
b0 -"
b0 +#
0/
0I
0'
0(
0^
b0 q
b0 %"
b10100000000000010010011 _"
b10100000000000010010011 g"
b0 :
b0 b
b0 ."
b0 t"
b0 E#
0&#
b0 }"
b0 ;#
b0 !#
b0 9#
0,
0k"
b0 #"
0!"
b0 ""
0_
b0 ]
b0 e
b0 6
b0 `
b0 +"
b0 j"
b0 8
b0 a
b0 *"
b0 i"
b0 s
b0 $"
b0 '"
0m
0p
0k
0l
0j
0r
0c
b0 o
b0 )"
b100 a"
b0 K#
b0 L#
b0 N#
b0 "
b0 M#
0N
0;
b0 X
b0 '#
b0 A#
b0 D
b0 (#
b0 ?
b0 d
b0 /"
b0 u"
b0 )#
b0 >
b0 *#
b0 B#
b0 1#
b0 3#
b0 2#
0O
0L
0<
b0 E
b0 B"
b0 y"
b0 @
b0 C"
b0 o"
b0 z"
b0 2
b0 D"
b0 {"
b0 6#
b0 Y
b0 A"
b0 l"
b0 x"
b0 5#
0\"
b0 Z"
b0 Y"
0-
b0 5
b0 }
b0 q"
b0 7
b0 |
b0 p"
b0 B
b0 z
b0 n"
b0 C
b0 y
b0 m"
b0 F
b0 x
b0 4"
b0 H
b0 >"
b0 ^"
b0 J
b0 w
b0 3"
b0 T
b0 v
b0 2"
b0 A
b0 {
b0 5"
b0 h"
0P
0[
b0 \
b0 t
b0 Z
b0 u
b0 1"
b0 E"
0W
0R
0Q
0M
0=
b0 G
b0 h
b0 e"
b0 K
b0 i
b0 c"
b0 S
b0 n
b0 ~
b0 &"
b0 ("
b0 b"
b100 `"
b0 d"
b0 f"
1$
#15
0$
#20
1$
#25
0$
#30
1$
#35
0$
#40
0%
1$
#45
0$
#50
b101000000000000100010011 _"
b101000000000000100010011 g"
b10011 ]
b1 e
b101 6
b101 `
b101 +"
b101 j"
b101 o
b101 )"
1r
1c
b1000 a"
b100 G
b100 h
b100 e"
b10100000000000010010011 S
b10100000000000010010011 n
b10100000000000010010011 ~
b10100000000000010010011 &"
b10100000000000010010011 ("
b10100000000000010010011 b"
b1000 `"
b100 d"
b100 f"
1$
#55
0$
#60
0&
b101 @"
b101 ?"
b101 O"
b101 M"
b10001000001000000110110011 _"
b10001000001000000110110011 g"
b101 G"
b11111111111111111111111111111010 I"
b101 L"
b10 e
b1010 6
b1010 `
b1010 +"
b1010 j"
1r
1c
b1010 o
b1010 )"
b1100 a"
b101 :"
b101 H"
b101 R"
b1000 G
b1000 h
b1000 e"
b100 K
b100 i
b100 c"
b101000000000000100010011 S
b101000000000000100010011 n
b101000000000000100010011 ~
b101000000000000100010011 &"
b101000000000000100010011 ("
b101000000000000100010011 b"
b1100 `"
b1000 d"
b1000 f"
b101 5
b101 }
b101 q"
b100 F
b100 x
b100 4"
b101 H
b101 >"
b101 ^"
b101 T
b101 v
b101 2"
b1 A
b1 {
b1 5"
b1 h"
1[
1=
1$
#65
0$
#70
b1010 @"
b1010 ?"
b1010 O"
b1010 M"
b1010 G"
b11111111111111111111111111110101 I"
b1010 L"
1^
b11111111010111111111000001101111 _"
b11111111010111111111000001101111 g"
b101 ~"
b101 :#
b101 =#
b1010 :"
b1010 H"
b1010 R"
b1 ""
b110011 ]
b11 e
b10 6
b10 `
b10 +"
b10 j"
b1 8
b1 a
b1 *"
b1 i"
b0 o
b0 )"
b10 s
b10 $"
b10 '"
0r
1c
b10000 a"
1<
b100 E
b100 B"
b100 y"
b1 @
b1 C"
b1 o"
b1 z"
b101 Y
b101 A"
b101 l"
b101 x"
b101 5#
b101 Z"
b1010 5
b1010 }
b1010 q"
b1000 F
b1000 x
b1000 4"
b100 J
b100 w
b100 3"
b1110 H
b1110 >"
b1110 ^"
b1010 T
b1010 v
b1010 2"
b10 A
b10 {
b10 5"
b10 h"
b1100 G
b1100 h
b1100 e"
b1000 K
b1000 i
b1000 c"
b10001000001000000110110011 S
b10001000001000000110110011 n
b10001000001000000110110011 ~
b10001000001000000110110011 &"
b10001000001000000110110011 ("
b10001000001000000110110011 b"
b10000 `"
b1100 d"
b1100 f"
1$
#75
0$
#80
0&
b1111 @"
b101 4
b101 9"
b101 ="
b101 Q"
b101 S"
b101 s"
b1010 6"
b1010 3
b1010 8"
b1010 <"
b1010 r"
b1111 ?"
b1111 O"
b1 V
b1 w"
b1111 M"
1^
bx _"
bx g"
1(
1'
b10 U
b10 v"
b1111 G"
b11111111111111111111111111110101 I"
b1010 L"
b0 g
b0 -"
b111 #"
1!"
b1111111 ""
1_
b1101111 ]
b0 e
b10101 6
b10101 `
b10101 +"
b10101 j"
b11111 8
b11111 a
b11111 *"
b11111 i"
1m
b0 s
b0 $"
b0 '"
1c
b11111111111111111111111111110100 o
b11111111111111111111111111110100 )"
b10100 a"
1,
b1010 :"
b1010 H"
b1010 R"
b1010 ~"
b1010 :#
b1010 =#
b101 :
b101 b
b101 ."
b101 t"
b101 E#
b10000 G
b10000 h
b10000 e"
b1100 K
b1100 i
b1100 c"
b11111111010111111111000001101111 S
b11111111010111111111000001101111 n
b11111111010111111111000001101111 ~
b11111111010111111111000001101111 &"
b11111111010111111111000001101111 ("
b11111111010111111111000001101111 b"
b10100 `"
b10000 d"
b10000 f"
1-
b10 5
b10 }
b10 q"
b1 7
b1 |
b1 p"
b1100 F
b1100 x
b1100 4"
b1000 J
b1000 w
b1000 3"
b1000 H
b1000 >"
b1000 ^"
b0 T
b0 v
b0 2"
b11 A
b11 {
b11 5"
b11 h"
0[
b10 \
b10 t
b1010 Z"
b1000 E
b1000 B"
b1000 y"
b10 @
b10 C"
b10 o"
b10 z"
b1010 Y
b1010 A"
b1010 l"
b1010 x"
b1010 5#
1;
b101 X
b101 '#
b101 A#
b100 D
b100 (#
b1 ?
b1 d
b1 /"
b1 u"
b1 )#
1$
#85
0$
#90
b1010 @"
b1010 ?"
b1010 O"
b1010 M"
b1010 G"
b0 4
b0 9"
b0 ="
b0 Q"
b0 S"
b0 s"
b0 V
b0 w"
b1010 :
b1010 b
b1010 ."
b1010 t"
b1010 E#
b1010 X
b1010 '#
b1010 A#
b1000 D
b1000 (#
b10 ?
b10 d
b10 /"
b10 u"
b10 )#
b1 ]"
b101 Y"
1\"
1$
#95
0$
#100
b11111 ["
b1010 Y"
b101 Z"
1$
#105
0$
#110
b11110 ["
b10100 Y"
b10 Z"
b1010 9
b1010 ;"
b1010 T"
b1010 X"
1$
#115
0$
#120
b11101 ["
b101000 Y"
b1 Z"
1$
#125
0$
#130
b11100 ["
b1010000 Y"
b0 Z"
b110010 9
b110010 ;"
b110010 T"
b110010 X"
1$
#135
0$
#140
b11011 ["
b10100000 Y"
1$
#145
0$
#150
b11010 ["
b101000000 Y"
1$
#155
0$
#160
b11001 ["
b1010000000 Y"
1$
#165
0$
#170
b11000 ["
b10100000000 Y"
1$
#175
0$
#180
b10111 ["
b101000000000 Y"
1$
#185
0$
#190
b10110 ["
b1010000000000 Y"
1$
#195
0$
#200
b10101 ["
b10100000000000 Y"
1$
#205
0$
#210
b10100 ["
b101000000000000 Y"
1$
#215
0$
#220
b10011 ["
b1010000000000000 Y"
1$
#225
0$
#230
b10010 ["
b10100000000000000 Y"
1$
#235
0$
#240
b10001 ["
b101000000000000000 Y"
1$
#245
0$
#250
b10000 ["
b1010000000000000000 Y"
1$
#255
0$
#260
b1111 ["
b10100000000000000000 Y"
1$
#265
0$
#270
b1110 ["
b101000000000000000000 Y"
1$
#275
0$
#280
b1101 ["
b1010000000000000000000 Y"
1$
#285
0$
#290
b1100 ["
b10100000000000000000000 Y"
1$
#295
0$
#300
b1011 ["
b101000000000000000000000 Y"
1$
#305
0$
#310
b1010 ["
b1010000000000000000000000 Y"
1$
#315
0$
#320
b1001 ["
b10100000000000000000000000 Y"
1$
#325
0$
#330
b1000 ["
b101000000000000000000000000 Y"
1$
#335
0$
#340
b111 ["
b1010000000000000000000000000 Y"
1$
#345
0$
#350
b110 ["
b10100000000000000000000000000 Y"
1$
#355
0$
#360
b101 ["
b101000000000000000000000000000 Y"
1$
#365
0$
#370
b100 ["
b1010000000000000000000000000000 Y"
1$
#375
0$
#380
b11 ["
b10100000000000000000000000000000 Y"
1$
#385
0$
#390
b10 ["
b101000000000000000000000000000000 Y"
1$
#395
0$
#400
b1 ["
b1010000000000000000000000000000000 Y"
1$
#405
0$
#410
b0 ["
b10100000000000000000000000000000000 Y"
1$
#415
0$
#420
b10 ]"
1$
#425
0$
#430
b110010 @"
0(
0'
0,
b0 ]"
10
1$
#435
0$
#440
1&
b0 ?"
b0 O"
b0 M"
b0 G"
b11111111111111111111111111111111 I"
b0 L"
b0 :"
b0 H"
b0 R"
bx f
bx ,"
bx g
bx -"
1(
1'
b0 6"
b0 3
b0 8"
b0 <"
b0 r"
0^
1.
1,
b0 @"
b0 U
b0 v"
bx #"
x!"
bx ""
x_
bx ]
bx e
bx 6
bx `
bx +"
bx j"
bx 8
bx a
bx *"
bx i"
b0 o
b0 )"
0m
0c
b0 a"
1/
1I
b1010 |"
b1010 <#
b1010 >#
b110010 ~"
b110010 :#
b110010 =#
b10100 G
b10100 h
b10100 e"
b10000 K
b10000 i
b10000 c"
bx S
bx n
bx ~
bx &"
bx ("
bx b"
b11000 `"
b10100 d"
b10100 f"
b10101 5
b10101 }
b10101 q"
b11111 7
b11111 |
b11111 p"
b10000 F
b10000 x
b10000 4"
b1100 J
b1100 w
b1100 3"
b0 H
b0 >"
b0 ^"
b11111111111111111111111111110100 T
b11111111111111111111111111110100 v
b11111111111111111111111111110100 2"
b0 A
b0 {
b0 5"
b0 h"
b0 \
b0 t
1R
00
b100000 ["
b0 9
b0 ;"
b0 T"
b0 X"
b1010 Z"
b0 Y"
b1100 E
b1100 B"
b1100 y"
b11 @
b11 C"
b11 o"
b11 z"
b1010 2
b1010 D"
b1010 {"
b1010 6#
b110010 Y
b110010 A"
b110010 l"
b110010 x"
b110010 5#
1$
#445
0$
#450
b0 f
b0 ,"
b0 g
b0 -"
0(
0'
b100 a"
0.
b10100000000000010010011 _"
b10100000000000010010011 g"
b110010 :
b110010 b
b110010 ."
b110010 t"
b110010 E#
0,
0/
0I
b0 #"
0!"
b0 ""
0_
b0 ]
b0 e
b0 6
b0 `
b0 +"
b0 j"
b0 8
b0 a
b0 *"
b0 i"
b110010 X
b110010 '#
b110010 A#
b1100 D
b1100 (#
b11 ?
b11 d
b11 /"
b11 u"
b11 )#
b0 Z"
0-
0R
0=
b0 G
b0 h
b0 e"
b0 K
b0 i
b0 c"
b0 S
b0 n
b0 ~
b0 &"
b0 ("
b0 b"
b100 `"
b0 d"
b0 f"
1$
#455
0$
#460
b101000000000000100010011 _"
b101000000000000100010011 g"
b10011 ]
b1 e
b101 6
b101 `
b101 +"
b101 j"
b101 o
b101 )"
1r
1c
b1000 a"
b0 |"
b0 <#
b0 >#
b0 ~"
b0 :#
b0 =#
b100 G
b100 h
b100 e"
b10100000000000010010011 S
b10100000000000010010011 n
b10100000000000010010011 ~
b10100000000000010010011 &"
b10100000000000010010011 ("
b10100000000000010010011 b"
b1000 `"
b100 d"
b100 f"
b0 5
b0 }
b0 q"
b0 7
b0 |
b0 p"
b0 F
b0 x
b0 4"
b0 J
b0 w
b0 3"
b0 H
b0 >"
b0 ^"
b0 T
b0 v
b0 2"
0\"
0<
b10000 E
b10000 B"
b10000 y"
b0 @
b0 C"
b0 o"
b0 z"
b0 2
b0 D"
b0 {"
b0 6#
b0 Y
b0 A"
b0 l"
b0 x"
b0 5#
1$
#465
0$
#470
0&
b101 @"
b101 ?"
b101 O"
b101 M"
b101 G"
b11111111111111111111111111111010 I"
b101 L"
b10001000001000000110110011 _"
b10001000001000000110110011 g"
b0 :
b0 b
b0 ."
b0 t"
b0 E#
b101 :"
b101 H"
b101 R"
b10 e
b1010 6
b1010 `
b1010 +"
b1010 j"
1r
1c
b1010 o
b1010 )"
b1100 a"
0;
b0 X
b0 '#
b0 A#
b10000 D
b10000 (#
b0 ?
b0 d
b0 /"
b0 u"
b0 )#
b0 E
b0 B"
b0 y"
b101 5
b101 }
b101 q"
b100 F
b100 x
b100 4"
b101 H
b101 >"
b101 ^"
b101 T
b101 v
b101 2"
b1 A
b1 {
b1 5"
b1 h"
1[
1=
b1000 G
b1000 h
b1000 e"
b100 K
b100 i
b100 c"
b101000000000000100010011 S
b101000000000000100010011 n
b101000000000000100010011 ~
b101000000000000100010011 &"
b101000000000000100010011 ("
b101000000000000100010011 b"
b1100 `"
b1000 d"
b1000 f"
1$
#475
0$
#480
b1010 @"
b1010 ?"
b1010 O"
b1010 M"
b1010 f
b1010 ,"
b101 g
b101 -"
1^
b11111111010111111111000001101111 _"
b11111111010111111111000001101111 g"
b1010 G"
b11111111111111111111111111110101 I"
b1010 L"
b1 ""
b110011 ]
b11 e
b10 6
b10 `
b10 +"
b10 j"
b1 8
b1 a
b1 *"
b1 i"
b0 o
b0 )"
b10 s
b10 $"
b10 '"
0r
1c
b10000 a"
b1010 :"
b1010 H"
b1010 R"
b101 ~"
b101 :#
b101 =#
b1100 G
b1100 h
b1100 e"
b1000 K
b1000 i
b1000 c"
b10001000001000000110110011 S
b10001000001000000110110011 n
b10001000001000000110110011 ~
b10001000001000000110110011 &"
b10001000001000000110110011 ("
b10001000001000000110110011 b"
b10000 `"
b1100 d"
b1100 f"
b1010 5
b1010 }
b1010 q"
b1000 F
b1000 x
b1000 4"
b100 J
b100 w
b100 3"
b1110 H
b1110 >"
b1110 ^"
b1010 T
b1010 v
b1010 2"
b10 A
b10 {
b10 5"
b10 h"
b101 Z"
1<
b100 E
b100 B"
b100 y"
b1 @
b1 C"
b1 o"
b1 z"
b101 Y
b101 A"
b101 l"
b101 x"
b101 5#
b0 D
b0 (#
1$
#485
0$
