top_unit_pipelined.vcd
$date
	Thu Jul  9 23:22:50 2026
$end
$version
	Icarus Verilog
$end
$timescale
	1s
$end
$scope module top_unit_pipelined_test $end
$var wire 1 ! tx $end
$var wire 8 " received_byte [7:0] $end
$var wire 1 # byte_valid $end
$var reg 1 $ clk $end
$var reg 1 % reset $end
$scope module uut1 $end
$var wire 1 $ clk $end
$var wire 1 % reset $end
$var wire 1 & zero $end
$var wire 1 ! tx $end
$var wire 1 ' stallF $end
$var wire 1 ( stallD $end
$var wire 32 ) slt [31:0] $end
$var wire 1 * overflow $end
$var wire 1 + negative $end
$var wire 1 , flushE $end
$var wire 1 - flushD $end
$var wire 1 . carry $end
$var wire 32 / WriteDataM [31:0] $end
$var wire 32 0 SrcBE [31:0] $end
$var wire 32 1 SrcAE [31:0] $end
$var wire 5 2 Rs2E [4:0] $end
$var wire 5 3 Rs2D [4:0] $end
$var wire 5 4 Rs1E [4:0] $end
$var wire 5 5 Rs1D [4:0] $end
$var wire 32 6 ResultW [31:0] $end
$var wire 1 7 RegWriteW $end
$var wire 1 8 RegWriteM $end
$var wire 1 9 RegWriteE $end
$var wire 32 : ReadDataW [31:0] $end
$var wire 5 ; RdW [4:0] $end
$var wire 5 < RdM [4:0] $end
$var wire 5 = RdE [4:0] $end
$var wire 32 > RD2E [31:0] $end
$var wire 32 ? RD1E [31:0] $end
$var wire 32 @ PCplus4W [31:0] $end
$var wire 32 A PCplus4M [31:0] $end
$var wire 32 B PCplus4E [31:0] $end
$var wire 32 C PCplus4D [31:0] $end
$var wire 32 D PCTargetE [31:0] $end
$var wire 1 E PCSrcE $end
$var wire 32 F PCE [31:0] $end
$var wire 32 G PCD [31:0] $end
$var wire 1 H MemWriteM $end
$var wire 1 I MemWriteE $end
$var wire 1 J MemToRegW $end
$var wire 1 K MemToRegM $end
$var wire 1 L MemToRegE $end
$var wire 1 M MemReadE $end
$var wire 1 N JumpE $end
$var wire 32 O InstrD [31:0] $end
$var wire 32 P Imm_outE [31:0] $end
$var wire 2 Q ForwardBE [1:0] $end
$var wire 2 R ForwardAE [1:0] $end
$var wire 1 S BranchE $end
$var wire 32 T ALuResultW [31:0] $end
$var wire 32 U ALuResultM [31:0] $end
$var wire 3 V ALUcontrolE [2:0] $end
$var wire 1 W ALUSrcE $end
$var wire 2 X ALUOpE [1:0] $end
$scope module decode $end
$var wire 1 $ clk $end
$var wire 1 % reset $end
$var wire 7 Y op [6:0] $end
$var wire 1 Z func7_5 $end
$var wire 3 [ func3 [2:0] $end
$var wire 1 , flushE $end
$var wire 5 \ Rs2D [4:0] $end
$var wire 5 ] Rs1D [4:0] $end
$var wire 32 ^ ResultW [31:0] $end
$var wire 1 7 RegWriteW $end
$var wire 1 _ RegWriteD $end
$var wire 5 ` RdW [4:0] $end
$var wire 5 a RdD [4:0] $end
$var wire 32 b RD2D [31:0] $end
$var wire 32 c RD1D [31:0] $end
$var wire 32 d PCplus4D [31:0] $end
$var wire 32 e PCD [31:0] $end
$var wire 1 f MemWriteD $end
$var wire 1 g MemToRegD $end
$var wire 1 h MemReadD $end
$var wire 1 i JumpD $end
$var wire 32 j InstrD [31:0] $end
$var wire 32 k Imm_outD [31:0] $end
$var wire 1 l BranchD $end
$var wire 3 m ALUcontrolD [2:0] $end
$var wire 1 n ALUSrcD $end
$var wire 2 o ALUOpD [1:0] $end
$var reg 2 p ALUOpE [1:0] $end
$var reg 1 W ALUSrcE $end
$var reg 3 q ALUcontrolE [2:0] $end
$var reg 1 S BranchE $end
$var reg 32 r Imm_outE [31:0] $end
$var reg 1 N JumpE $end
$var reg 1 M MemReadE $end
$var reg 1 L MemToRegE $end
$var reg 1 I MemWriteE $end
$var reg 32 s PCE [31:0] $end
$var reg 32 t PCplus4E [31:0] $end
$var reg 32 u RD1E [31:0] $end
$var reg 32 v RD2E [31:0] $end
$var reg 5 w RdE [4:0] $end
$var reg 1 9 RegWriteE $end
$var reg 5 x Rs1E [4:0] $end
$var reg 5 y Rs2E [4:0] $end
$scope module alu_control $end
$var wire 32 z instruction [31:0] $end
$var wire 1 { funct7_5 $end
$var wire 3 | func3 [2:0] $end
$var wire 2 } ALUOp [1:0] $end
$var reg 3 ~ ALUcontrol [2:0] $end
$upscope $end
$scope module control_unit $end
$var wire 32 !" instruction [31:0] $end
$var reg 2 "" ALUOp [1:0] $end
$var reg 1 n ALUSrc $end
$var reg 1 l Branch $end
$var reg 1 i Jump $end
$var reg 1 h MemRead $end
$var reg 1 g MemToReg $end
$var reg 1 f MemWrite $end
$var reg 1 _ RegWrite $end
$upscope $end
$scope module imm_gen $end
$var wire 32 #" instruction [31:0] $end
$var reg 32 $" imm_out [31:0] $end
$upscope $end
$scope module register_file $end
$var wire 1 $ clk $end
$var wire 5 %" rs1_addr [4:0] $end
$var wire 5 &" rs2_addr [4:0] $end
$var wire 1 7 we $end
$var wire 32 '" rs2_data [31:0] $end
$var wire 32 (" rs1_data [31:0] $end
$var wire 32 )" rd_data [31:0] $end
$var wire 5 *" rd_addr [4:0] $end
$var integer 32 +" i [31:0] $end
$upscope $end
$upscope $end
$scope module execute $end
$var wire 1 W ALUSrcE $end
$var wire 3 ," ALUcontrolE [2:0] $end
$var wire 1 S BranchE $end
$var wire 32 -" Imm_outE [31:0] $end
$var wire 1 N JumpE $end
$var wire 1 M MemReadE $end
$var wire 1 L MemToRegE $end
$var wire 1 I MemWriteE $end
$var wire 32 ." PCE [31:0] $end
$var wire 1 E PCSrcE $end
$var wire 32 /" PCplus4E [31:0] $end
$var wire 5 0" RdE [4:0] $end
$var wire 1 9 RegWriteE $end
$var wire 32 1" WriteDataE [31:0] $end
$var wire 1 $ clk $end
$var wire 1 % reset $end
$var wire 1 & zero $end
$var wire 32 2" slt [31:0] $end
$var wire 1 * overflow $end
$var wire 1 + negative $end
$var wire 1 . carry $end
$var wire 32 3" SrcBE [31:0] $end
$var wire 32 4" SrcAE [31:0] $end
$var wire 32 5" Src2E [31:0] $end
$var wire 32 6" RD2E [31:0] $end
$var wire 32 7" RD1E [31:0] $end
$var wire 32 8" PCTargetE [31:0] $end
$var wire 32 9" ALuResultE [31:0] $end
$var reg 32 :" ALuResultM [31:0] $end
$var reg 1 K MemToRegM $end
$var reg 1 H MemWriteM $end
$var reg 32 ;" PCplus4M [31:0] $end
$var reg 5 <" RdM [4:0] $end
$var reg 1 8 RegWriteM $end
$var reg 32 =" WriteDataM [31:0] $end
$scope module alu $end
$var wire 3 >" ALUcontrol [2:0] $end
$var wire 32 ?" a_and_b [31:0] $end
$var wire 32 @" a_or_b [31:0] $end
$var wire 32 A" b [31:0] $end
$var wire 1 . carry $end
$var wire 32 B" not_b [31:0] $end
$var wire 1 * overflow $end
$var wire 1 C" xnor_gate $end
$var wire 1 D" xor_gate $end
$var wire 1 & zero $end
$var wire 32 E" wire_b [31:0] $end
$var wire 32 F" sum [31:0] $end
$var wire 32 G" slt [31:0] $end
$var wire 32 H" result [31:0] $end
$var wire 1 + negative $end
$var wire 1 I" cout $end
$var wire 32 J" a [31:0] $end
$upscope $end
$upscope $end
$scope module fetch $end
$var wire 1 E PCSrcE $end
$var wire 32 K" PCTargetE [31:0] $end
$var wire 1 $ clk $end
$var wire 1 % reset $end
$var wire 1 ' stallF $end
$var wire 32 L" instruction [31:0] $end
$var wire 1 - flushD $end
$var wire 32 M" PCPlus4F [31:0] $end
$var wire 32 N" PCF_next [31:0] $end
$var reg 32 O" InstrD [31:0] $end
$var reg 32 P" PCD [31:0] $end
$var reg 32 Q" PCF [31:0] $end
$var reg 32 R" PCplus4D [31:0] $end
$scope module instr_mem $end
$var wire 32 S" addr [31:0] $end
$var wire 32 T" instruction [31:0] $end
$upscope $end
$upscope $end
$scope module hazard_control_unit $end
$var wire 1 M MemReadE $end
$var wire 1 E PCSrcE $end
$var wire 5 U" RdE [4:0] $end
$var wire 5 V" Rs1D [4:0] $end
$var wire 5 W" Rs2D [4:0] $end
$var wire 1 - flushD $end
$var wire 1 , flushE $end
$var wire 1 ( stallD $end
$var wire 1 ' stallF $end
$var reg 1 X" LoadUseHazard $end
$upscope $end
$scope module hazard_unit $end
$var wire 32 Y" ALuResultM [31:0] $end
$var wire 32 Z" RD1E [31:0] $end
$var wire 32 [" RD2E [31:0] $end
$var wire 5 \" RdM [4:0] $end
$var wire 1 8 RegWriteM $end
$var wire 5 ]" Rs1E [4:0] $end
$var wire 5 ^" Rs2E [4:0] $end
$var wire 32 _" SrcBE [31:0] $end
$var wire 32 `" SrcAE [31:0] $end
$var wire 32 a" ResultW [31:0] $end
$var wire 1 7 RegWriteW $end
$var wire 5 b" RdW [4:0] $end
$var wire 2 c" ForwardBE [1:0] $end
$var wire 2 d" ForwardAE [1:0] $end
$upscope $end
$scope module memory_access $end
$var wire 32 e" ALuResultM [31:0] $end
$var wire 1 K MemToRegM $end
$var wire 1 H MemWriteM $end
$var wire 32 f" PCplus4M [31:0] $end
$var wire 5 g" RdM [4:0] $end
$var wire 1 8 RegWriteM $end
$var wire 32 h" WriteDataM [31:0] $end
$var wire 1 $ clk $end
$var wire 1 % reset $end
$var wire 1 ! tx $end
$var wire 32 i" data_data_memory [31:0] $end
$var wire 32 j" data_UART [31:0] $end
$var wire 32 k" address_data_memory [31:0] $end
$var wire 32 l" address_UART [31:0] $end
$var wire 1 m" UART_busy $end
$var wire 32 n" ReadDataM_out [31:0] $end
$var wire 32 o" ReadDataM_in [31:0] $end
$var wire 1 p" MemWriteM_data_memory $end
$var wire 1 q" MemWriteM_UART $end
$var reg 32 r" ALuResultW [31:0] $end
$var reg 1 J MemToRegW $end
$var reg 32 s" PCplus4W [31:0] $end
$var reg 5 t" RdW [4:0] $end
$var reg 32 u" ReadDataW [31:0] $end
$var reg 1 7 RegWriteW $end
$scope module UART_tx $end
$var wire 1 $ clk $end
$var wire 8 v" data_in [7:0] $end
$var wire 1 % reset $end
$var wire 1 q" MemWriteM_UART $end
$var parameter 32 w" CLKS_PER_BIT $end
$var parameter 2 x" data $end
$var parameter 2 y" idle $end
$var parameter 2 z" start $end
$var parameter 2 {" stop $end
$var reg 3 |" bit_counter [2:0] $end
$var reg 1 m" busy $end
$var reg 8 }" cycle_counter [7:0] $end
$var reg 8 ~" shift_reg [7:0] $end
$var reg 2 !# state [1:0] $end
$var reg 1 ! tx $end
$upscope $end
$scope module bus_interconnect $end
$var wire 1 H MemWriteM $end
$var wire 1 m" UART_busy $end
$var wire 32 "# address [31:0] $end
$var wire 32 ## data_in [31:0] $end
$var wire 32 $# data_out [31:0] $end
$var reg 1 q" MemWriteM_UART $end
$var reg 1 p" MemWriteM_data_memory $end
$var reg 32 %# ReadDataM [31:0] $end
$var reg 32 &# address_UART [31:0] $end
$var reg 32 '# address_data_memory [31:0] $end
$var reg 32 (# data_UART [31:0] $end
$var reg 32 )# data_data_memory [31:0] $end
$upscope $end
$scope module data_memory $end
$var wire 32 *# address [31:0] $end
$var wire 1 $ clk $end
$var wire 32 +# data_in [31:0] $end
$var wire 32 ,# data_out [31:0] $end
$var wire 1 p" we $end
$var integer 32 -# i [31:0] $end
$upscope $end
$upscope $end
$scope module write_back $end
$var wire 32 .# ALuResultW [31:0] $end
$var wire 1 J MemToRegW $end
$var wire 32 /# ReadDataW [31:0] $end
$var wire 1 0# clk $end
$var wire 1 1# reset $end
$var wire 32 2# ResultW [31:0] $end
$upscope $end
$upscope $end
$scope module uut2 $end
$var wire 1 $ clk $end
$var wire 1 % reset $end
$var wire 1 ! tx $end
$var parameter 32 3# CLKS_PER_BIT $end
$var parameter 2 4# data_out $end
$var parameter 2 5# idle $end
$var parameter 2 6# start $end
$var parameter 2 7# stop $end
$var reg 3 8# bit_counter [2:0] $end
$var reg 1 # byte_valid $end
$var reg 8 9# cycle_counter [7:0] $end
$var reg 8 :# received_byte [7:0] $end
$var reg 2 ;# state [1:0] $end
$upscope $end
$upscope $end
$enddefinitions $end
$comment Show the parameter values. $end
$dumpall
b11 7#
b1 6#
b0 5#
b10 4#
b100 3#
b11 {"
b1 z"
b0 y"
b10 x"
b100 w"
$end
#0
$dumpvars
bx ;#
bx :#
bx 9#
bx 8#
bx 2#
z1#
z0#
bx /#
bx .#
b10000000000 -#
b0 ,#
b0 +#
b0 *#
b0 )#
bx (#
b0 '#
bx &#
b0 %#
b0 $#
bx ##
bx "#
b0 !#
bx ~"
bx }"
bx |"
bx v"
bx u"
bx t"
bx s"
bx r"
xq"
0p"
b0 o"
b0 n"
0m"
bx l"
b0 k"
bx j"
b0 i"
bx h"
bx g"
bx f"
bx e"
bx d"
bx c"
bx b"
bx a"
bx `"
bx _"
bx ^"
bx ]"
bx \"
bx ["
bx Z"
bx Y"
xX"
bx W"
bx V"
bx U"
bx T"
bx S"
bx R"
bx Q"
bx P"
bx O"
bx N"
bx M"
bx L"
bx K"
bx J"
xI"
bx H"
b0x G"
bx F"
bx E"
xD"
xC"
bx B"
bx A"
bx @"
bx ?"
bx >"
bx ="
bx <"
bx ;"
bx :"
bx 9"
bx 8"
bx 7"
bx 6"
bx 5"
bx 4"
bx 3"
b0x 2"
bx 1"
bx 0"
bx /"
bx ."
bx -"
bx ,"
b100000 +"
bx *"
bx )"
bx ("
bx '"
bx &"
bx %"
bx $"
bx #"
bx ""
bx !"
bx ~
bx }
bx |
x{
bx z
bx y
bx x
bx w
bx v
bx u
bx t
bx s
bx r
bx q
bx p
bx o
xn
bx m
xl
bx k
bx j
xi
xh
xg
xf
bx e
bx d
bx c
bx b
bx a
bx `
x_
bx ^
bx ]
bx \
bx [
xZ
bx Y
bx X
xW
bx V
bx U
bx T
xS
bx R
bx Q
bx P
bx O
xN
xM
xL
xK
xJ
xI
xH
bx G
bx F
xE
bx D
bx C
bx B
bx A
bx @
bx ?
bx >
bx =
bx <
bx ;
bx :
x9
x8
x7
bx 6
bx 5
bx 4
bx 3
bx 2
bx 1
bx 0
bx /
x.
x-
x,
x+
x*
b0x )
x(
x'
x&
1%
1$
0#
bx "
1!
$end
#5
0$
#10
0*
b0 )
b0 2"
b0 G"
0+
1&
0D"
b0 9"
b0 H"
0.
b0 F"
0I"
1C"
b11111111111111111111111111111111 B"
b0 E"
b0 @"
b0 ?"
b0 5"
b0 A"
b0 R
b0 d"
b0 Q
b0 c"
b0 1
b0 4"
b0 7"
b0 J"
b0 `"
b0 1"
b0 0
b0 3"
b0 6"
b0 _"
0,
b0 b
b0 '"
b0 c
b0 ("
b0 v"
0-
0E
b0 m
b0 ~
b10000000000000000000000010110111 L"
b10000000000000000000000010110111 T"
b0 6
b0 ^
b0 )"
b0 a"
b0 2#
0q"
b0 j"
b0 (#
b0 l"
b0 &#
0'
0(
0X"
b0 |
0{
0Z
b0 [
b0 Y
b0 a
b0 3
b0 \
b0 &"
b0 W"
b0 5
b0 ]
b0 %"
b0 V"
b0 o
b0 }
b0 ""
0i
0l
0g
0h
0f
0n
0_
b0 k
b0 $"
b100 N"
b0 8#
b0 9#
b0 ;#
b0 "
b0 :#
0J
07
b0 T
b0 r"
b0 .#
b0 @
b0 s"
b0 ;
b0 `
b0 *"
b0 b"
b0 t"
b0 :
b0 u"
b0 /#
b0 |"
b0 ~"
b0 }"
0K
0H
08
b0 A
b0 ;"
b0 f"
b0 <
b0 <"
b0 \"
b0 g"
b0 /
b0 ="
b0 h"
b0 ##
b0 U
b0 :"
b0 Y"
b0 e"
b0 "#
b0 2
b0 y
b0 ^"
b0 4
b0 x
b0 ]"
b0 >
b0 v
b0 ["
b0 ?
b0 u
b0 Z"
b0 B
b0 t
b0 /"
b0 D
b0 8"
b0 K"
b0 F
b0 s
b0 ."
b0 P
b0 r
b0 -"
b0 =
b0 w
b0 0"
b0 U"
0L
0W
b0 X
b0 p
b0 V
b0 q
b0 ,"
b0 >"
0S
0N
0M
0I
09
b0 C
b0 d
b0 R"
b0 G
b0 e
b0 P"
b0 O
b0 j
b0 z
b0 !"
b0 #"
b0 O"
b100 M"
b0 Q"
b0 S"
1$
#15
0$
#20
1$
#25
0$
#30
1$
#35
0$
#40
0%
1$
#45
0$
#50
b100000100000000000100010011 L"
b100000100000000000100010011 T"
b110111 Y
b1 a
b10000000000000000000000000000000 k
b10000000000000000000000000000000 $"
b11 o
b11 }
b11 ""
1n
1_
b1000 N"
b100 C
b100 d
b100 R"
b10000000000000000000000010110111 O
b10000000000000000000000010110111 j
b10000000000000000000000010110111 z
b10000000000000000000000010110111 !"
b10000000000000000000000010110111 #"
b10000000000000000000000010110111 O"
b1000 M"
b100 Q"
b100 S"
1$
#55
0$
#60
b1 )
b1 2"
b1 G"
1+
0&
1D"
b10000000000000000000000000000000 9"
b10000000000000000000000000000000 H"
b10000000000000000000000000000000 F"
0C"
b1000001010000000100011 L"
b1000001010000000100011 T"
b10000000000000000000000000000000 @"
b1111111111111111111111111111111 B"
b10000000000000000000000000000000 E"
b10011 Y
b10 a
b1 3
b1 \
b1 &"
b1 W"
b0 o
b0 }
b0 ""
1n
1_
b1000001 k
b1000001 $"
b1100 N"
b10000000000000000000000000000000 5"
b10000000000000000000000000000000 A"
b1000 C
b1000 d
b1000 R"
b100 G
b100 e
b100 P"
b100000100000000000100010011 O
b100000100000000000100010011 j
b100000100000000000100010011 z
b100000100000000000100010011 !"
b100000100000000000100010011 #"
b100000100000000000100010011 O"
b1100 M"
b1000 Q"
b1000 S"
b100 B
b100 t
b100 /"
b10000000000000000000000000000000 D
b10000000000000000000000000000000 8"
b10000000000000000000000000000000 K"
b10000000000000000000000000000000 P
b10000000000000000000000000000000 r
b10000000000000000000000000000000 -"
b1 =
b1 w
b1 0"
b1 U"
1W
b11 X
b11 p
19
1$
#65
0$
#70
b10000000000000000000000000000000 1"
b10000000000000000000000000000000 0
b10000000000000000000000000000000 3"
b10000000000000000000000000000000 6"
b10000000000000000000000000000000 _"
b0 )
b0 2"
b0 G"
0+
0D"
0*
b1000001 9"
b1000001 H"
b10 Q
b10 c"
b1000001 F"
1C"
b1000001 @"
b11111111111111111111111110111110 B"
b1000001 E"
b10011 L"
b10011 T"
b10000000000000000000000000000000 l"
b10000000000000000000000000000000 &#
b1000001 5"
b1000001 A"
b10 |
b10 [
b100011 Y
b0 a
b10 3
b10 \
b10 &"
b10 W"
b1 5
b1 ]
b1 %"
b1 V"
b0 k
b0 $"
1f
1n
0_
b10000 N"
18
b100 A
b100 ;"
b100 f"
b1 <
b1 <"
b1 \"
b1 g"
b10000000000000000000000000000000 U
b10000000000000000000000000000000 :"
b10000000000000000000000000000000 Y"
b10000000000000000000000000000000 e"
b10000000000000000000000000000000 "#
b1 2
b1 y
b1 ^"
b1000 B
b1000 t
b1000 /"
b100 F
b100 s
b100 ."
b1000101 D
b1000101 8"
b1000101 K"
b1000001 P
b1000001 r
b1000001 -"
b10 =
b10 w
b10 0"
b10 U"
b0 X
b0 p
b1100 C
b1100 d
b1100 R"
b1000 G
b1000 e
b1000 P"
b1000001010000000100011 O
b1000001010000000100011 j
b1000001010000000100011 z
b1000001010000000100011 !"
b1000001010000000100011 #"
b1000001010000000100011 O"
b10000 M"
b1100 Q"
b1100 S"
1$
#75
0$
#80
0C"
0*
b1 )
b1 2"
b1 G"
1+
0D"
0&
b10000000000000000000000000000000 1
b10000000000000000000000000000000 4"
b10000000000000000000000000000000 7"
b10000000000000000000000000000000 J"
b10000000000000000000000000000000 `"
b10000000000000000000000000000000 9"
b10000000000000000000000000000000 H"
b1 R
b1 d"
b10000000000000000000000000000000 F"
b1000001 1"
b1000001 0
b1000001 3"
b1000001 6"
b1000001 _"
b10000001010001000000011 L"
b10000001010001000000011 T"
b10000000000000000000000000000000 @"
b11111111111111111111111111111111 B"
b0 E"
b0 c
b0 ("
b0 |
b0 [
b10011 Y
b0 3
b0 \
b0 &"
b0 W"
b0 5
b0 ]
b0 %"
b0 V"
1_
0f
1n
b10100 N"
b0 5"
b0 A"
b10000000000000000000000000000000 i"
b10000000000000000000000000000000 )#
b10000000000000000000000000000000 +#
b1000001 k"
b1000001 '#
b1000001 *#
b0 l"
b0 &#
b10000000000000000000000000000000 6
b10000000000000000000000000000000 ^
b10000000000000000000000000000000 )"
b10000000000000000000000000000000 a"
b10000000000000000000000000000000 2#
b10000 C
b10000 d
b10000 R"
b1100 G
b1100 e
b1100 P"
b10011 O
b10011 j
b10011 z
b10011 !"
b10011 #"
b10011 O"
b10100 M"
b10000 Q"
b10000 S"
b10 2
b10 y
b10 ^"
b1 4
b1 x
b1 ]"
b1100 B
b1100 t
b1100 /"
b1000 F
b1000 s
b1000 ."
b1000 D
b1000 8"
b1000 K"
b0 P
b0 r
b0 -"
b0 =
b0 w
b0 0"
b0 U"
1I
09
b1000 A
b1000 ;"
b1000 f"
b10 <
b10 <"
b10 \"
b10 g"
b10000000000000000000000000000000 /
b10000000000000000000000000000000 ="
b10000000000000000000000000000000 h"
b10000000000000000000000000000000 ##
b1000001 U
b1000001 :"
b1000001 Y"
b1000001 e"
b1000001 "#
17
b10000000000000000000000000000000 T
b10000000000000000000000000000000 r"
b10000000000000000000000000000000 .#
b100 @
b100 s"
b1 ;
b1 `
b1 *"
b1 b"
b1 t"
1$
#85
0$
#90
1C"
b0 )
b0 2"
b0 G"
0+
1&
b0 9"
b0 H"
0D"
b0 F"
b0 @"
b0 1
b0 4"
b0 7"
b0 J"
b0 `"
b0 Q
b0 c"
b0 1"
b0 0
b0 3"
b0 6"
b0 _"
b10000000000000000000000000000000 c
b10000000000000000000000000000000 ("
b0 R
b0 d"
b1000001 v"
b10011 L"
b10011 T"
b1000001 6
b1000001 ^
b1000001 )"
b1000001 a"
b1000001 2#
1q"
b1000001 j"
b1000001 (#
b10000000000000000000000000000000 l"
b10000000000000000000000000000000 &#
b0 i"
b0 )#
b0 +#
b0 k"
b0 '#
b0 *#
b10 |
b10 [
b11 Y
b100 a
b100 3
b100 \
b100 &"
b100 W"
b1 5
b1 ]
b1 %"
b1 V"
b100 k
b100 $"
1h
1g
1n
1_
b11000 N"
b1000001 T
b1000001 r"
b1000001 .#
b1000 @
b1000 s"
b10 ;
b10 `
b10 *"
b10 b"
b10 t"
1H
08
b1100 A
b1100 ;"
b1100 f"
b0 <
b0 <"
b0 \"
b0 g"
b1000001 /
b1000001 ="
b1000001 h"
b1000001 ##
b10000000000000000000000000000000 U
b10000000000000000000000000000000 :"
b10000000000000000000000000000000 Y"
b10000000000000000000000000000000 e"
b10000000000000000000000000000000 "#
b0 2
b0 y
b0 ^"
b0 4
b0 x
b0 ]"
b10000 B
b10000 t
b10000 /"
b1100 D
b1100 8"
b1100 K"
b1100 F
b1100 s
b1100 ."
0I
19
b10100 C
b10100 d
b10100 R"
b10000 G
b10000 e
b10000 P"
b10000001010001000000011 O
b10000001010001000000011 j
b10000001010001000000011 z
b10000001010001000000011 !"
b10000001010001000000011 #"
b10000001010001000000011 O"
b11000 M"
b10100 Q"
b10100 S"
1$
#95
0$
#100
0C"
0*
b1 )
b1 2"
b1 G"
1+
0&
b10000000000000000000000000000100 9"
b10000000000000000000000000000100 H"
b0 c
b0 ("
0D"
b10000000000000000000000000000100 F"
b10000000000000000000000000000100 @"
b11111111111111111111111111111011 B"
b100 E"
0,
b0 v"
b0 |
b0 [
b10011 Y
b0 a
b0 3
b0 \
b0 &"
b0 W"
b0 5
b0 ]
b0 %"
b0 V"
0g
0h
1n
1_
b0 k
b0 $"
b11100 N"
b10000000000000000000000000000000 1
b10000000000000000000000000000000 4"
b10000000000000000000000000000000 7"
b10000000000000000000000000000000 J"
b10000000000000000000000000000000 `"
b100 5"
b100 A"
0'
0(
0X"
0q"
b0 j"
b0 (#
b0 l"
b0 &#
b10000000000000000000000000000000 6
b10000000000000000000000000000000 ^
b10000000000000000000000000000000 )"
b10000000000000000000000000000000 a"
b10000000000000000000000000000000 2#
b11000 C
b11000 d
b11000 R"
b10100 G
b10100 e
b10100 P"
b10011 O
b10011 j
b10011 z
b10011 !"
b10011 #"
b10011 O"
b11100 M"
b11000 Q"
b11000 S"
b100 2
b100 y
b100 ^"
b1 4
b1 x
b1 ]"
b10000000000000000000000000000000 ?
b10000000000000000000000000000000 u
b10000000000000000000000000000000 Z"
b10100 B
b10100 t
b10100 /"
b10000 F
b10000 s
b10000 ."
b10100 D
b10100 8"
b10100 K"
b100 P
b100 r
b100 -"
b100 =
b100 w
b100 0"
b100 U"
1L
1M
0H
18
b10000 A
b10000 ;"
b10000 f"
b0 /
b0 ="
b0 h"
b0 ##
b0 U
b0 :"
b0 Y"
b0 e"
b0 "#
b1000001 ~"
b1 !#
07
b10000000000000000000000000000000 T
b10000000000000000000000000000000 r"
b10000000000000000000000000000000 .#
b1100 @
b1100 s"
b0 ;
b0 `
b0 *"
b0 b"
b0 t"
1$
#105
0$
#110
1C"
b0 )
b0 2"
b0 G"
0+
1&
b0 9"
b0 H"
0D"
b0 F"
b0 @"
b11111111111111111111111111111111 B"
b0 E"
b0 6
b0 ^
b0 )"
b0 a"
b0 2#
b1 n"
b1 %#
b0 1
b0 4"
b0 7"
b0 J"
b0 `"
b0 5"
b0 A"
b100000 N"
17
b0 T
b0 r"
b0 .#
b10000 @
b10000 s"
b1 }"
1m"
0!
1K
b10100 A
b10100 ;"
b10100 f"
b100 <
b100 <"
b100 \"
b100 g"
b10000000000000000000000000000100 U
b10000000000000000000000000000100 :"
b10000000000000000000000000000100 Y"
b10000000000000000000000000000100 e"
b10000000000000000000000000000100 "#
b0 2
b0 y
b0 ^"
b0 4
b0 x
b0 ]"
b0 ?
b0 u
b0 Z"
b11000 B
b11000 t
b11000 /"
b10100 F
b10100 s
b10100 ."
b10100 D
b10100 8"
b10100 K"
b0 P
b0 r
b0 -"
b0 =
b0 w
b0 0"
b0 U"
0L
0M
b11100 C
b11100 d
b11100 R"
b11000 G
b11000 e
b11000 P"
b100000 M"
b11100 Q"
b11100 S"
1$
#115
0$
#120
b0 R
b0 d"
b0 Q
b0 c"
b100100 N"
b0 n"
b0 %#
b1 6
b1 ^
b1 )"
b1 a"
b1 2#
b100000 C
b100000 d
b100000 R"
b11100 G
b11100 e
b11100 P"
b100100 M"
b100000 Q"
b100000 S"
b11100 B
b11100 t
b11100 /"
b11000 D
b11000 8"
b11000 K"
b11000 F
b11000 s
b11000 ."
0K
b11000 A
b11000 ;"
b11000 f"
b0 <
b0 <"
b0 \"
b0 g"
b0 U
b0 :"
b0 Y"
b0 e"
b0 "#
b10 }"
1J
b10000000000000000000000000000100 T
b10000000000000000000000000000100 r"
b10000000000000000000000000000100 .#
b10100 @
b10100 s"
b100 ;
b100 `
b100 *"
b100 b"
b100 t"
b1 :
b1 u"
b1 /#
b1 ;#
1$
#125
0$
#130
b0 6
b0 ^
b0 )"
b0 a"
b0 2#
b101000 N"
b1 9#
0J
b0 T
b0 r"
b0 .#
b11000 @
b11000 s"
b0 ;
b0 `
b0 *"
b0 b"
b0 t"
b0 :
b0 u"
b0 /#
b11 }"
b11100 A
b11100 ;"
b11100 f"
b100000 B
b100000 t
b100000 /"
b11100 D
b11100 8"
b11100 K"
b11100 F
b11100 s
b11100 ."
b100100 C
b100100 d
b100100 R"
b100000 G
b100000 e
b100000 P"
b101000 M"
b100100 Q"
b100100 S"
1$
#135
0$
#140
b101100 N"
b101000 C
b101000 d
b101000 R"
b100100 G
b100100 e
b100100 P"
b101100 M"
b101000 Q"
b101000 S"
b100100 B
b100100 t
b100100 /"
b100000 D
b100000 8"
b100000 K"
b100000 F
b100000 s
b100000 ."
b100000 A
b100000 ;"
b100000 f"
b10 !#
b0 }"
b11100 @
b11100 s"
b10 ;#
b0 9#
1$
#145
0$
#150
b110000 N"
b1 9#
b100000 @
b100000 s"
b1 }"
1!
b100100 A
b100100 ;"
b100100 f"
b101000 B
b101000 t
b101000 /"
b100100 D
b100100 8"
b100100 K"
b100100 F
b100100 s
b100100 ."
b101100 C
b101100 d
b101100 R"
b101000 G
b101000 e
b101000 P"
b110000 M"
b101100 Q"
b101100 S"
1$
#155
0$
#160
b110100 N"
b110000 C
b110000 d
b110000 R"
b101100 G
b101100 e
b101100 P"
b110100 M"
b110000 Q"
b110000 S"
b101100 B
b101100 t
b101100 /"
b101000 D
b101000 8"
b101000 K"
b101000 F
b101000 s
b101000 ."
b101000 A
b101000 ;"
b101000 f"
b10 }"
b100100 @
b100100 s"
b10 9#
b1 "
b1 :#
1$
#165
0$
#170
b111000 N"
b11 9#
b101000 @
b101000 s"
b11 }"
b101100 A
b101100 ;"
b101100 f"
b110000 B
b110000 t
b110000 /"
b101100 D
b101100 8"
b101100 K"
b101100 F
b101100 s
b101100 ."
b110100 C
b110100 d
b110100 R"
b110000 G
b110000 e
b110000 P"
b111000 M"
b110100 Q"
b110100 S"
1$
#175
0$
#180
b111100 N"
b111000 C
b111000 d
b111000 R"
b110100 G
b110100 e
b110100 P"
b111100 M"
b111000 Q"
b111000 S"
b110100 B
b110100 t
b110100 /"
b110000 D
b110000 8"
b110000 K"
b110000 F
b110000 s
b110000 ."
b110000 A
b110000 ;"
b110000 f"
b1 |"
b0 }"
b101100 @
b101100 s"
b1 8#
b0 9#
1$
#185
0$
#190
b1000000 N"
b1 9#
b11 "
b11 :#
b110000 @
b110000 s"
b1 }"
0!
b110100 A
b110100 ;"
b110100 f"
b111000 B
b111000 t
b111000 /"
b110100 D
b110100 8"
b110100 K"
b110100 F
b110100 s
b110100 ."
b111100 C
b111100 d
b111100 R"
b111000 G
b111000 e
b111000 P"
b1000000 M"
b111100 Q"
b111100 S"
1$
#195
0$
