top_unit_pipelined.vcd
$date
	Sun Jul  5 14:47:31 2026
$end
$version
	Icarus Verilog
$end
$timescale
	1s
$end
$scope module top_unit_pipelined_test $end
$var reg 1 ! clk $end
$var reg 1 " reset $end
$scope module uut $end
$var wire 1 ! clk $end
$var wire 1 " reset $end
$var wire 1 # zero $end
$var wire 32 $ slt [31:0] $end
$var wire 1 % overflow $end
$var wire 1 & negative $end
$var wire 1 ' carry $end
$var wire 32 ( WriteDataM [31:0] $end
$var wire 32 ) SrcBE [31:0] $end
$var wire 32 * SrcAE [31:0] $end
$var wire 5 + Rs2E [4:0] $end
$var wire 5 , Rs1E [4:0] $end
$var wire 32 - ResultW [31:0] $end
$var wire 1 . RegWriteW $end
$var wire 1 / RegWriteM $end
$var wire 1 0 RegWriteE $end
$var wire 32 1 ReadDataW [31:0] $end
$var wire 5 2 RdW [4:0] $end
$var wire 5 3 RdM [4:0] $end
$var wire 5 4 RdE [4:0] $end
$var wire 32 5 RD2E [31:0] $end
$var wire 32 6 RD1E [31:0] $end
$var wire 32 7 PCplus4W [31:0] $end
$var wire 32 8 PCplus4M [31:0] $end
$var wire 32 9 PCplus4E [31:0] $end
$var wire 32 : PCplus4D [31:0] $end
$var wire 32 ; PCTargetE [31:0] $end
$var wire 1 < PCSrcE $end
$var wire 32 = PCE [31:0] $end
$var wire 32 > PCD [31:0] $end
$var wire 1 ? MemWriteM $end
$var wire 1 @ MemWriteE $end
$var wire 1 A MemToRegW $end
$var wire 1 B MemToRegM $end
$var wire 1 C MemToRegE $end
$var wire 1 D MemReadE $end
$var wire 1 E JumpE $end
$var wire 32 F InstrD [31:0] $end
$var wire 32 G Imm_outE [31:0] $end
$var wire 2 H ForwardBE [1:0] $end
$var wire 2 I ForwardAE [1:0] $end
$var wire 1 J BranchE $end
$var wire 32 K ALuResultW [31:0] $end
$var wire 32 L ALuResultM [31:0] $end
$var wire 3 M ALUcontrolE [2:0] $end
$var wire 1 N ALUSrcE $end
$var wire 2 O ALUOpE [1:0] $end
$scope module decode $end
$var wire 1 ! clk $end
$var wire 1 " reset $end
$var wire 7 P op [6:0] $end
$var wire 1 Q func7_5 $end
$var wire 3 R func3 [2:0] $end
$var wire 5 S a2 [4:0] $end
$var wire 5 T a1 [4:0] $end
$var wire 32 U ResultW [31:0] $end
$var wire 1 . RegWriteW $end
$var wire 1 V RegWriteD $end
$var wire 5 W RdW [4:0] $end
$var wire 5 X RdD [4:0] $end
$var wire 32 Y RD2D [31:0] $end
$var wire 32 Z RD1D [31:0] $end
$var wire 32 [ PCplus4D [31:0] $end
$var wire 32 \ PCD [31:0] $end
$var wire 1 ] MemWriteD $end
$var wire 1 ^ MemToRegD $end
$var wire 1 _ MemReadD $end
$var wire 1 ` JumpD $end
$var wire 32 a InstrD [31:0] $end
$var wire 32 b Imm_outD [31:0] $end
$var wire 1 c BranchD $end
$var wire 3 d ALUcontrolD [2:0] $end
$var wire 1 e ALUSrcD $end
$var wire 2 f ALUOpD [1:0] $end
$var reg 2 g ALUOpE [1:0] $end
$var reg 1 N ALUSrcE $end
$var reg 3 h ALUcontrolE [2:0] $end
$var reg 1 J BranchE $end
$var reg 32 i Imm_outE [31:0] $end
$var reg 1 E JumpE $end
$var reg 1 D MemReadE $end
$var reg 1 C MemToRegE $end
$var reg 1 @ MemWriteE $end
$var reg 32 j PCE [31:0] $end
$var reg 32 k PCplus4E [31:0] $end
$var reg 32 l RD1E [31:0] $end
$var reg 32 m RD2E [31:0] $end
$var reg 5 n RdE [4:0] $end
$var reg 1 0 RegWriteE $end
$var reg 5 o Rs1E [4:0] $end
$var reg 5 p Rs2E [4:0] $end
$scope module alu_control $end
$var wire 32 q instruction [31:0] $end
$var wire 1 r funct7_5 $end
$var wire 3 s func3 [2:0] $end
$var wire 2 t ALUOp [1:0] $end
$var reg 3 u ALUcontrol [2:0] $end
$upscope $end
$scope module control_unit $end
$var wire 32 v instruction [31:0] $end
$var reg 2 w ALUOp [1:0] $end
$var reg 1 e ALUSrc $end
$var reg 1 c Branch $end
$var reg 1 ` Jump $end
$var reg 1 _ MemRead $end
$var reg 1 ^ MemToReg $end
$var reg 1 ] MemWrite $end
$var reg 1 V RegWrite $end
$upscope $end
$scope module imm_gen $end
$var wire 32 x instruction [31:0] $end
$var reg 32 y imm_out [31:0] $end
$upscope $end
$scope module register_file $end
$var wire 1 ! clk $end
$var wire 5 z rs1_addr [4:0] $end
$var wire 32 { rs1_data [31:0] $end
$var wire 5 | rs2_addr [4:0] $end
$var wire 32 } rs2_data [31:0] $end
$var wire 1 . we $end
$var wire 32 ~ rd_data [31:0] $end
$var wire 5 !" rd_addr [4:0] $end
$var integer 32 "" i [31:0] $end
$upscope $end
$upscope $end
$scope module execute $end
$var wire 1 N ALUSrcE $end
$var wire 3 #" ALUcontrolE [2:0] $end
$var wire 1 J BranchE $end
$var wire 32 $" Imm_outE [31:0] $end
$var wire 1 E JumpE $end
$var wire 1 D MemReadE $end
$var wire 1 C MemToRegE $end
$var wire 1 @ MemWriteE $end
$var wire 32 %" PCE [31:0] $end
$var wire 1 < PCSrcE $end
$var wire 32 &" PCplus4E [31:0] $end
$var wire 5 '" RdE [4:0] $end
$var wire 1 0 RegWriteE $end
$var wire 32 (" WriteDataE [31:0] $end
$var wire 1 ! clk $end
$var wire 1 " reset $end
$var wire 1 # zero $end
$var wire 32 )" slt [31:0] $end
$var wire 1 % overflow $end
$var wire 1 & negative $end
$var wire 1 ' carry $end
$var wire 32 *" Src2E [31:0] $end
$var wire 32 +" RD2E [31:0] $end
$var wire 32 ," RD1E [31:0] $end
$var wire 32 -" PCTargetE [31:0] $end
$var wire 32 ." ALuResultE [31:0] $end
$var reg 32 /" ALuResultM [31:0] $end
$var reg 1 B MemToRegM $end
$var reg 1 ? MemWriteM $end
$var reg 32 0" PCplus4M [31:0] $end
$var reg 5 1" RdM [4:0] $end
$var reg 1 / RegWriteM $end
$var reg 32 2" WriteDataM [31:0] $end
$scope module alu $end
$var wire 3 3" ALUcontrol [2:0] $end
$var wire 32 4" a_and_b [31:0] $end
$var wire 32 5" a_or_b [31:0] $end
$var wire 32 6" b [31:0] $end
$var wire 1 ' carry $end
$var wire 32 7" not_b [31:0] $end
$var wire 1 % overflow $end
$var wire 1 8" xnor_gate $end
$var wire 1 9" xor_gate $end
$var wire 1 # zero $end
$var wire 32 :" wire_b [31:0] $end
$var wire 32 ;" sum [31:0] $end
$var wire 32 <" slt [31:0] $end
$var wire 32 =" result [31:0] $end
$var wire 1 & negative $end
$var wire 1 >" cout $end
$var wire 32 ?" a [31:0] $end
$upscope $end
$upscope $end
$scope module fetch $end
$var wire 1 < PCSrcE $end
$var wire 32 @" PCTargetE [31:0] $end
$var wire 1 ! clk $end
$var wire 1 " reset $end
$var wire 32 A" instruction [31:0] $end
$var wire 32 B" PCPlus4F [31:0] $end
$var wire 32 C" PCF_next [31:0] $end
$var reg 32 D" InstrD [31:0] $end
$var reg 32 E" PCD [31:0] $end
$var reg 32 F" PCF [31:0] $end
$var reg 32 G" PCplus4D [31:0] $end
$scope module instr_mem $end
$var wire 32 H" addr [31:0] $end
$var wire 32 I" instruction [31:0] $end
$upscope $end
$upscope $end
$scope module hazard_unit $end
$var wire 32 J" ALuResultM [31:0] $end
$var wire 32 K" RD1E [31:0] $end
$var wire 32 L" RD2E [31:0] $end
$var wire 5 M" RdM [4:0] $end
$var wire 1 / RegWriteM $end
$var wire 5 N" Rs1E [4:0] $end
$var wire 5 O" Rs2E [4:0] $end
$var wire 32 P" SrcBE [31:0] $end
$var wire 32 Q" SrcAE [31:0] $end
$var wire 32 R" ResultW [31:0] $end
$var wire 1 . RegWriteW $end
$var wire 5 S" RdW [4:0] $end
$var wire 2 T" ForwardBE [1:0] $end
$var wire 2 U" ForwardAE [1:0] $end
$upscope $end
$scope module memory_access $end
$var wire 32 V" ALuResultM [31:0] $end
$var wire 1 B MemToRegM $end
$var wire 1 ? MemWriteM $end
$var wire 32 W" PCplus4M [31:0] $end
$var wire 5 X" RdM [4:0] $end
$var wire 1 / RegWriteM $end
$var wire 32 Y" WriteDataM [31:0] $end
$var wire 1 ! clk $end
$var wire 1 " reset $end
$var wire 32 Z" ReadDataM [31:0] $end
$var reg 32 [" ALuResultW [31:0] $end
$var reg 1 A MemToRegW $end
$var reg 32 \" PCplus4W [31:0] $end
$var reg 5 ]" RdW [4:0] $end
$var reg 32 ^" ReadDataW [31:0] $end
$var reg 1 . RegWriteW $end
$scope module data_memory $end
$var wire 32 _" address [31:0] $end
$var wire 1 ! clk $end
$var wire 32 `" data_in [31:0] $end
$var wire 32 a" data_out [31:0] $end
$var wire 1 ? we $end
$upscope $end
$upscope $end
$scope module write_back $end
$var wire 32 b" ALuResultW [31:0] $end
$var wire 1 A MemToRegW $end
$var wire 32 c" ReadDataW [31:0] $end
$var wire 1 d" clk $end
$var wire 1 e" reset $end
$var wire 32 f" ResultW [31:0] $end
$upscope $end
$upscope $end
$upscope $end
$enddefinitions $end
$comment Show the parameter values. $end
$dumpall
$end
#0
$dumpvars
bx f"
ze"
zd"
bx c"
bx b"
bx a"
bx `"
bx _"
bx ^"
bx ]"
bx \"
bx ["
bx Z"
bx Y"
bx X"
bx W"
bx V"
bx U"
bx T"
bx S"
bx R"
bx Q"
bx P"
bx O"
bx N"
bx M"
bx L"
bx K"
bx J"
bx I"
bx H"
bx G"
bx F"
bx E"
bx D"
bx C"
bx B"
bx A"
bx @"
bx ?"
x>"
bx ="
b0x <"
bx ;"
bx :"
x9"
x8"
bx 7"
bx 6"
bx 5"
bx 4"
bx 3"
bx 2"
bx 1"
bx 0"
bx /"
bx ."
bx -"
bx ,"
bx +"
bx *"
b0x )"
bx ("
bx '"
bx &"
bx %"
bx $"
bx #"
b100000 ""
bx !"
bx ~
bx }
bx |
bx {
bx z
bx y
bx x
bx w
bx v
bx u
bx t
bx s
xr
bx q
bx p
bx o
bx n
bx m
bx l
bx k
bx j
bx i
bx h
bx g
bx f
xe
bx d
xc
bx b
bx a
x`
x_
x^
x]
bx \
bx [
bx Z
bx Y
bx X
bx W
xV
bx U
bx T
bx S
bx R
xQ
bx P
bx O
xN
bx M
bx L
bx K
xJ
bx I
bx H
bx G
bx F
xE
xD
xC
xB
xA
x@
x?
bx >
bx =
x<
bx ;
bx :
bx 9
bx 8
bx 7
bx 6
bx 5
bx 4
bx 3
bx 2
bx 1
x0
x/
x.
bx -
bx ,
bx +
bx *
bx )
bx (
x'
x&
x%
b0x $
x#
1"
1!
$end
#5
0!
#10
0%
b0 $
b0 )"
b0 <"
0&
1#
09"
b0 ."
b0 ="
0'
b0 ;"
0>"
18"
b11111111111111111111111111111111 7"
b0 :"
b0 5"
b0 4"
b0 *"
b0 6"
b0 I
b0 U"
b0 H
b0 T"
b0 *
b0 ,"
b0 ?"
b0 Q"
b0 ("
b0 )
b0 +"
b0 P"
0<
b0 Y
b0 }
b0 Z
b0 {
b0 d
b0 u
b10100000000000010010011 A"
b10100000000000010010011 I"
b0 -
b0 U
b0 ~
b0 R"
b0 f"
b0 s
0r
0Q
b0 R
b0 P
b0 X
b0 S
b0 |
b0 T
b0 z
b0 f
b0 t
b0 w
0`
0c
0^
0_
0]
0e
0V
b0 b
b0 y
b100 C"
0A
0.
b0 K
b0 ["
b0 b"
b0 7
b0 \"
b0 2
b0 W
b0 !"
b0 S"
b0 ]"
b0 1
b0 ^"
b0 c"
0B
0?
0/
b0 8
b0 0"
b0 W"
b0 3
b0 1"
b0 M"
b0 X"
b0 (
b0 2"
b0 Y"
b0 `"
b0 L
b0 /"
b0 J"
b0 V"
b0 _"
b0 +
b0 p
b0 O"
b0 ,
b0 o
b0 N"
b0 5
b0 m
b0 L"
b0 6
b0 l
b0 K"
b0 9
b0 k
b0 &"
b0 ;
b0 -"
b0 @"
b0 =
b0 j
b0 %"
b0 G
b0 i
b0 $"
b0 4
b0 n
b0 '"
0C
0N
b0 O
b0 g
b0 M
b0 h
b0 #"
b0 3"
0J
0E
0D
0@
00
b0 :
b0 [
b0 G"
b0 >
b0 \
b0 E"
b0 F
b0 a
b0 q
b0 v
b0 x
b0 D"
b100 B"
b0 F"
b0 H"
1!
#15
0!
#20
1!
#25
0!
#30
1!
#35
0!
#40
0"
1!
#45
0!
#50
b101000000000000100010011 A"
b101000000000000100010011 I"
b10011 P
b1 X
b101 S
b101 |
b101 b
b101 y
1e
1V
b1000 C"
bx 1
bx ^"
bx c"
b100 :
b100 [
b100 G"
b10100000000000010010011 F
b10100000000000010010011 a
b10100000000000010010011 q
b10100000000000010010011 v
b10100000000000010010011 x
b10100000000000010010011 D"
b1000 B"
b100 F"
b100 H"
1!
#55
0!
#60
0#
b101 ."
b101 ="
b101 ;"
b1000001000000110110011 A"
b1000001000000110110011 I"
b101 5"
b11111111111111111111111111111010 7"
b101 :"
b10 X
b1010 S
b1010 |
1e
1V
b1010 b
b1010 y
b1100 C"
b101 *"
b101 6"
b1000 :
b1000 [
b1000 G"
b100 >
b100 \
b100 E"
b101000000000000100010011 F
b101000000000000100010011 a
b101000000000000100010011 q
b101000000000000100010011 v
b101000000000000100010011 x
b101000000000000100010011 D"
b1100 B"
b1000 F"
b1000 H"
b101 +
b101 p
b101 O"
b100 9
b100 k
b100 &"
b101 ;
b101 -"
b101 @"
b101 G
b101 i
b101 $"
b1 4
b1 n
b1 '"
1N
10
1!
#65
0!
#70
b1010 ."
b1010 ="
b1010 ;"
b1010 5"
b11111111111111111111111111110101 7"
b1010 :"
b1100000010000000100011 A"
b1100000010000000100011 I"
b1010 *"
b1010 6"
b110011 P
b11 X
b10 S
b10 |
b1 T
b1 z
b0 b
b0 y
b10 f
b10 t
b10 w
0e
1V
b10000 C"
1/
b100 8
b100 0"
b100 W"
b1 3
b1 1"
b1 M"
b1 X"
b101 L
b101 /"
b101 J"
b101 V"
b101 _"
b1010 +
b1010 p
b1010 O"
b1000 9
b1000 k
b1000 &"
b100 =
b100 j
b100 %"
b1110 ;
b1110 -"
b1110 @"
b1010 G
b1010 i
b1010 $"
b10 4
b10 n
b10 '"
b1100 :
b1100 [
b1100 G"
b1000 >
b1000 \
b1000 E"
b1000001000000110110011 F
b1000001000000110110011 a
b1000001000000110110011 q
b1000001000000110110011 v
b1000001000000110110011 x
b1000001000000110110011 D"
b10000 B"
b1100 F"
b1100 H"
1!
#75
0!
#80
0#
b101 *
b101 ,"
b101 ?"
b101 Q"
b1010 ("
b1010 )
b1010 +"
b1010 P"
b1111 ."
b1111 ="
b1 I
b1 U"
b1111 ;"
b10001000000011 A"
b10001000000011 I"
b10 H
b10 T"
b1111 5"
b11111111111111111111111111110101 7"
b1010 :"
b10 s
b10 R
b100011 P
b0 X
b11 S
b11 |
b0 T
b0 z
1e
1]
b0 f
b0 t
b0 w
0V
b10100 C"
b1010 *"
b1010 6"
b101 -
b101 U
b101 ~
b101 R"
b101 f"
b10000 :
b10000 [
b10000 G"
b1100 >
b1100 \
b1100 E"
b1100000010000000100011 F
b1100000010000000100011 a
b1100000010000000100011 q
b1100000010000000100011 v
b1100000010000000100011 x
b1100000010000000100011 D"
b10100 B"
b10000 F"
b10000 H"
b10 +
b10 p
b10 O"
b1 ,
b1 o
b1 N"
b1100 9
b1100 k
b1100 &"
b1000 =
b1000 j
b1000 %"
b1000 ;
b1000 -"
b1000 @"
b0 G
b0 i
b0 $"
b11 4
b11 n
b11 '"
0N
b10 O
b10 g
b1000 8
b1000 0"
b1000 W"
b10 3
b10 1"
b10 M"
b10 X"
b1010 L
b1010 /"
b1010 J"
b1010 V"
b1010 _"
1.
b101 K
b101 ["
b101 b"
b100 7
b100 \"
b1 2
b1 W
b1 !"
b1 S"
b1 ]"
1!
#85
0!
#90
1#
b0 ."
b0 ="
b0 ;"
b0 *
b0 ,"
b0 ?"
b0 Q"
b1111 ("
b1111 )
b1111 +"
b1111 P"
b0 I
b0 U"
b0 5"
b11111111111111111111111111111111 7"
b0 :"
b1100100000010001100011 A"
b1100100000010001100011 I"
b1010 -
b1010 U
b1010 ~
b1010 R"
b1010 f"
b0 *"
b0 6"
b11 P
b100 X
b0 S
b0 |
1V
1_
1^
0]
1e
b11000 C"
b1010 K
b1010 ["
b1010 b"
b1000 7
b1000 \"
b10 2
b10 W
b10 !"
b10 S"
b10 ]"
b1100 8
b1100 0"
b1100 W"
b11 3
b11 1"
b11 M"
b11 X"
b1010 (
b1010 2"
b1010 Y"
b1010 `"
b1111 L
b1111 /"
b1111 J"
b1111 V"
b1111 _"
b11 +
b11 p
b11 O"
b0 ,
b0 o
b0 N"
b10000 9
b10000 k
b10000 &"
b1100 ;
b1100 -"
b1100 @"
b1100 =
b1100 j
b1100 %"
b0 4
b0 n
b0 '"
1N
b0 O
b0 g
1@
00
b10100 :
b10100 [
b10100 G"
b10000 >
b10000 \
b10000 E"
b10001000000011 F
b10001000000011 a
b10001000000011 q
b10001000000011 v
b10001000000011 x
b10001000000011 D"
b11000 B"
b10100 F"
b10100 H"
1!
#95
0!
#100
b0 H
b0 T"
b0 ("
b0 )
b0 +"
b0 P"
b1 d
b1 u
b100000000001010010011 A"
b100000000001010010011 I"
b0 I
b0 U"
b0 s
b0 R
b1100011 P
b1000 X
b11 S
b11 |
b100 T
b100 z
1c
b1 f
b1 t
b1 w
0^
0_
0e
0V
b1000 b
b1000 y
b11100 C"
b1111 -
b1111 U
b1111 ~
b1111 R"
b1111 f"
b11000 :
b11000 [
b11000 G"
b10100 >
b10100 \
b10100 E"
b1100100000010001100011 F
b1100100000010001100011 a
b1100100000010001100011 q
b1100100000010001100011 v
b1100100000010001100011 x
b1100100000010001100011 D"
b11100 B"
b11000 F"
b11000 H"
b0 +
b0 p
b0 O"
b10100 9
b10100 k
b10100 &"
b10000 ;
b10000 -"
b10000 @"
b10000 =
b10000 j
b10000 %"
b100 4
b100 n
b100 '"
1C
1D
0@
10
1?
0/
b10000 8
b10000 0"
b10000 W"
b0 3
b0 1"
b0 M"
b0 X"
b1111 (
b1111 2"
b1111 Y"
b1111 `"
b0 L
b0 /"
b0 J"
b0 V"
b0 _"
b1111 K
b1111 ["
b1111 b"
b1100 7
b1100 \"
b11 2
b11 W
b11 !"
b11 S"
b11 ]"
1!
#105
0!
#110
1'
1#
1>"
b0 ."
b0 ="
b10 I
b10 U"
08"
b11111111111111111111111111111111 :"
b0 ;"
1<
b0 d
b0 u
b1101111 A"
b1101111 I"
b0 -
b0 U
b0 ~
b0 R"
b0 f"
b10011 P
b101 X
b1 S
b1 |
b0 T
b0 z
b1 b
b1 y
1e
1V
b0 f
b0 t
b0 w
0c
b11100 C"
0.
b0 K
b0 ["
b0 b"
b10000 7
b10000 \"
b0 2
b0 W
b0 !"
b0 S"
b0 ]"
b1111 Z"
b1111 a"
1B
0?
1/
b10100 8
b10100 0"
b10100 W"
b100 3
b100 1"
b100 M"
b100 X"
b0 (
b0 2"
b0 Y"
b0 `"
b11 +
b11 p
b11 O"
b100 ,
b100 o
b100 N"
b11000 9
b11000 k
b11000 &"
b10100 =
b10100 j
b10100 %"
b11100 ;
b11100 -"
b11100 @"
b1000 G
b1000 i
b1000 $"
b1000 4
b1000 n
b1000 '"
0C
0N
b1 O
b1 g
b1 M
b1 h
b1 #"
b1 3"
1J
0D
00
b101 Y
b101 }
b11100 :
b11100 [
b11100 G"
b11000 >
b11000 \
b11000 E"
b100000000001010010011 F
b100000000001010010011 a
b100000000001010010011 q
b100000000001010010011 v
b100000000001010010011 x
b100000000001010010011 D"
b100000 B"
b11100 F"
b11100 H"
1!
#115
0!
#120
0%
b0 $
b0 )"
b0 <"
0&
0#
09"
b1 ."
b1 ="
0'
18"
b1 :"
b1 ;"
0>"
b0 Y
b0 }
b1 5"
b11111111111111111111111111111110 7"
0<
b0 I
b0 U"
b1101111 P
b0 X
b0 S
b0 |
1`
0e
1V
b0 b
b0 y
b101 ("
b101 )
b101 +"
b101 P"
b100000 C"
b1 *"
b1 6"
b1111 -
b1111 U
b1111 ~
b1111 R"
b1111 f"
b100000 :
b100000 [
b100000 G"
b11100 >
b11100 \
b11100 E"
b1101111 F
b1101111 a
b1101111 q
b1101111 v
b1101111 x
b1101111 D"
b1 +
b1 p
b1 O"
b0 ,
b0 o
b0 N"
b101 5
b101 m
b101 L"
b11100 9
b11100 k
b11100 &"
b11000 =
b11000 j
b11000 %"
b11001 ;
b11001 -"
b11001 @"
b1 G
b1 i
b1 $"
b101 4
b101 n
b101 '"
1N
b0 O
b0 g
b0 M
b0 h
b0 #"
b0 3"
0J
10
0B
0/
b11000 8
b11000 0"
b11000 W"
b1000 3
b1000 1"
b1000 M"
b1000 X"
1A
1.
b10100 7
b10100 \"
b100 2
b100 W
b100 !"
b100 S"
b100 ]"
b1111 1
b1111 ^"
b1111 c"
1!
#125
0!
#130
1#
b0 ."
b0 ="
b0 ;"
b0 5"
b11111111111111111111111111111111 7"
b0 :"
bx A"
bx I"
b0 -
b0 U
b0 ~
b0 R"
b0 f"
b0 ("
b0 )
b0 +"
b0 P"
b0 *"
b0 6"
1<
b11100 C"
0A
0.
b11000 7
b11000 \"
b1000 2
b1000 W
b1000 !"
b1000 S"
b1000 ]"
1/
b11100 8
b11100 0"
b11100 W"
b101 3
b101 1"
b101 M"
b101 X"
b101 (
b101 2"
b101 Y"
b101 `"
b1 L
b1 /"
b1 J"
b1 V"
b1 _"
b0 +
b0 p
b0 O"
b0 5
b0 m
b0 L"
b100000 9
b100000 k
b100000 &"
b11100 =
b11100 j
b11100 %"
b11100 ;
b11100 -"
b11100 @"
b0 G
b0 i
b0 $"
b0 4
b0 n
b0 '"
0N
1E
b100100 B"
b100000 F"
b100000 H"
1!
#135
0!
#140
bx Y
bx }
bx Z
bx {
b1101111 A"
b1101111 I"
b0 I
b0 U"
b0 H
b0 T"
bx s
xr
xQ
bx R
bx P
bx X
bx S
bx |
bx T
bx z
0`
0V
b1 -
b1 U
b1 ~
b1 R"
b1 f"
b100100 :
b100100 [
b100100 G"
b100000 >
b100000 \
b100000 E"
bx F
bx a
bx q
bx v
bx x
bx D"
b100000 B"
b11100 F"
b11100 H"
b100000 8
b100000 0"
b100000 W"
b0 3
b0 1"
b0 M"
b0 X"
b0 (
b0 2"
b0 Y"
b0 `"
b0 L
b0 /"
b0 J"
b0 V"
b0 _"
1.
b1 K
b1 ["
b1 b"
b11100 7
b11100 \"
b101 2
b101 W
b101 !"
b101 S"
b101 ]"
1!
#145
0!
#150
x8"
x%
b0x $
b0x )"
b0x <"
x&
x#
bx ."
bx ="
x'
b0 H
b0 T"
b0 I
b0 U"
bx 4"
bx 7"
bx :"
x9"
bx ;"
x>"
bx *"
bx 6"
bx 5"
b0 Y
b0 }
b0 Z
b0 {
b0 -
b0 U
b0 ~
b0 R"
b0 f"
bx ("
bx )
bx +"
bx P"
bx *
bx ,"
bx ?"
bx Q"
b100000 C"
0<
b0 s
0r
0Q
b0 R
b1101111 P
b0 X
b0 S
b0 |
b0 T
b0 z
1`
1V
b0 K
b0 ["
b0 b"
b100000 7
b100000 \"
b0 2
b0 W
b0 !"
b0 S"
b0 ]"
bx +
bx p
bx O"
bx ,
bx o
bx N"
bx 5
bx m
bx L"
bx 6
bx l
bx K"
b100100 9
b100100 k
b100100 &"
b100000 ;
b100000 -"
b100000 @"
b100000 =
b100000 j
b100000 %"
bx 4
bx n
bx '"
0E
00
b100000 :
b100000 [
b100000 G"
b11100 >
b11100 \
b11100 E"
b1101111 F
b1101111 a
b1101111 q
b1101111 v
b1101111 x
b1101111 D"
1!
#155
0!
#160
0%
b0 $
b0 )"
b0 <"
0&
1#
09"
b0 ."
b0 ="
0'
b0 ;"
0>"
18"
b0 5"
b11111111111111111111111111111111 7"
b0 :"
b0 I
b0 U"
b0 H
b0 T"
bx A"
bx I"
b0 *"
b0 6"
b0 4"
bx Z"
bx a"
b11100 C"
b0 ("
b0 )
b0 +"
b0 P"
b0 *
b0 ,"
b0 ?"
b0 Q"
1<
b100100 B"
b100000 F"
b100000 H"
b0 +
b0 p
b0 O"
b0 ,
b0 o
b0 N"
b0 5
b0 m
b0 L"
b0 6
b0 l
b0 K"
b100000 9
b100000 k
b100000 &"
b11100 ;
b11100 -"
b11100 @"
b11100 =
b11100 j
b11100 %"
b0 4
b0 n
b0 '"
1E
10
0/
b100100 8
b100100 0"
b100100 W"
bx 3
bx 1"
bx M"
bx X"
bx (
bx 2"
bx Y"
bx `"
bx L
bx /"
bx J"
bx V"
bx _"
1!
#165
0!
#170
18"
0%
b0 $
b0 )"
b0 <"
0&
1#
b0 ."
b0 ="
0'
b0 4"
b11111111111111111111111111111111 7"
b0 :"
09"
b0 ;"
0>"
b0 *"
b0 6"
b0 5"
b0 ("
b0 )
b0 +"
b0 P"
b0 *
b0 ,"
b0 ?"
b0 Q"
b0 H
b0 T"
b0 I
b0 U"
b1111 Z"
b1111 a"
bx Y
bx }
bx Z
bx {
b1101111 A"
b1101111 I"
bx -
bx U
bx ~
bx R"
bx f"
bx s
xr
xQ
bx R
bx P
bx X
bx S
bx |
bx T
bx z
0`
0V
0.
bx K
bx ["
bx b"
b100100 7
b100100 \"
bx 2
bx W
bx !"
bx S"
bx ]"
bx 1
bx ^"
bx c"
1/
b100000 8
b100000 0"
b100000 W"
b0 3
b0 1"
b0 M"
b0 X"
b0 (
b0 2"
b0 Y"
b0 `"
b0 L
b0 /"
b0 J"
b0 V"
b0 _"
b100100 :
b100100 [
b100100 G"
b100000 >
b100000 \
b100000 E"
bx F
bx a
bx q
bx v
bx x
bx D"
b100000 B"
b11100 F"
b11100 H"
1!
#175
0!
#180
x8"
x%
b0x $
b0x )"
b0x <"
x&
x#
bx ."
bx ="
x'
bx 4"
bx 7"
bx :"
x9"
bx ;"
x>"
b0 Y
b0 }
b0 Z
b0 {
bx *"
bx 6"
bx 5"
b0 s
0r
0Q
b0 R
b1101111 P
b0 X
b0 S
b0 |
b0 T
b0 z
1`
1V
bx ("
bx )
bx +"
bx P"
bx *
bx ,"
bx ?"
bx Q"
b100000 C"
0<
b0 -
b0 U
b0 ~
b0 R"
b0 f"
b100000 :
b100000 [
b100000 G"
b11100 >
b11100 \
b11100 E"
b1101111 F
b1101111 a
b1101111 q
b1101111 v
b1101111 x
b1101111 D"
bx +
bx p
bx O"
bx ,
bx o
bx N"
bx 5
bx m
bx L"
bx 6
bx l
bx K"
b100100 9
b100100 k
b100100 &"
b100000 ;
b100000 -"
b100000 @"
b100000 =
b100000 j
b100000 %"
bx 4
bx n
bx '"
0E
00
1.
b0 K
b0 ["
b0 b"
b100000 7
b100000 \"
b0 2
b0 W
b0 !"
b0 S"
b0 ]"
b1111 1
b1111 ^"
b1111 c"
1!
#185
0!
#190
0%
b0 $
b0 )"
b0 <"
0&
1#
09"
b0 ."
b0 ="
0'
b0 ;"
0>"
18"
b0 I
b0 U"
b0 H
b0 T"
b0 5"
b11111111111111111111111111111111 7"
b0 :"
bx Z"
bx a"
b0 *"
b0 6"
b0 4"
bx A"
bx I"
b0 ("
b0 )
b0 +"
b0 P"
b0 *
b0 ,"
b0 ?"
b0 Q"
1<
b11100 C"
0/
b100100 8
b100100 0"
b100100 W"
bx 3
bx 1"
bx M"
bx X"
bx (
bx 2"
bx Y"
bx `"
bx L
bx /"
bx J"
bx V"
bx _"
b0 +
b0 p
b0 O"
b0 ,
b0 o
b0 N"
b0 5
b0 m
b0 L"
b0 6
b0 l
b0 K"
b100000 9
b100000 k
b100000 &"
b11100 ;
b11100 -"
b11100 @"
b11100 =
b11100 j
b11100 %"
b0 4
b0 n
b0 '"
1E
10
b100100 B"
b100000 F"
b100000 H"
1!
#195
0!
#200
18"
0%
b0 $
b0 )"
b0 <"
0&
1#
b0 ."
b0 ="
0'
b0 4"
b11111111111111111111111111111111 7"
b0 :"
09"
b0 ;"
0>"
b0 *"
b0 6"
b0 5"
b0 ("
b0 )
b0 +"
b0 P"
b0 *
b0 ,"
b0 ?"
b0 Q"
b0 H
b0 T"
b0 I
b0 U"
bx Y
bx }
bx Z
bx {
b1101111 A"
b1101111 I"
b1111 Z"
b1111 a"
bx s
xr
xQ
bx R
bx P
bx X
bx S
bx |
bx T
bx z
0`
0V
bx -
bx U
bx ~
bx R"
bx f"
b100100 :
b100100 [
b100100 G"
b100000 >
b100000 \
b100000 E"
bx F
bx a
bx q
bx v
bx x
bx D"
b100000 B"
b11100 F"
b11100 H"
1/
b100000 8
b100000 0"
b100000 W"
b0 3
b0 1"
b0 M"
b0 X"
b0 (
b0 2"
b0 Y"
b0 `"
b0 L
b0 /"
b0 J"
b0 V"
b0 _"
0.
bx K
bx ["
bx b"
b100100 7
b100100 \"
bx 2
bx W
bx !"
bx S"
bx ]"
bx 1
bx ^"
bx c"
1!
#205
0!
