top_unit_pipelined.vcd
$date
	Mon Jul  6 15:04:03 2026
$end
$version
	Icarus Verilog
$end
$timescale
	1s
$end
$scope module top_unit_pipelined_test $end
$var reg 1 ! clk $end
$var reg 1 " reset $end
$scope module uut $end
$var wire 1 ! clk $end
$var wire 1 " reset $end
$var wire 1 # zero $end
$var wire 1 $ stallF $end
$var wire 1 % stallD $end
$var wire 32 & slt [31:0] $end
$var wire 1 ' overflow $end
$var wire 1 ( negative $end
$var wire 1 ) flushE $end
$var wire 1 * flushD $end
$var wire 1 + carry $end
$var wire 32 , WriteDataM [31:0] $end
$var wire 32 - SrcBE [31:0] $end
$var wire 32 . SrcAE [31:0] $end
$var wire 5 / Rs2E [4:0] $end
$var wire 5 0 Rs2D [4:0] $end
$var wire 5 1 Rs1E [4:0] $end
$var wire 5 2 Rs1D [4:0] $end
$var wire 32 3 ResultW [31:0] $end
$var wire 1 4 RegWriteW $end
$var wire 1 5 RegWriteM $end
$var wire 1 6 RegWriteE $end
$var wire 32 7 ReadDataW [31:0] $end
$var wire 5 8 RdW [4:0] $end
$var wire 5 9 RdM [4:0] $end
$var wire 5 : RdE [4:0] $end
$var wire 32 ; RD2E [31:0] $end
$var wire 32 < RD1E [31:0] $end
$var wire 32 = PCplus4W [31:0] $end
$var wire 32 > PCplus4M [31:0] $end
$var wire 32 ? PCplus4E [31:0] $end
$var wire 32 @ PCplus4D [31:0] $end
$var wire 32 A PCTargetE [31:0] $end
$var wire 1 B PCSrcE $end
$var wire 32 C PCE [31:0] $end
$var wire 32 D PCD [31:0] $end
$var wire 1 E MemWriteM $end
$var wire 1 F MemWriteE $end
$var wire 1 G MemToRegW $end
$var wire 1 H MemToRegM $end
$var wire 1 I MemToRegE $end
$var wire 1 J MemReadE $end
$var wire 1 K JumpE $end
$var wire 32 L InstrD [31:0] $end
$var wire 32 M Imm_outE [31:0] $end
$var wire 2 N ForwardBE [1:0] $end
$var wire 2 O ForwardAE [1:0] $end
$var wire 1 P BranchE $end
$var wire 32 Q ALuResultW [31:0] $end
$var wire 32 R ALuResultM [31:0] $end
$var wire 3 S ALUcontrolE [2:0] $end
$var wire 1 T ALUSrcE $end
$var wire 2 U ALUOpE [1:0] $end
$scope module decode $end
$var wire 1 ! clk $end
$var wire 1 " reset $end
$var wire 7 V op [6:0] $end
$var wire 1 W func7_5 $end
$var wire 3 X func3 [2:0] $end
$var wire 1 ) flushE $end
$var wire 5 Y Rs2D [4:0] $end
$var wire 5 Z Rs1D [4:0] $end
$var wire 32 [ ResultW [31:0] $end
$var wire 1 4 RegWriteW $end
$var wire 1 \ RegWriteD $end
$var wire 5 ] RdW [4:0] $end
$var wire 5 ^ RdD [4:0] $end
$var wire 32 _ RD2D [31:0] $end
$var wire 32 ` RD1D [31:0] $end
$var wire 32 a PCplus4D [31:0] $end
$var wire 32 b PCD [31:0] $end
$var wire 1 c MemWriteD $end
$var wire 1 d MemToRegD $end
$var wire 1 e MemReadD $end
$var wire 1 f JumpD $end
$var wire 32 g InstrD [31:0] $end
$var wire 32 h Imm_outD [31:0] $end
$var wire 1 i BranchD $end
$var wire 3 j ALUcontrolD [2:0] $end
$var wire 1 k ALUSrcD $end
$var wire 2 l ALUOpD [1:0] $end
$var reg 2 m ALUOpE [1:0] $end
$var reg 1 T ALUSrcE $end
$var reg 3 n ALUcontrolE [2:0] $end
$var reg 1 P BranchE $end
$var reg 32 o Imm_outE [31:0] $end
$var reg 1 K JumpE $end
$var reg 1 J MemReadE $end
$var reg 1 I MemToRegE $end
$var reg 1 F MemWriteE $end
$var reg 32 p PCE [31:0] $end
$var reg 32 q PCplus4E [31:0] $end
$var reg 32 r RD1E [31:0] $end
$var reg 32 s RD2E [31:0] $end
$var reg 5 t RdE [4:0] $end
$var reg 1 6 RegWriteE $end
$var reg 5 u Rs1E [4:0] $end
$var reg 5 v Rs2E [4:0] $end
$scope module alu_control $end
$var wire 32 w instruction [31:0] $end
$var wire 1 x funct7_5 $end
$var wire 3 y func3 [2:0] $end
$var wire 2 z ALUOp [1:0] $end
$var reg 3 { ALUcontrol [2:0] $end
$upscope $end
$scope module control_unit $end
$var wire 32 | instruction [31:0] $end
$var reg 2 } ALUOp [1:0] $end
$var reg 1 k ALUSrc $end
$var reg 1 i Branch $end
$var reg 1 f Jump $end
$var reg 1 e MemRead $end
$var reg 1 d MemToReg $end
$var reg 1 c MemWrite $end
$var reg 1 \ RegWrite $end
$upscope $end
$scope module imm_gen $end
$var wire 32 ~ instruction [31:0] $end
$var reg 32 !" imm_out [31:0] $end
$upscope $end
$scope module register_file $end
$var wire 1 ! clk $end
$var wire 5 "" rs1_addr [4:0] $end
$var wire 5 #" rs2_addr [4:0] $end
$var wire 1 4 we $end
$var wire 32 $" rs2_data [31:0] $end
$var wire 32 %" rs1_data [31:0] $end
$var wire 32 &" rd_data [31:0] $end
$var wire 5 '" rd_addr [4:0] $end
$var integer 32 (" i [31:0] $end
$upscope $end
$upscope $end
$scope module execute $end
$var wire 1 T ALUSrcE $end
$var wire 3 )" ALUcontrolE [2:0] $end
$var wire 1 P BranchE $end
$var wire 32 *" Imm_outE [31:0] $end
$var wire 1 K JumpE $end
$var wire 1 J MemReadE $end
$var wire 1 I MemToRegE $end
$var wire 1 F MemWriteE $end
$var wire 32 +" PCE [31:0] $end
$var wire 1 B PCSrcE $end
$var wire 32 ," PCplus4E [31:0] $end
$var wire 5 -" RdE [4:0] $end
$var wire 1 6 RegWriteE $end
$var wire 32 ." WriteDataE [31:0] $end
$var wire 1 ! clk $end
$var wire 1 " reset $end
$var wire 1 # zero $end
$var wire 32 /" slt [31:0] $end
$var wire 1 ' overflow $end
$var wire 1 ( negative $end
$var wire 1 + carry $end
$var wire 32 0" SrcBE [31:0] $end
$var wire 32 1" SrcAE [31:0] $end
$var wire 32 2" Src2E [31:0] $end
$var wire 32 3" RD2E [31:0] $end
$var wire 32 4" RD1E [31:0] $end
$var wire 32 5" PCTargetE [31:0] $end
$var wire 32 6" ALuResultE [31:0] $end
$var reg 32 7" ALuResultM [31:0] $end
$var reg 1 H MemToRegM $end
$var reg 1 E MemWriteM $end
$var reg 32 8" PCplus4M [31:0] $end
$var reg 5 9" RdM [4:0] $end
$var reg 1 5 RegWriteM $end
$var reg 32 :" WriteDataM [31:0] $end
$scope module alu $end
$var wire 3 ;" ALUcontrol [2:0] $end
$var wire 32 <" a_and_b [31:0] $end
$var wire 32 =" a_or_b [31:0] $end
$var wire 32 >" b [31:0] $end
$var wire 1 + carry $end
$var wire 32 ?" not_b [31:0] $end
$var wire 1 ' overflow $end
$var wire 1 @" xnor_gate $end
$var wire 1 A" xor_gate $end
$var wire 1 # zero $end
$var wire 32 B" wire_b [31:0] $end
$var wire 32 C" sum [31:0] $end
$var wire 32 D" slt [31:0] $end
$var wire 32 E" result [31:0] $end
$var wire 1 ( negative $end
$var wire 1 F" cout $end
$var wire 32 G" a [31:0] $end
$upscope $end
$upscope $end
$scope module fetch $end
$var wire 1 B PCSrcE $end
$var wire 32 H" PCTargetE [31:0] $end
$var wire 1 ! clk $end
$var wire 1 " reset $end
$var wire 1 $ stallF $end
$var wire 32 I" instruction [31:0] $end
$var wire 1 * flushD $end
$var wire 32 J" PCPlus4F [31:0] $end
$var wire 32 K" PCF_next [31:0] $end
$var reg 32 L" InstrD [31:0] $end
$var reg 32 M" PCD [31:0] $end
$var reg 32 N" PCF [31:0] $end
$var reg 32 O" PCplus4D [31:0] $end
$scope module instr_mem $end
$var wire 32 P" addr [31:0] $end
$var wire 32 Q" instruction [31:0] $end
$upscope $end
$upscope $end
$scope module hazard_control_unit $end
$var wire 1 J MemReadE $end
$var wire 1 B PCSrcE $end
$var wire 5 R" RdE [4:0] $end
$var wire 5 S" Rs1D [4:0] $end
$var wire 5 T" Rs2D [4:0] $end
$var wire 1 * flushD $end
$var wire 1 ) flushE $end
$var wire 1 % stallD $end
$var wire 1 $ stallF $end
$var reg 1 U" LoadUseHazard $end
$upscope $end
$scope module hazard_unit $end
$var wire 32 V" ALuResultM [31:0] $end
$var wire 32 W" RD1E [31:0] $end
$var wire 32 X" RD2E [31:0] $end
$var wire 5 Y" RdM [4:0] $end
$var wire 1 5 RegWriteM $end
$var wire 5 Z" Rs1E [4:0] $end
$var wire 5 [" Rs2E [4:0] $end
$var wire 32 \" SrcBE [31:0] $end
$var wire 32 ]" SrcAE [31:0] $end
$var wire 32 ^" ResultW [31:0] $end
$var wire 1 4 RegWriteW $end
$var wire 5 _" RdW [4:0] $end
$var wire 2 `" ForwardBE [1:0] $end
$var wire 2 a" ForwardAE [1:0] $end
$upscope $end
$scope module memory_access $end
$var wire 32 b" ALuResultM [31:0] $end
$var wire 1 H MemToRegM $end
$var wire 1 E MemWriteM $end
$var wire 32 c" PCplus4M [31:0] $end
$var wire 5 d" RdM [4:0] $end
$var wire 1 5 RegWriteM $end
$var wire 32 e" WriteDataM [31:0] $end
$var wire 1 ! clk $end
$var wire 1 " reset $end
$var wire 32 f" ReadDataM [31:0] $end
$var reg 32 g" ALuResultW [31:0] $end
$var reg 1 G MemToRegW $end
$var reg 32 h" PCplus4W [31:0] $end
$var reg 5 i" RdW [4:0] $end
$var reg 32 j" ReadDataW [31:0] $end
$var reg 1 4 RegWriteW $end
$scope module data_memory $end
$var wire 32 k" address [31:0] $end
$var wire 1 ! clk $end
$var wire 32 l" data_in [31:0] $end
$var wire 32 m" data_out [31:0] $end
$var wire 1 E we $end
$var integer 32 n" i [31:0] $end
$upscope $end
$upscope $end
$scope module write_back $end
$var wire 32 o" ALuResultW [31:0] $end
$var wire 1 G MemToRegW $end
$var wire 32 p" ReadDataW [31:0] $end
$var wire 1 q" clk $end
$var wire 1 r" reset $end
$var wire 32 s" ResultW [31:0] $end
$upscope $end
$upscope $end
$upscope $end
$enddefinitions $end
$comment Show the parameter values. $end
$dumpall
$end
#0
$dumpvars
bx s"
zr"
zq"
bx p"
bx o"
b10000000000 n"
bx m"
bx l"
bx k"
bx j"
bx i"
bx h"
bx g"
bx f"
bx e"
bx d"
bx c"
bx b"
bx a"
bx `"
bx _"
bx ^"
bx ]"
bx \"
bx ["
bx Z"
bx Y"
bx X"
bx W"
bx V"
xU"
bx T"
bx S"
bx R"
bx Q"
bx P"
bx O"
bx N"
bx M"
bx L"
bx K"
bx J"
bx I"
bx H"
bx G"
xF"
bx E"
b0x D"
bx C"
bx B"
xA"
x@"
bx ?"
bx >"
bx ="
bx <"
bx ;"
bx :"
bx 9"
bx 8"
bx 7"
bx 6"
bx 5"
bx 4"
bx 3"
bx 2"
bx 1"
bx 0"
b0x /"
bx ."
bx -"
bx ,"
bx +"
bx *"
bx )"
b100000 ("
bx '"
bx &"
bx %"
bx $"
bx #"
bx ""
bx !"
bx ~
bx }
bx |
bx {
bx z
bx y
xx
bx w
bx v
bx u
bx t
bx s
bx r
bx q
bx p
bx o
bx n
bx m
bx l
xk
bx j
xi
bx h
bx g
xf
xe
xd
xc
bx b
bx a
bx `
bx _
bx ^
bx ]
x\
bx [
bx Z
bx Y
bx X
xW
bx V
bx U
xT
bx S
bx R
bx Q
xP
bx O
bx N
bx M
bx L
xK
xJ
xI
xH
xG
xF
xE
bx D
bx C
xB
bx A
bx @
bx ?
bx >
bx =
bx <
bx ;
bx :
bx 9
bx 8
bx 7
x6
x5
x4
bx 3
bx 2
bx 1
bx 0
bx /
bx .
bx -
bx ,
x+
x*
x)
x(
x'
b0x &
x%
x$
x#
1"
1!
$end
#5
0!
#10
0'
b0 &
b0 /"
b0 D"
0(
1#
0A"
b0 6"
b0 E"
0+
b0 C"
0F"
1@"
b11111111111111111111111111111111 ?"
b0 B"
b0 ="
b0 <"
b0 2"
b0 >"
b0 O
b0 a"
b0 N
b0 `"
b0 .
b0 1"
b0 4"
b0 G"
b0 ]"
b0 ."
b0 -
b0 0"
b0 3"
b0 \"
0)
b0 _
b0 $"
b0 `
b0 %"
b0 f"
b0 m"
0*
0B
b0 j
b0 {
b10100000000000010010011 I"
b10100000000000010010011 Q"
b0 3
b0 [
b0 &"
b0 ^"
b0 s"
0$
0%
0U"
b0 y
0x
0W
b0 X
b0 V
b0 ^
b0 0
b0 Y
b0 #"
b0 T"
b0 2
b0 Z
b0 ""
b0 S"
b0 l
b0 z
b0 }
0f
0i
0d
0e
0c
0k
0\
b0 h
b0 !"
b100 K"
0G
04
b0 Q
b0 g"
b0 o"
b0 =
b0 h"
b0 8
b0 ]
b0 '"
b0 _"
b0 i"
b0 7
b0 j"
b0 p"
0H
0E
05
b0 >
b0 8"
b0 c"
b0 9
b0 9"
b0 Y"
b0 d"
b0 ,
b0 :"
b0 e"
b0 l"
b0 R
b0 7"
b0 V"
b0 b"
b0 k"
b0 /
b0 v
b0 ["
b0 1
b0 u
b0 Z"
b0 ;
b0 s
b0 X"
b0 <
b0 r
b0 W"
b0 ?
b0 q
b0 ,"
b0 A
b0 5"
b0 H"
b0 C
b0 p
b0 +"
b0 M
b0 o
b0 *"
b0 :
b0 t
b0 -"
b0 R"
0I
0T
b0 U
b0 m
b0 S
b0 n
b0 )"
b0 ;"
0P
0K
0J
0F
06
b0 @
b0 a
b0 O"
b0 D
b0 b
b0 M"
b0 L
b0 g
b0 w
b0 |
b0 ~
b0 L"
b100 J"
b0 N"
b0 P"
1!
#15
0!
#20
1!
#25
0!
#30
1!
#35
0!
#40
0"
1!
#45
0!
#50
b101000000000000100010011 I"
b101000000000000100010011 Q"
b10011 V
b1 ^
b101 0
b101 Y
b101 #"
b101 T"
b101 h
b101 !"
1k
1\
b1000 K"
b100 @
b100 a
b100 O"
b10100000000000010010011 L
b10100000000000010010011 g
b10100000000000010010011 w
b10100000000000010010011 |
b10100000000000010010011 ~
b10100000000000010010011 L"
b1000 J"
b100 N"
b100 P"
1!
#55
0!
#60
0#
b101 6"
b101 E"
b101 C"
b1000001000000110110011 I"
b1000001000000110110011 Q"
b101 ="
b11111111111111111111111111111010 ?"
b101 B"
b10 ^
b1010 0
b1010 Y
b1010 #"
b1010 T"
1k
1\
b1010 h
b1010 !"
b1100 K"
b101 2"
b101 >"
b1000 @
b1000 a
b1000 O"
b100 D
b100 b
b100 M"
b101000000000000100010011 L
b101000000000000100010011 g
b101000000000000100010011 w
b101000000000000100010011 |
b101000000000000100010011 ~
b101000000000000100010011 L"
b1100 J"
b1000 N"
b1000 P"
b101 /
b101 v
b101 ["
b100 ?
b100 q
b100 ,"
b101 A
b101 5"
b101 H"
b101 M
b101 o
b101 *"
b1 :
b1 t
b1 -"
b1 R"
1T
16
1!
#65
0!
#70
b1010 6"
b1010 E"
b1010 C"
b1010 ="
b11111111111111111111111111110101 ?"
b1010 B"
b1000000000100010000001000110011 I"
b1000000000100010000001000110011 Q"
b1010 2"
b1010 >"
b110011 V
b11 ^
b10 0
b10 Y
b10 #"
b10 T"
b1 2
b1 Z
b1 ""
b1 S"
b0 h
b0 !"
b10 l
b10 z
b10 }
0k
1\
b10000 K"
15
b100 >
b100 8"
b100 c"
b1 9
b1 9"
b1 Y"
b1 d"
b101 R
b101 7"
b101 V"
b101 b"
b101 k"
b1010 /
b1010 v
b1010 ["
b1000 ?
b1000 q
b1000 ,"
b100 C
b100 p
b100 +"
b1110 A
b1110 5"
b1110 H"
b1010 M
b1010 o
b1010 *"
b10 :
b10 t
b10 -"
b10 R"
b1100 @
b1100 a
b1100 O"
b1000 D
b1000 b
b1000 M"
b1000001000000110110011 L
b1000001000000110110011 g
b1000001000000110110011 w
b1000001000000110110011 |
b1000001000000110110011 ~
b1000001000000110110011 L"
b10000 J"
b1100 N"
b1100 P"
1!
#75
0!
#80
0#
b101 .
b101 1"
b101 4"
b101 G"
b101 ]"
b1010 ."
b1010 -
b1010 0"
b1010 3"
b1010 \"
b1111 6"
b1111 E"
b1 O
b1 a"
b101 _
b101 $"
b1111 C"
b1 j
b1 {
b10000000010000000100011 I"
b10000000010000000100011 Q"
b10 N
b10 `"
b1111 ="
b11111111111111111111111111110101 ?"
b1010 B"
b0 `
b0 %"
1x
1W
b100 ^
b1 0
b1 Y
b1 #"
b1 T"
b10 2
b10 Z
b10 ""
b10 S"
b10 l
b10 z
b10 }
1\
b10100 K"
b1010 2"
b1010 >"
b101 3
b101 [
b101 &"
b101 ^"
b101 s"
b10000 @
b10000 a
b10000 O"
b1100 D
b1100 b
b1100 M"
b1000000000100010000001000110011 L
b1000000000100010000001000110011 g
b1000000000100010000001000110011 w
b1000000000100010000001000110011 |
b1000000000100010000001000110011 ~
b1000000000100010000001000110011 L"
b10100 J"
b10000 N"
b10000 P"
b10 /
b10 v
b10 ["
b1 1
b1 u
b1 Z"
b1100 ?
b1100 q
b1100 ,"
b1000 C
b1000 p
b1000 +"
b1000 A
b1000 5"
b1000 H"
b0 M
b0 o
b0 *"
b11 :
b11 t
b11 -"
b11 R"
0T
b10 U
b10 m
b1000 >
b1000 8"
b1000 c"
b10 9
b10 9"
b10 Y"
b10 d"
b1010 R
b1010 7"
b1010 V"
b1010 b"
b1010 k"
14
b101 Q
b101 g"
b101 o"
b100 =
b100 h"
b1 8
b1 ]
b1 '"
b1 _"
b1 i"
1!
#85
0!
#90
0#
1+
1F"
b11111111111111111111111111111010 ?"
b101 6"
b101 E"
b101 2"
b101 >"
0@"
b1010 .
b1010 1"
b1010 4"
b1010 G"
b1010 ]"
b101 ."
b101 -
b101 0"
b101 3"
b101 \"
b11111111111111111111111111111010 B"
b101 C"
b0 _
b0 $"
b0 N
b0 `"
b0 j
b0 {
b10001010000011 I"
b10001010000011 Q"
b1010 3
b1010 [
b1010 &"
b1010 ^"
b1010 s"
b10 y
0x
0W
b10 X
b100011 V
b0 ^
b100 0
b100 Y
b100 #"
b100 T"
b0 2
b0 Z
b0 ""
b0 S"
1k
1c
b0 l
b0 z
b0 }
0\
b11000 K"
b1010 Q
b1010 g"
b1010 o"
b1000 =
b1000 h"
b10 8
b10 ]
b10 '"
b10 _"
b10 i"
b1100 >
b1100 8"
b1100 c"
b11 9
b11 9"
b11 Y"
b11 d"
b1010 ,
b1010 :"
b1010 e"
b1010 l"
b1111 R
b1111 7"
b1111 V"
b1111 b"
b1111 k"
b1 /
b1 v
b1 ["
b10 1
b10 u
b10 Z"
b101 ;
b101 s
b101 X"
b10000 ?
b10000 q
b10000 ,"
b1100 A
b1100 5"
b1100 H"
b1100 C
b1100 p
b1100 +"
b100 :
b100 t
b100 -"
b100 R"
b1 S
b1 n
b1 )"
b1 ;"
b10100 @
b10100 a
b10100 O"
b10000 D
b10000 b
b10000 M"
b10000000010000000100011 L
b10000000010000000100011 g
b10000000010000000100011 w
b10000000010000000100011 |
b10000000010000000100011 ~
b10000000010000000100011 L"
b11000 J"
b10100 N"
b10100 P"
1!
#95
0!
#100
1#
0+
0F"
b0 6"
b0 E"
1@"
b0 B"
b0 C"
b0 .
b0 1"
b0 4"
b0 G"
b0 ]"
b0 O
b0 a"
b100101000010001100011 I"
b100101000010001100011 Q"
b10 N
b10 `"
b0 ="
b11111111111111111111111111111111 ?"
b11 V
b101 ^
b0 0
b0 Y
b0 #"
b0 T"
1\
1e
1d
0c
1k
b11100 K"
b101 ."
b101 -
b101 0"
b101 3"
b101 \"
b0 2"
b0 >"
b1111 3
b1111 [
b1111 &"
b1111 ^"
b1111 s"
b11000 @
b11000 a
b11000 O"
b10100 D
b10100 b
b10100 M"
b10001010000011 L
b10001010000011 g
b10001010000011 w
b10001010000011 |
b10001010000011 ~
b10001010000011 L"
b11100 J"
b11000 N"
b11000 P"
b100 /
b100 v
b100 ["
b0 1
b0 u
b0 Z"
b0 ;
b0 s
b0 X"
b10100 ?
b10100 q
b10100 ,"
b10000 A
b10000 5"
b10000 H"
b10000 C
b10000 p
b10000 +"
b0 :
b0 t
b0 -"
b0 R"
1T
b0 U
b0 m
b0 S
b0 n
b0 )"
b0 ;"
1F
06
b10000 >
b10000 8"
b10000 c"
b100 9
b100 9"
b100 Y"
b100 d"
b101 ,
b101 :"
b101 e"
b101 l"
b101 R
b101 7"
b101 V"
b101 b"
b101 k"
b1111 Q
b1111 g"
b1111 o"
b1100 =
b1100 h"
b11 8
b11 ]
b11 '"
b11 _"
b11 i"
1!
#105
0!
#110
b0 N
b0 `"
b0 ."
b0 -
b0 0"
b0 3"
b0 \"
b101 _
b101 $"
b0 O
b0 a"
1)
b1 j
b1 {
b1101111 I"
b1101111 Q"
b101 3
b101 [
b101 &"
b101 ^"
b101 s"
1$
1%
1U"
b0 y
b0 X
b1100011 V
b1000 ^
b1 0
b1 Y
b1 #"
b1 T"
b101 2
b101 Z
b101 ""
b101 S"
b1000 h
b1000 !"
1i
b1 l
b1 z
b1 }
0d
0e
0k
0\
b100000 K"
b101 Q
b101 g"
b101 o"
b10000 =
b10000 h"
b100 8
b100 ]
b100 '"
b100 _"
b100 i"
1E
05
b10100 >
b10100 8"
b10100 c"
b0 9
b0 9"
b0 Y"
b0 d"
b0 R
b0 7"
b0 V"
b0 b"
b0 k"
b0 /
b0 v
b0 ["
b11000 ?
b11000 q
b11000 ,"
b10100 A
b10100 5"
b10100 H"
b10100 C
b10100 p
b10100 +"
b101 :
b101 t
b101 -"
b101 R"
1I
1J
0F
16
b11100 @
b11100 a
b11100 O"
b11000 D
b11000 b
b11000 M"
b100101000010001100011 L
b100101000010001100011 g
b100101000010001100011 w
b100101000010001100011 |
b100101000010001100011 ~
b100101000010001100011 L"
b100000 J"
b11100 N"
b11100 P"
1!
#115
0!
#120
0)
0$
0%
0U"
b0 3
b0 [
b0 &"
b0 ^"
b0 s"
0I
0T
0J
06
1H
0E
15
b11000 >
b11000 8"
b11000 c"
b101 9
b101 9"
b101 Y"
b101 d"
b0 ,
b0 :"
b0 e"
b0 l"
b101 f"
b101 m"
04
b0 Q
b0 g"
b0 o"
b10100 =
b10100 h"
b0 8
b0 ]
b0 '"
b0 _"
b0 i"
1!
#125
0!
#130
0(
b0 &
b0 /"
b0 D"
0A"
b101 <"
b101 .
b101 1"
b101 4"
b101 G"
b101 ]"
1+
1#
1F"
b0 6"
b0 E"
0@"
b101 ="
b11111111111111111111111111111010 ?"
b11111111111111111111111111111010 B"
b0 C"
1)
b0 _
b0 $"
b1 O
b1 a"
b101 2"
b101 >"
1*
1B
b0 j
b0 {
b101 3
b101 [
b101 &"
b101 ^"
b101 s"
b101 ."
b101 -
b101 0"
b101 3"
b101 \"
b1101111 V
b0 ^
b0 0
b0 Y
b0 #"
b0 T"
b0 2
b0 Z
b0 ""
b0 S"
1f
1\
b0 l
b0 z
b0 }
0i
b0 h
b0 !"
b100000 K"
1G
14
b11000 =
b11000 h"
b101 8
b101 ]
b101 '"
b101 _"
b101 i"
b101 7
b101 j"
b101 p"
0H
05
b1 /
b1 v
b1 ["
b101 1
b101 u
b101 Z"
b101 ;
b101 s
b101 X"
b11100 ?
b11100 q
b11100 ,"
b11000 C
b11000 p
b11000 +"
b100000 A
b100000 5"
b100000 H"
b1000 M
b1000 o
b1000 *"
b1000 :
b1000 t
b1000 -"
b1000 R"
b1 U
b1 m
b1 S
b1 n
b1 )"
b1 ;"
1P
b100000 @
b100000 a
b100000 O"
b11100 D
b11100 b
b11100 M"
b1101111 L
b1101111 g
b1101111 w
b1101111 |
b1101111 ~
b1101111 L"
b100100 J"
b100000 N"
b100000 P"
1!
#135
0!
#140
0'
b0 &
b0 /"
b0 D"
0(
0#
0A"
b0 O
b0 a"
b101 6"
b101 E"
0+
1@"
b0 <"
b101 B"
b101 C"
0F"
b100100 K"
0)
b0 .
b0 1"
b0 4"
b0 G"
b0 ]"
0*
0B
b0 V
0f
0\
b0 3
b0 [
b0 &"
b0 ^"
b0 s"
b0 @
b0 a
b0 O"
b0 D
b0 b
b0 M"
b0 L
b0 g
b0 w
b0 |
b0 ~
b0 L"
b0 U
b0 m
b0 S
b0 n
b0 )"
b0 ;"
0P
b11100 >
b11100 8"
b11100 c"
b1000 9
b1000 9"
b1000 Y"
b1000 d"
b101 ,
b101 :"
b101 e"
b101 l"
0G
04
1!
#145
0!
#150
1#
b0 6"
b0 E"
b0 C"
b0 ="
b11111111111111111111111111111111 ?"
b0 B"
b0 f"
b0 m"
b0 2"
b0 >"
bx I"
bx Q"
b0 ."
b0 -
b0 0"
b0 3"
b0 \"
b1101111 V
1f
1\
b101000 K"
b11100 =
b11100 h"
b1000 8
b1000 ]
b1000 '"
b1000 _"
b1000 i"
b101 R
b101 7"
b101 V"
b101 b"
b101 k"
b0 /
b0 v
b0 ["
b0 1
b0 u
b0 Z"
b0 ;
b0 s
b0 X"
b0 ?
b0 q
b0 ,"
b0 C
b0 p
b0 +"
b0 A
b0 5"
b0 H"
b0 M
b0 o
b0 *"
b0 :
b0 t
b0 -"
b0 R"
b100100 @
b100100 a
b100100 O"
b100000 D
b100000 b
b100000 M"
b1101111 L
b1101111 g
b1101111 w
b1101111 |
b1101111 ~
b1101111 L"
b101000 J"
b100100 N"
b100100 P"
1!
#155
0!
#160
bx _
bx $"
bx `
bx %"
1)
b101 f"
b101 m"
bx y
xx
xW
bx X
bx V
bx ^
bx 0
bx Y
bx #"
bx T"
bx 2
bx Z
bx ""
bx S"
0f
0\
b100000 K"
1*
1B
b101 3
b101 [
b101 &"
b101 ^"
b101 s"
b101000 @
b101000 a
b101000 O"
b100100 D
b100100 b
b100100 M"
bx L
bx g
bx w
bx |
bx ~
bx L"
b101100 J"
b101000 N"
b101000 P"
b100100 ?
b100100 q
b100100 ,"
b100000 A
b100000 5"
b100000 H"
b100000 C
b100000 p
b100000 +"
1K
16
b0 >
b0 8"
b0 c"
b0 9
b0 9"
b0 Y"
b0 d"
b0 ,
b0 :"
b0 e"
b0 l"
b0 R
b0 7"
b0 V"
b0 b"
b0 k"
b101 Q
b101 g"
b101 o"
b0 7
b0 j"
b0 p"
1!
#165
0!
#170
b0 _
b0 $"
b0 `
b0 %"
b100100 K"
0)
b1101111 I"
b1101111 Q"
b0 3
b0 [
b0 &"
b0 ^"
b0 s"
0*
0B
b0 y
0x
0W
b0 X
b0 V
b0 ^
b0 0
b0 Y
b0 #"
b0 T"
b0 2
b0 Z
b0 ""
b0 S"
b0 Q
b0 g"
b0 o"
b0 =
b0 h"
b0 8
b0 ]
b0 '"
b0 _"
b0 i"
b101 7
b101 j"
b101 p"
15
b100100 >
b100100 8"
b100100 c"
0K
06
b0 @
b0 a
b0 O"
b0 D
b0 b
b0 M"
b0 L
b0 g
b0 w
b0 |
b0 ~
b0 L"
b100100 J"
b100000 N"
b100000 P"
1!
#175
0!
#180
bx I"
bx Q"
b1101111 V
1f
1\
b101000 K"
b100100 @
b100100 a
b100100 O"
b100000 D
b100000 b
b100000 M"
b1101111 L
b1101111 g
b1101111 w
b1101111 |
b1101111 ~
b1101111 L"
b101000 J"
b100100 N"
b100100 P"
b0 ?
b0 q
b0 ,"
b0 A
b0 5"
b0 H"
b0 C
b0 p
b0 +"
05
14
b100100 =
b100100 h"
1!
#185
0!
#190
bx _
bx $"
bx `
bx %"
1)
1*
1B
bx y
xx
xW
bx X
bx V
bx ^
bx 0
bx Y
bx #"
bx T"
bx 2
bx Z
bx ""
bx S"
0f
0\
b100000 K"
04
b0 >
b0 8"
b0 c"
b100100 ?
b100100 q
b100100 ,"
b100000 A
b100000 5"
b100000 H"
b100000 C
b100000 p
b100000 +"
1K
16
b101000 @
b101000 a
b101000 O"
b100100 D
b100100 b
b100100 M"
bx L
bx g
bx w
bx |
bx ~
bx L"
b101100 J"
b101000 N"
b101000 P"
1!
#195
0!
#200
b0 _
b0 $"
b0 `
b0 %"
b1101111 I"
b1101111 Q"
b100100 K"
0)
b0 y
0x
0W
b0 X
b0 V
b0 ^
b0 0
b0 Y
b0 #"
b0 T"
b0 2
b0 Z
b0 ""
b0 S"
0*
0B
b0 @
b0 a
b0 O"
b0 D
b0 b
b0 M"
b0 L
b0 g
b0 w
b0 |
b0 ~
b0 L"
b100100 J"
b100000 N"
b100000 P"
0K
06
15
b100100 >
b100100 8"
b100100 c"
b0 =
b0 h"
1!
#205
0!
#210
bx I"
bx Q"
b1101111 V
1f
1\
b101000 K"
14
b100100 =
b100100 h"
05
b0 ?
b0 q
b0 ,"
b0 A
b0 5"
b0 H"
b0 C
b0 p
b0 +"
b100100 @
b100100 a
b100100 O"
b100000 D
b100000 b
b100000 M"
b1101111 L
b1101111 g
b1101111 w
b1101111 |
b1101111 ~
b1101111 L"
b101000 J"
b100100 N"
b100100 P"
1!
#215
0!
#220
bx _
bx $"
bx `
bx %"
1)
bx y
xx
xW
bx X
bx V
bx ^
bx 0
bx Y
bx #"
bx T"
bx 2
bx Z
bx ""
bx S"
0f
0\
b100000 K"
1*
1B
b101000 @
b101000 a
b101000 O"
b100100 D
b100100 b
b100100 M"
bx L
bx g
bx w
bx |
bx ~
bx L"
b101100 J"
b101000 N"
b101000 P"
b100100 ?
b100100 q
b100100 ,"
b100000 A
b100000 5"
b100000 H"
b100000 C
b100000 p
b100000 +"
1K
16
b0 >
b0 8"
b0 c"
04
1!
#225
0!
#230
b0 _
b0 $"
b0 `
b0 %"
b100100 K"
0)
b1101111 I"
b1101111 Q"
0*
0B
b0 y
0x
0W
b0 X
b0 V
b0 ^
b0 0
b0 Y
b0 #"
b0 T"
b0 2
b0 Z
b0 ""
b0 S"
b0 =
b0 h"
15
b100100 >
b100100 8"
b100100 c"
0K
06
b0 @
b0 a
b0 O"
b0 D
b0 b
b0 M"
b0 L
b0 g
b0 w
b0 |
b0 ~
b0 L"
b100100 J"
b100000 N"
b100000 P"
1!
#235
0!
