top_unit_pipelined.vcd
$date
	Wed Jul 15 20:08:55 2026
$end
$version
	Icarus Verilog
$end
$timescale
	1s
$end
$scope module top_unit_pipelined_test $end
$var wire 1 ! tx $end
$var wire 8 " received_byte [7:0] $end
$var wire 1 # byte_valid $end
$var reg 1 $ clk $end
$var reg 1 % reset $end
$scope module uut1 $end
$var wire 1 $ clk $end
$var wire 1 % reset $end
$var wire 1 & zero $end
$var wire 1 ! tx $end
$var wire 1 ' stallF $end
$var wire 1 ( stallD $end
$var wire 32 ) slt [31:0] $end
$var wire 1 * overflow $end
$var wire 1 + negative $end
$var wire 1 , mul_busy $end
$var wire 1 - mulE $end
$var wire 1 . flushE $end
$var wire 1 / flushD $end
$var wire 1 0 done $end
$var wire 1 1 carry $end
$var wire 32 2 WriteDataM [31:0] $end
$var wire 32 3 SrcBE [31:0] $end
$var wire 32 4 SrcAE [31:0] $end
$var wire 5 5 Rs2E [4:0] $end
$var wire 5 6 Rs2D [4:0] $end
$var wire 5 7 Rs1E [4:0] $end
$var wire 5 8 Rs1D [4:0] $end
$var wire 64 9 Result_M [63:0] $end
$var wire 32 : ResultW [31:0] $end
$var wire 1 ; RegWriteW $end
$var wire 1 < RegWriteM $end
$var wire 1 = RegWriteE $end
$var wire 32 > ReadDataW [31:0] $end
$var wire 5 ? RdW [4:0] $end
$var wire 5 @ RdM [4:0] $end
$var wire 5 A RdE [4:0] $end
$var wire 32 B RD2E [31:0] $end
$var wire 32 C RD1E [31:0] $end
$var wire 32 D PCplus4W [31:0] $end
$var wire 32 E PCplus4M [31:0] $end
$var wire 32 F PCplus4E [31:0] $end
$var wire 32 G PCplus4D [31:0] $end
$var wire 32 H PCTargetE [31:0] $end
$var wire 1 I PCSrcE $end
$var wire 32 J PCE [31:0] $end
$var wire 32 K PCD [31:0] $end
$var wire 1 L MemWriteM $end
$var wire 1 M MemWriteE $end
$var wire 1 N MemToRegW $end
$var wire 1 O MemToRegM $end
$var wire 1 P MemToRegE $end
$var wire 1 Q MemReadE $end
$var wire 1 R JumpE $end
$var wire 32 S InstrD [31:0] $end
$var wire 32 T Imm_outE [31:0] $end
$var wire 2 U ForwardBE [1:0] $end
$var wire 2 V ForwardAE [1:0] $end
$var wire 1 W BranchE $end
$var wire 32 X ALuResultW [31:0] $end
$var wire 32 Y ALuResultM [31:0] $end
$var wire 3 Z ALUcontrolE [2:0] $end
$var wire 1 [ ALUSrcE $end
$var wire 2 \ ALUOpE [1:0] $end
$scope module decode $end
$var wire 1 $ clk $end
$var wire 1 % reset $end
$var wire 7 ] op [6:0] $end
$var wire 1 , mul_busy $end
$var wire 1 ^ mulD $end
$var wire 1 _ func7_5 $end
$var wire 1 . flushE $end
$var wire 5 ` Rs2D [4:0] $end
$var wire 5 a Rs1D [4:0] $end
$var wire 32 b ResultW [31:0] $end
$var wire 1 ; RegWriteW $end
$var wire 1 c RegWriteD $end
$var wire 5 d RdW [4:0] $end
$var wire 5 e RdD [4:0] $end
$var wire 32 f RD2D [31:0] $end
$var wire 32 g RD1D [31:0] $end
$var wire 32 h PCplus4D [31:0] $end
$var wire 32 i PCD [31:0] $end
$var wire 1 j MemWriteD $end
$var wire 1 k MemToRegD $end
$var wire 1 l MemReadD $end
$var wire 1 m JumpD $end
$var wire 32 n InstrD [31:0] $end
$var wire 32 o Imm_outD [31:0] $end
$var wire 1 p BranchD $end
$var wire 3 q ALUcontrolD [2:0] $end
$var wire 1 r ALUSrcD $end
$var wire 2 s ALUOpD [1:0] $end
$var reg 2 t ALUOpE [1:0] $end
$var reg 1 [ ALUSrcE $end
$var reg 3 u ALUcontrolE [2:0] $end
$var reg 1 W BranchE $end
$var reg 32 v Imm_outE [31:0] $end
$var reg 1 R JumpE $end
$var reg 1 Q MemReadE $end
$var reg 1 P MemToRegE $end
$var reg 1 M MemWriteE $end
$var reg 32 w PCE [31:0] $end
$var reg 32 x PCplus4E [31:0] $end
$var reg 32 y RD1E [31:0] $end
$var reg 32 z RD2E [31:0] $end
$var reg 5 { RdE [4:0] $end
$var reg 1 = RegWriteE $end
$var reg 5 | Rs1E [4:0] $end
$var reg 5 } Rs2E [4:0] $end
$var reg 1 - mulE $end
$scope module alu_control $end
$var wire 32 ~ instruction [31:0] $end
$var wire 1 !" func7_5 $end
$var wire 7 "" func7 [6:0] $end
$var wire 3 #" func3 [2:0] $end
$var wire 2 $" ALUOp [1:0] $end
$var reg 3 %" ALUcontrol [2:0] $end
$var reg 1 ^ mulD $end
$upscope $end
$scope module control_unit $end
$var wire 32 &" instruction [31:0] $end
$var reg 2 '" ALUOp [1:0] $end
$var reg 1 r ALUSrc $end
$var reg 1 p Branch $end
$var reg 1 m Jump $end
$var reg 1 l MemRead $end
$var reg 1 k MemToReg $end
$var reg 1 j MemWrite $end
$var reg 1 c RegWrite $end
$upscope $end
$scope module imm_gen $end
$var wire 32 (" instruction [31:0] $end
$var reg 32 )" imm_out [31:0] $end
$upscope $end
$scope module register_file $end
$var wire 1 $ clk $end
$var wire 5 *" rs1_addr [4:0] $end
$var wire 5 +" rs2_addr [4:0] $end
$var wire 1 ; we $end
$var wire 32 ," rs2_data [31:0] $end
$var wire 32 -" rs1_data [31:0] $end
$var wire 32 ." rd_data [31:0] $end
$var wire 5 /" rd_addr [4:0] $end
$var integer 32 0" i [31:0] $end
$upscope $end
$upscope $end
$scope module execute $end
$var wire 1 [ ALUSrcE $end
$var wire 3 1" ALUcontrolE [2:0] $end
$var wire 1 W BranchE $end
$var wire 32 2" Imm_outE [31:0] $end
$var wire 1 R JumpE $end
$var wire 1 Q MemReadE $end
$var wire 1 P MemToRegE $end
$var wire 1 M MemWriteE $end
$var wire 32 3" PCE [31:0] $end
$var wire 1 I PCSrcE $end
$var wire 32 4" PCplus4E [31:0] $end
$var wire 5 5" RdE [4:0] $end
$var wire 1 = RegWriteE $end
$var wire 32 6" WriteDataE [31:0] $end
$var wire 1 $ clk $end
$var wire 1 - mulE $end
$var wire 1 , mul_busy $end
$var wire 1 % reset $end
$var wire 1 & zero $end
$var wire 32 7" slt [31:0] $end
$var wire 1 * overflow $end
$var wire 1 + negative $end
$var wire 1 0 done $end
$var wire 1 1 carry $end
$var wire 32 8" SrcBE [31:0] $end
$var wire 32 9" SrcAE [31:0] $end
$var wire 32 :" Src2E [31:0] $end
$var wire 64 ;" Result_M [63:0] $end
$var wire 32 <" RD2E [31:0] $end
$var wire 32 =" RD1E [31:0] $end
$var wire 32 >" PCTargetE [31:0] $end
$var wire 32 ?" ALuResultE_A [31:0] $end
$var wire 32 @" ALuResultE [31:0] $end
$var reg 32 A" ALuResultM [31:0] $end
$var reg 1 O MemToRegM $end
$var reg 1 L MemWriteM $end
$var reg 32 B" PCplus4M [31:0] $end
$var reg 5 C" RdM [4:0] $end
$var reg 1 < RegWriteM $end
$var reg 32 D" WriteDataM [31:0] $end
$scope module alu $end
$var wire 3 E" ALUcontrol [2:0] $end
$var wire 32 F" a_and_b [31:0] $end
$var wire 32 G" a_or_b [31:0] $end
$var wire 32 H" b [31:0] $end
$var wire 1 1 carry $end
$var wire 32 I" not_b [31:0] $end
$var wire 1 * overflow $end
$var wire 1 J" xnor_gate $end
$var wire 1 K" xor_gate $end
$var wire 1 & zero $end
$var wire 32 L" wire_b [31:0] $end
$var wire 32 M" sum [31:0] $end
$var wire 32 N" slt [31:0] $end
$var wire 32 O" result [31:0] $end
$var wire 1 + negative $end
$var wire 1 P" cout $end
$var wire 32 Q" a [31:0] $end
$upscope $end
$scope module mul $end
$var wire 32 R" b [31:0] $end
$var wire 1 $ clk $end
$var wire 1 % reset $end
$var wire 1 - start $end
$var wire 1 0 done $end
$var wire 32 S" a [31:0] $end
$var wire 64 T" Result [63:0] $end
$var reg 64 U" Result_in [63:0] $end
$var reg 64 V" a_in [63:0] $end
$var reg 64 W" b_in [63:0] $end
$var reg 6 X" count [5:0] $end
$var reg 1 0 done_in $end
$var reg 1 Y" start_prev $end
$upscope $end
$upscope $end
$scope module fetch $end
$var wire 1 I PCSrcE $end
$var wire 32 Z" PCTargetE [31:0] $end
$var wire 1 $ clk $end
$var wire 1 % reset $end
$var wire 1 ' stallF $end
$var wire 32 [" instruction [31:0] $end
$var wire 1 / flushD $end
$var wire 32 \" PCPlus4F [31:0] $end
$var wire 32 ]" PCF_next [31:0] $end
$var reg 32 ^" InstrD [31:0] $end
$var reg 32 _" PCD [31:0] $end
$var reg 32 `" PCF [31:0] $end
$var reg 32 a" PCplus4D [31:0] $end
$scope module instr_mem $end
$var wire 32 b" addr [31:0] $end
$var wire 32 c" instruction [31:0] $end
$upscope $end
$upscope $end
$scope module hazard_control_unit $end
$var wire 1 Q MemReadE $end
$var wire 1 I PCSrcE $end
$var wire 5 d" RdE [4:0] $end
$var wire 5 e" Rs1D [4:0] $end
$var wire 5 f" Rs2D [4:0] $end
$var wire 1 / flushD $end
$var wire 1 . flushE $end
$var wire 1 , mul_busy $end
$var wire 1 ( stallD $end
$var wire 1 ' stallF $end
$var reg 1 g" LoadUseHazard $end
$upscope $end
$scope module hazard_unit $end
$var wire 32 h" ALuResultM [31:0] $end
$var wire 32 i" RD1E [31:0] $end
$var wire 32 j" RD2E [31:0] $end
$var wire 5 k" RdM [4:0] $end
$var wire 1 < RegWriteM $end
$var wire 5 l" Rs1E [4:0] $end
$var wire 5 m" Rs2E [4:0] $end
$var wire 32 n" SrcBE [31:0] $end
$var wire 32 o" SrcAE [31:0] $end
$var wire 32 p" ResultW [31:0] $end
$var wire 1 ; RegWriteW $end
$var wire 5 q" RdW [4:0] $end
$var wire 2 r" ForwardBE [1:0] $end
$var wire 2 s" ForwardAE [1:0] $end
$upscope $end
$scope module memory_access $end
$var wire 32 t" ALuResultM [31:0] $end
$var wire 1 O MemToRegM $end
$var wire 1 L MemWriteM $end
$var wire 32 u" PCplus4M [31:0] $end
$var wire 5 v" RdM [4:0] $end
$var wire 1 < RegWriteM $end
$var wire 32 w" WriteDataM [31:0] $end
$var wire 1 $ clk $end
$var wire 1 % reset $end
$var wire 1 ! tx $end
$var wire 32 x" data_data_memory [31:0] $end
$var wire 32 y" data_UART [31:0] $end
$var wire 32 z" address_data_memory [31:0] $end
$var wire 32 {" address_UART [31:0] $end
$var wire 1 |" UART_busy $end
$var wire 32 }" ReadDataM_out [31:0] $end
$var wire 32 ~" ReadDataM_in [31:0] $end
$var wire 1 !# MemWriteM_data_memory $end
$var wire 1 "# MemWriteM_UART $end
$var reg 32 ## ALuResultW [31:0] $end
$var reg 1 N MemToRegW $end
$var reg 32 $# PCplus4W [31:0] $end
$var reg 5 %# RdW [4:0] $end
$var reg 32 &# ReadDataW [31:0] $end
$var reg 1 ; RegWriteW $end
$scope module UART_tx $end
$var wire 1 $ clk $end
$var wire 8 '# data_in [7:0] $end
$var wire 1 % reset $end
$var wire 1 "# MemWriteM_UART $end
$var parameter 32 (# CLKS_PER_BIT $end
$var parameter 2 )# data $end
$var parameter 2 *# idle $end
$var parameter 2 +# start $end
$var parameter 2 ,# stop $end
$var reg 3 -# bit_counter [2:0] $end
$var reg 1 |" busy $end
$var reg 8 .# cycle_counter [7:0] $end
$var reg 8 /# shift_reg [7:0] $end
$var reg 2 0# state [1:0] $end
$var reg 1 ! tx $end
$upscope $end
$scope module bus_interconnect $end
$var wire 1 L MemWriteM $end
$var wire 1 |" UART_busy $end
$var wire 32 1# address [31:0] $end
$var wire 32 2# data_in [31:0] $end
$var wire 32 3# data_out [31:0] $end
$var reg 1 "# MemWriteM_UART $end
$var reg 1 !# MemWriteM_data_memory $end
$var reg 32 4# ReadDataM [31:0] $end
$var reg 32 5# address_UART [31:0] $end
$var reg 32 6# address_data_memory [31:0] $end
$var reg 32 7# data_UART [31:0] $end
$var reg 32 8# data_data_memory [31:0] $end
$upscope $end
$scope module data_memory $end
$var wire 32 9# address [31:0] $end
$var wire 1 $ clk $end
$var wire 32 :# data_in [31:0] $end
$var wire 32 ;# data_out [31:0] $end
$var wire 1 !# we $end
$var integer 32 <# i [31:0] $end
$upscope $end
$upscope $end
$scope module write_back $end
$var wire 32 =# ALuResultW [31:0] $end
$var wire 1 N MemToRegW $end
$var wire 32 ># ReadDataW [31:0] $end
$var wire 1 ?# clk $end
$var wire 1 @# reset $end
$var wire 32 A# ResultW [31:0] $end
$upscope $end
$upscope $end
$scope module uut2 $end
$var wire 1 $ clk $end
$var wire 1 % reset $end
$var wire 1 ! tx $end
$var parameter 32 B# CLKS_PER_BIT $end
$var parameter 2 C# data_out $end
$var parameter 2 D# idle $end
$var parameter 2 E# start $end
$var parameter 2 F# stop $end
$var reg 3 G# bit_counter [2:0] $end
$var reg 1 # byte_valid $end
$var reg 8 H# cycle_counter [7:0] $end
$var reg 8 I# received_byte [7:0] $end
$var reg 2 J# state [1:0] $end
$upscope $end
$upscope $end
$enddefinitions $end
$comment Show the parameter values. $end
$dumpall
b11 F#
b1 E#
b0 D#
b10 C#
b100 B#
b11 ,#
b1 +#
b0 *#
b10 )#
b100 (#
$end
#0
$dumpvars
bx J#
bx I#
bx H#
bx G#
bx A#
z@#
z?#
bx >#
bx =#
b10000000000 <#
b0 ;#
b0 :#
b0 9#
b0 8#
bx 7#
b0 6#
bx 5#
b0 4#
b0 3#
bx 2#
bx 1#
b0 0#
bx /#
bx .#
bx -#
bx '#
bx &#
bx %#
bx $#
bx ##
x"#
0!#
b0 ~"
b0 }"
0|"
bx {"
b0 z"
bx y"
b0 x"
bx w"
bx v"
bx u"
bx t"
bx s"
bx r"
bx q"
bx p"
bx o"
bx n"
bx m"
bx l"
bx k"
bx j"
bx i"
bx h"
xg"
bx f"
bx e"
bx d"
bx c"
bx b"
bx a"
bx `"
bx _"
bx ^"
bx ]"
bx \"
bx ["
bx Z"
xY"
b100000 X"
bx W"
bx V"
bx U"
bx T"
bx S"
bx R"
bx Q"
xP"
bx O"
b0x N"
bx M"
bx L"
xK"
xJ"
bx I"
bx H"
bx G"
bx F"
bx E"
bx D"
bx C"
bx B"
bx A"
bx @"
bx ?"
bx >"
bx ="
bx <"
bx ;"
bx :"
bx 9"
bx 8"
b0x 7"
bx 6"
bx 5"
bx 4"
bx 3"
bx 2"
bx 1"
b100000 0"
bx /"
bx ."
bx -"
bx ,"
bx +"
bx *"
bx )"
bx ("
bx '"
bx &"
bx %"
bx $"
bx #"
bx ""
x!"
bx ~
bx }
bx |
bx {
bx z
bx y
bx x
bx w
bx v
bx u
bx t
bx s
xr
bx q
xp
bx o
bx n
xm
xl
xk
xj
bx i
bx h
bx g
bx f
bx e
bx d
xc
bx b
bx a
bx `
x_
x^
bx ]
bx \
x[
bx Z
bx Y
bx X
xW
bx V
bx U
bx T
bx S
xR
xQ
xP
xO
xN
xM
xL
bx K
bx J
xI
bx H
bx G
bx F
bx E
bx D
bx C
bx B
bx A
bx @
bx ?
bx >
x=
x<
x;
bx :
bx 9
bx 8
bx 7
bx 6
bx 5
bx 4
bx 3
bx 2
x1
x0
x/
x.
x-
x,
x+
x*
b0x )
x(
x'
x&
1%
1$
0#
bx "
1!
$end
#5
0$
#10
0*
b0 )
b0 7"
b0 N"
0+
1&
b0 @"
0K"
b0 ?"
b0 O"
01
b0 M"
0P"
1J"
b11111111111111111111111111111111 I"
b0 L"
b0 G"
b0 F"
b0 :"
b0 H"
b0 R"
b0 V
b0 s"
b0 U
b0 r"
b0 4
b0 9"
b0 ="
b0 Q"
b0 S"
b0 o"
b0 6"
b0 3
b0 8"
b0 <"
b0 n"
0.
b0 f
b0 ,"
b0 g
b0 -"
b0 '#
0/
0I
0'
0(
0^
b0 q
b0 %"
b10100000000000010010011 ["
b10100000000000010010011 c"
b0 :
b0 b
b0 ."
b0 p"
b0 A#
0"#
b0 y"
b0 7#
b0 {"
b0 5#
0,
0g"
b0 #"
0!"
b0 ""
0_
b0 ]
b0 e
b0 6
b0 `
b0 +"
b0 f"
b0 8
b0 a
b0 *"
b0 e"
b0 s
b0 $"
b0 '"
0m
0p
0k
0l
0j
0r
0c
b0 o
b0 )"
b100 ]"
b0 G#
b0 H#
b0 J#
b0 "
b0 I#
0N
0;
b0 X
b0 ##
b0 =#
b0 D
b0 $#
b0 ?
b0 d
b0 /"
b0 q"
b0 %#
b0 >
b0 &#
b0 >#
b0 -#
b0 /#
b0 .#
0O
0L
0<
b0 E
b0 B"
b0 u"
b0 @
b0 C"
b0 k"
b0 v"
b0 2
b0 D"
b0 w"
b0 2#
b0 Y
b0 A"
b0 h"
b0 t"
b0 1#
0Y"
00
b0 9
b0 ;"
b0 T"
b0 U"
b0 W"
b0 V"
0-
b0 5
b0 }
b0 m"
b0 7
b0 |
b0 l"
b0 B
b0 z
b0 j"
b0 C
b0 y
b0 i"
b0 F
b0 x
b0 4"
b0 H
b0 >"
b0 Z"
b0 J
b0 w
b0 3"
b0 T
b0 v
b0 2"
b0 A
b0 {
b0 5"
b0 d"
0P
0[
b0 \
b0 t
b0 Z
b0 u
b0 1"
b0 E"
0W
0R
0Q
0M
0=
b0 G
b0 h
b0 a"
b0 K
b0 i
b0 _"
b0 S
b0 n
b0 ~
b0 &"
b0 ("
b0 ^"
b100 \"
b0 `"
b0 b"
1$
#15
0$
#20
1$
#25
0$
#30
1$
#35
0$
#40
0%
1$
#45
0$
#50
b101000000000000100010011 ["
b101000000000000100010011 c"
b10011 ]
b1 e
b101 6
b101 `
b101 +"
b101 f"
b101 o
b101 )"
1r
1c
b1000 ]"
b100 G
b100 h
b100 a"
b10100000000000010010011 S
b10100000000000010010011 n
b10100000000000010010011 ~
b10100000000000010010011 &"
b10100000000000010010011 ("
b10100000000000010010011 ^"
b1000 \"
b100 `"
b100 b"
1$
#55
0$
#60
0&
b101 @"
b101 ?"
b101 O"
b101 M"
b10001000001000000110110011 ["
b10001000001000000110110011 c"
b101 G"
b11111111111111111111111111111010 I"
b101 L"
b10 e
b1010 6
b1010 `
b1010 +"
b1010 f"
1r
1c
b1010 o
b1010 )"
b1100 ]"
b101 :"
b101 H"
b101 R"
b1000 G
b1000 h
b1000 a"
b100 K
b100 i
b100 _"
b101000000000000100010011 S
b101000000000000100010011 n
b101000000000000100010011 ~
b101000000000000100010011 &"
b101000000000000100010011 ("
b101000000000000100010011 ^"
b1100 \"
b1000 `"
b1000 b"
b101 5
b101 }
b101 m"
b100 F
b100 x
b100 4"
b101 H
b101 >"
b101 Z"
b101 T
b101 v
b101 2"
b1 A
b1 {
b1 5"
b1 d"
1[
1=
1$
#65
0$
#70
b1010 @"
b1010 ?"
b1010 O"
b1010 M"
b1010 G"
b11111111111111111111111111110101 I"
b1010 L"
1^
b11111111010111111111000001101111 ["
b11111111010111111111000001101111 c"
b101 z"
b101 6#
b101 9#
b1010 :"
b1010 H"
b1010 R"
b1 ""
b110011 ]
b11 e
b10 6
b10 `
b10 +"
b10 f"
b1 8
b1 a
b1 *"
b1 e"
b0 o
b0 )"
b10 s
b10 $"
b10 '"
0r
1c
b10000 ]"
1<
b100 E
b100 B"
b100 u"
b1 @
b1 C"
b1 k"
b1 v"
b101 Y
b101 A"
b101 h"
b101 t"
b101 1#
b1010 5
b1010 }
b1010 m"
b1000 F
b1000 x
b1000 4"
b100 J
b100 w
b100 3"
b1110 H
b1110 >"
b1110 Z"
b1010 T
b1010 v
b1010 2"
b10 A
b10 {
b10 5"
b10 d"
b1100 G
b1100 h
b1100 a"
b1000 K
b1000 i
b1000 _"
b10001000001000000110110011 S
b10001000001000000110110011 n
b10001000001000000110110011 ~
b10001000001000000110110011 &"
b10001000001000000110110011 ("
b10001000001000000110110011 ^"
b10000 \"
b1100 `"
b1100 b"
1$
#75
0$
#80
0&
b1111 @"
b101 4
b101 9"
b101 ="
b101 Q"
b101 S"
b101 o"
b1010 6"
b1010 3
b1010 8"
b1010 <"
b1010 n"
b1111 ?"
b1111 O"
b1 V
b1 s"
b1111 M"
1^
bx ["
bx c"
1(
1'
b10 U
b10 r"
b1111 G"
b11111111111111111111111111110101 I"
b1010 L"
b0 g
b0 -"
b111 #"
1!"
b1111111 ""
1_
b1101111 ]
b0 e
b10101 6
b10101 `
b10101 +"
b10101 f"
b11111 8
b11111 a
b11111 *"
b11111 e"
1m
b0 s
b0 $"
b0 '"
1c
b11111111111111111111111111110100 o
b11111111111111111111111111110100 )"
b10100 ]"
1,
b1010 :"
b1010 H"
b1010 R"
b1010 z"
b1010 6#
b1010 9#
b101 :
b101 b
b101 ."
b101 p"
b101 A#
b10000 G
b10000 h
b10000 a"
b1100 K
b1100 i
b1100 _"
b11111111010111111111000001101111 S
b11111111010111111111000001101111 n
b11111111010111111111000001101111 ~
b11111111010111111111000001101111 &"
b11111111010111111111000001101111 ("
b11111111010111111111000001101111 ^"
b10100 \"
b10000 `"
b10000 b"
1-
b10 5
b10 }
b10 m"
b1 7
b1 |
b1 l"
b1100 F
b1100 x
b1100 4"
b1000 J
b1000 w
b1000 3"
b1000 H
b1000 >"
b1000 Z"
b0 T
b0 v
b0 2"
b11 A
b11 {
b11 5"
b11 d"
0[
b10 \
b10 t
b1000 E
b1000 B"
b1000 u"
b10 @
b10 C"
b10 k"
b10 v"
b1010 Y
b1010 A"
b1010 h"
b1010 t"
b1010 1#
1;
b101 X
b101 ##
b101 =#
b100 D
b100 $#
b1 ?
b1 d
b1 /"
b1 q"
b1 %#
1$
#85
0$
#90
b1010 @"
b1010 ?"
b1010 O"
b1010 M"
b1010 G"
b0 4
b0 9"
b0 ="
b0 Q"
b0 S"
b0 o"
b0 V
b0 s"
b1010 :
b1010 b
b1010 ."
b1010 p"
b1010 A#
b1010 X
b1010 ##
b1010 =#
b1000 D
b1000 $#
b10 ?
b10 d
b10 /"
b10 q"
b10 %#
b1010 W"
b101 V"
1Y"
1$
#95
0$
#100
b11111 X"
b1010 V"
b101 W"
1$
#105
0$
#110
b11110 X"
b10100 V"
b10 W"
b1010 9
b1010 ;"
b1010 T"
b1010 U"
1$
#115
0$
#120
b11101 X"
b101000 V"
b1 W"
1$
#125
0$
#130
b11100 X"
b1010000 V"
b0 W"
b110010 9
b110010 ;"
b110010 T"
b110010 U"
1$
#135
0$
#140
b11011 X"
b10100000 V"
1$
#145
0$
#150
b11010 X"
b101000000 V"
1$
#155
0$
#160
b11001 X"
b1010000000 V"
1$
#165
0$
#170
b11000 X"
b10100000000 V"
1$
#175
0$
#180
b10111 X"
b101000000000 V"
1$
#185
0$
#190
b10110 X"
b1010000000000 V"
1$
#195
0$
#200
b10101 X"
b10100000000000 V"
1$
#205
0$
#210
b10100 X"
b101000000000000 V"
1$
#215
0$
#220
b10011 X"
b1010000000000000 V"
1$
#225
0$
#230
b10010 X"
b10100000000000000 V"
1$
#235
0$
#240
b10001 X"
b101000000000000000 V"
1$
#245
0$
#250
b10000 X"
b1010000000000000000 V"
1$
#255
0$
#260
b1111 X"
b10100000000000000000 V"
1$
#265
0$
#270
b1110 X"
b101000000000000000000 V"
1$
#275
0$
#280
b1101 X"
b1010000000000000000000 V"
1$
#285
0$
#290
b1100 X"
b10100000000000000000000 V"
1$
#295
0$
#300
b1011 X"
b101000000000000000000000 V"
1$
#305
0$
#310
b1010 X"
b1010000000000000000000000 V"
1$
#315
0$
#320
b1001 X"
b10100000000000000000000000 V"
1$
#325
0$
#330
b1000 X"
b101000000000000000000000000 V"
1$
#335
0$
#340
b111 X"
b1010000000000000000000000000 V"
1$
#345
0$
#350
b110 X"
b10100000000000000000000000000 V"
1$
#355
0$
#360
b101 X"
b101000000000000000000000000000 V"
1$
#365
0$
#370
b100 X"
b1010000000000000000000000000000 V"
1$
#375
0$
#380
b11 X"
b10100000000000000000000000000000 V"
1$
#385
0$
#390
b10 X"
b101000000000000000000000000000000 V"
1$
#395
0$
#400
b1 X"
b1010000000000000000000000000000000 V"
1$
#405
0$
#410
b0 X"
b10100000000000000000000000000000000 V"
1$
#415
0$
#420
b110010 @"
0(
0'
0,
10
1$
#425
0$
#430
1&
b0 ?"
b0 O"
b0 M"
b0 G"
b11111111111111111111111111111111 I"
b0 L"
b0 :"
b0 H"
b0 R"
b0 6"
b0 3
b0 8"
b0 <"
b0 n"
bx f
bx ,"
bx g
bx -"
b0 U
b0 r"
1.
0^
b1010 x"
b1010 8#
b1010 :#
b110010 z"
b110010 6#
b110010 9#
1/
1I
bx #"
x!"
bx ""
x_
bx ]
bx e
bx 6
bx `
bx +"
bx f"
bx 8
bx a
bx *"
bx e"
b0 o
b0 )"
0m
0c
b0 ]"
b1100 E
b1100 B"
b1100 u"
b11 @
b11 C"
b11 k"
b11 v"
b1010 2
b1010 D"
b1010 w"
b1010 2#
b110010 Y
b110010 A"
b110010 h"
b110010 t"
b110010 1#
b10101 5
b10101 }
b10101 m"
b11111 7
b11111 |
b11111 l"
b10000 F
b10000 x
b10000 4"
b1100 J
b1100 w
b1100 3"
b0 H
b0 >"
b0 Z"
b11111111111111111111111111110100 T
b11111111111111111111111111110100 v
b11111111111111111111111111110100 2"
b0 A
b0 {
b0 5"
b0 d"
b0 \
b0 t
1R
b10100 G
b10100 h
b10100 a"
b10000 K
b10000 i
b10000 _"
bx S
bx n
bx ~
bx &"
bx ("
bx ^"
b11000 \"
b10100 `"
b10100 b"
1$
#435
0$
#440
b0 f
b0 ,"
b0 g
b0 -"
b0 @"
b10100000000000010010011 ["
b10100000000000010010011 c"
b100 ]"
0.
b0 #"
0!"
b0 ""
0_
b0 ]
b0 e
b0 6
b0 `
b0 +"
b0 f"
b0 8
b0 a
b0 *"
b0 e"
0/
0I
b0 x"
b0 8#
b0 :#
b110010 z"
b110010 6#
b110010 9#
b110010 :
b110010 b
b110010 ."
b110010 p"
b110010 A#
b0 G
b0 h
b0 a"
b0 K
b0 i
b0 _"
b0 S
b0 n
b0 ~
b0 &"
b0 ("
b0 ^"
b100 \"
b0 `"
b0 b"
0-
0R
0=
b10000 E
b10000 B"
b10000 u"
b0 @
b0 C"
b0 k"
b0 v"
b0 2
b0 D"
b0 w"
b0 2#
b110010 X
b110010 ##
b110010 =#
b1100 D
b1100 $#
b11 ?
b11 d
b11 /"
b11 q"
b11 %#
1$
#445
0$
#450
b101000000000000100010011 ["
b101000000000000100010011 c"
b0 z"
b0 6#
b0 9#
b10011 ]
b1 e
b101 6
b101 `
b101 +"
b101 f"
b101 o
b101 )"
1r
1c
b1000 ]"
b10000 D
b10000 $#
b0 ?
b0 d
b0 /"
b0 q"
b0 %#
0<
b0 Y
b0 A"
b0 h"
b0 t"
b0 1#
0Y"
b0 5
b0 }
b0 m"
b0 7
b0 |
b0 l"
b0 F
b0 x
b0 4"
b0 J
b0 w
b0 3"
b0 H
b0 >"
b0 Z"
b0 T
b0 v
b0 2"
b100 G
b100 h
b100 a"
b10100000000000010010011 S
b10100000000000010010011 n
b10100000000000010010011 ~
b10100000000000010010011 &"
b10100000000000010010011 ("
b10100000000000010010011 ^"
b1000 \"
b100 `"
b100 b"
1$
#455
0$
#460
0&
b101 @"
b101 ?"
b101 O"
b101 M"
b10001000001000000110110011 ["
b10001000001000000110110011 c"
b101 G"
b11111111111111111111111111111010 I"
b101 L"
b10 e
b1010 6
b1010 `
b1010 +"
b1010 f"
1r
1c
b1010 o
b1010 )"
b1100 ]"
b101 :"
b101 H"
b101 R"
b0 :
b0 b
b0 ."
b0 p"
b0 A#
b1000 G
b1000 h
b1000 a"
b100 K
b100 i
b100 _"
b101000000000000100010011 S
b101000000000000100010011 n
b101000000000000100010011 ~
b101000000000000100010011 &"
b101000000000000100010011 ("
b101000000000000100010011 ^"
b1100 \"
b1000 `"
b1000 b"
b101 5
b101 }
b101 m"
b100 F
b100 x
b100 4"
b101 H
b101 >"
b101 Z"
b101 T
b101 v
b101 2"
b1 A
b1 {
b1 5"
b1 d"
1[
1=
b0 E
b0 B"
b0 u"
0;
b0 X
b0 ##
b0 =#
1$
#465
0$
#470
b1010 @"
b1010 ?"
b1010 O"
b1010 M"
b1010 f
b1010 ,"
b101 g
b101 -"
b1010 G"
b11111111111111111111111111110101 I"
b1010 L"
1^
b11111111010111111111000001101111 ["
b11111111010111111111000001101111 c"
b101 z"
b101 6#
b101 9#
b1010 :"
b1010 H"
b1010 R"
b1 ""
b110011 ]
b11 e
b10 6
b10 `
b10 +"
b10 f"
b1 8
b1 a
b1 *"
b1 e"
b0 o
b0 )"
b10 s
b10 $"
b10 '"
0r
1c
b10000 ]"
b0 D
b0 $#
1<
b100 E
b100 B"
b100 u"
b1 @
b1 C"
b1 k"
b1 v"
b101 Y
b101 A"
b101 h"
b101 t"
b101 1#
b1010 5
b1010 }
b1010 m"
b1000 F
b1000 x
b1000 4"
b100 J
b100 w
b100 3"
b1110 H
b1110 >"
b1110 Z"
b1010 T
b1010 v
b1010 2"
b10 A
b10 {
b10 5"
b10 d"
b1100 G
b1100 h
b1100 a"
b1000 K
b1000 i
b1000 _"
b10001000001000000110110011 S
b10001000001000000110110011 n
b10001000001000000110110011 ~
b10001000001000000110110011 &"
b10001000001000000110110011 ("
b10001000001000000110110011 ^"
b10000 \"
b1100 `"
b1100 b"
1$
#475
0$
